convergentRound.vcd
$comment Generated by Amaranth $end
$date 2024-08-11 11:06:19.273891 $end
$timescale 1 fs $end
$scope module bench $end
$scope module top $end
$var wire 1 ! clk $end
$var wire 1 " rst $end
$var wire 12 # dataIn $end
$var wire 8 $ dataOut $end
$var wire 2 % debug $end
$upscope $end
$upscope $end
$enddefinitions $end
#0
$dumpvars
0!
0"
b100000000001 #
b0 $
b0 %
$end
#5000000
1!
b10000000 $
b10 %
b100000000010 #
#10000000
0!
#15000000
1!
b100000000011 #
#20000000
0!
#25000000
1!
b100000000100 #
#30000000
0!
#35000000
1!
b100000000101 #
#40000000
0!
#45000000
1!
b100000000110 #
#50000000
0!
#55000000
1!
b100000000111 #
#60000000
0!
#65000000
1!
b100000001000 #
#70000000
0!
#75000000
1!
b11 %
b100000001001 #
#80000000
0!
#85000000
1!
b10000001 $
b1 %
b100000001010 #
#90000000
0!
#95000000
1!
b100000001011 #
#100000000
0!
#105000000
1!
b100000001100 #
#110000000
0!
#115000000
1!
b100000001101 #
#120000000
0!
#125000000
1!
b100000001110 #
#130000000
0!
#135000000
1!
b100000001111 #
#140000000
0!
#145000000
1!
b100000010000 #
#150000000
0!
#155000000
1!
b10 %
b100000010001 #
#160000000
0!
#165000000
1!
b100000010010 #
#170000000
0!
#175000000
1!
b100000010011 #
#180000000
0!
#185000000
1!
b100000010100 #
#190000000
0!
#195000000
1!
b100000010101 #
#200000000
0!
#205000000
1!
b100000010110 #
#210000000
0!
#215000000
1!
b100000010111 #
#220000000
0!
#225000000
1!
b100000011000 #
#230000000
0!
#235000000
1!
b11 %
b100000011001 #
#240000000
0!
#245000000
1!
b10000010 $
b1 %
b100000011010 #
#250000000
0!
#255000000
1!
b100000011011 #
#260000000
0!
#265000000
1!
b100000011100 #
#270000000
0!
#275000000
1!
b100000011101 #
#280000000
0!
#285000000
1!
b100000011110 #
#290000000
0!
#295000000
1!
b100000011111 #
#300000000
0!
#305000000
1!
b100000100000 #
#310000000
0!
#315000000
1!
b10 %
b100000100001 #
#320000000
0!
#325000000
1!
b100000100010 #
#330000000
0!
#335000000
1!
b100000100011 #
#340000000
0!
#345000000
1!
b100000100100 #
#350000000
0!
#355000000
1!
b100000100101 #
#360000000
0!
#365000000
1!
b100000100110 #
#370000000
0!
#375000000
1!
b100000100111 #
#380000000
0!
#385000000
1!
b100000101000 #
#390000000
0!
#395000000
1!
b10000011 $
b11 %
b100000101001 #
#400000000
0!
#405000000
1!
b1 %
b100000101010 #
#410000000
0!
#415000000
1!
b100000101011 #
#420000000
0!
#425000000
1!
b100000101100 #
#430000000
0!
#435000000
1!
b100000101101 #
#440000000
0!
#445000000
1!
b100000101110 #
#450000000
0!
#455000000
1!
b100000101111 #
#460000000
0!
#465000000
1!
b100000110000 #
#470000000
0!
#475000000
1!
b10 %
b100000110001 #
#480000000
0!
#485000000
1!
b100000110010 #
#490000000
0!
#495000000
1!
b100000110011 #
#500000000
0!
#505000000
1!
b100000110100 #
#510000000
0!
#515000000
1!
b100000110101 #
#520000000
0!
#525000000
1!
b100000110110 #
#530000000
0!
#535000000
1!
b100000110111 #
#540000000
0!
#545000000
1!
b100000111000 #
#550000000
0!
#555000000
1!
b10000100 $
b11 %
b100000111001 #
#560000000
0!
#565000000
1!
b1 %
b100000111010 #
#570000000
0!
#575000000
1!
b100000111011 #
#580000000
0!
#585000000
1!
b100000111100 #
#590000000
0!
#595000000
1!
b100000111101 #
#600000000
0!
#605000000
1!
b100000111110 #
#610000000
0!
#615000000
1!
b100000111111 #
#620000000
0!
#625000000
1!
b100001000000 #
#630000000
0!
#635000000
1!
b10 %
b100001000001 #
#640000000
0!
#645000000
1!
b100001000010 #
#650000000
0!
#655000000
1!
b100001000011 #
#660000000
0!
#665000000
1!
b100001000100 #
#670000000
0!
#675000000
1!
b100001000101 #
#680000000
0!
#685000000
1!
b100001000110 #
#690000000
0!
#695000000
1!
b100001000111 #
#700000000
0!
#705000000
1!
b100001001000 #
#710000000
0!
#715000000
1!
b11 %
b100001001001 #
#720000000
0!
#725000000
1!
b10000101 $
b1 %
b100001001010 #
#730000000
0!
#735000000
1!
b100001001011 #
#740000000
0!
#745000000
1!
b100001001100 #
#750000000
0!
#755000000
1!
b100001001101 #
#760000000
0!
#765000000
1!
b100001001110 #
#770000000
0!
#775000000
1!
b100001001111 #
#780000000
0!
#785000000
1!
b100001010000 #
#790000000
0!
#795000000
1!
b10 %
b100001010001 #
#800000000
0!
#805000000
1!
b100001010010 #
#810000000
0!
#815000000
1!
b100001010011 #
#820000000
0!
#825000000
1!
b100001010100 #
#830000000
0!
#835000000
1!
b100001010101 #
#840000000
0!
#845000000
1!
b100001010110 #
#850000000
0!
#855000000
1!
b100001010111 #
#860000000
0!
#865000000
1!
b100001011000 #
#870000000
0!
#875000000
1!
b11 %
b100001011001 #
#880000000
0!
#885000000
1!
b10000110 $
b1 %
b100001011010 #
#890000000
0!
#895000000
1!
b100001011011 #
#900000000
0!
#905000000
1!
b100001011100 #
#910000000
0!
#915000000
1!
b100001011101 #
#920000000
0!
#925000000
1!
b100001011110 #
#930000000
0!
#935000000
1!
b100001011111 #
#940000000
0!
#945000000
1!
b100001100000 #
#950000000
0!
#955000000
1!
b10 %
b100001100001 #
#960000000
0!
#965000000
1!
b100001100010 #
#970000000
0!
#975000000
1!
b100001100011 #
#980000000
0!
#985000000
1!
b100001100100 #
#990000000
0!
#995000000
1!
b100001100101 #
#1000000000
0!
#1005000000
1!
b100001100110 #
#1010000000
0!
#1015000000
1!
b100001100111 #
#1020000000
0!
#1025000000
1!
b100001101000 #
#1030000000
0!
#1035000000
1!
b10000111 $
b11 %
b100001101001 #
#1040000000
0!
#1045000000
1!
b1 %
b100001101010 #
#1050000000
0!
#1055000000
1!
b100001101011 #
#1060000000
0!
#1065000000
1!
b100001101100 #
#1070000000
0!
#1075000000
1!
b100001101101 #
#1080000000
0!
#1085000000
1!
b100001101110 #
#1090000000
0!
#1095000000
1!
b100001101111 #
#1100000000
0!
#1105000000
1!
b100001110000 #
#1110000000
0!
#1115000000
1!
b10 %
b100001110001 #
#1120000000
0!
#1125000000
1!
b100001110010 #
#1130000000
0!
#1135000000
1!
b100001110011 #
#1140000000
0!
#1145000000
1!
b100001110100 #
#1150000000
0!
#1155000000
1!
b100001110101 #
#1160000000
0!
#1165000000
1!
b100001110110 #
#1170000000
0!
#1175000000
1!
b100001110111 #
#1180000000
0!
#1185000000
1!
b100001111000 #
#1190000000
0!
#1195000000
1!
b10001000 $
b11 %
b100001111001 #
#1200000000
0!
#1205000000
1!
b1 %
b100001111010 #
#1210000000
0!
#1215000000
1!
b100001111011 #
#1220000000
0!
#1225000000
1!
b100001111100 #
#1230000000
0!
#1235000000
1!
b100001111101 #
#1240000000
0!
#1245000000
1!
b100001111110 #
#1250000000
0!
#1255000000
1!
b100001111111 #
#1260000000
0!
#1265000000
1!
b100010000000 #
#1270000000
0!
#1275000000
1!
b10 %
b100010000001 #
#1280000000
0!
#1285000000
1!
b100010000010 #
#1290000000
0!
#1295000000
1!
b100010000011 #
#1300000000
0!
#1305000000
1!
b100010000100 #
#1310000000
0!
#1315000000
1!
b100010000101 #
#1320000000
0!
#1325000000
1!
b100010000110 #
#1330000000
0!
#1335000000
1!
b100010000111 #
#1340000000
0!
#1345000000
1!
b100010001000 #
#1350000000
0!
#1355000000
1!
b11 %
b100010001001 #
#1360000000
0!
#1365000000
1!
b10001001 $
b1 %
b100010001010 #
#1370000000
0!
#1375000000
1!
b100010001011 #
#1380000000
0!
#1385000000
1!
b100010001100 #
#1390000000
0!
#1395000000
1!
b100010001101 #
#1400000000
0!
#1405000000
1!
b100010001110 #
#1410000000
0!
#1415000000
1!
b100010001111 #
#1420000000
0!
#1425000000
1!
b100010010000 #
#1430000000
0!
#1435000000
1!
b10 %
b100010010001 #
#1440000000
0!
#1445000000
1!
b100010010010 #
#1450000000
0!
#1455000000
1!
b100010010011 #
#1460000000
0!
#1465000000
1!
b100010010100 #
#1470000000
0!
#1475000000
1!
b100010010101 #
#1480000000
0!
#1485000000
1!
b100010010110 #
#1490000000
0!
#1495000000
1!
b100010010111 #
#1500000000
0!
#1505000000
1!
b100010011000 #
#1510000000
0!
#1515000000
1!
b11 %
b100010011001 #
#1520000000
0!
#1525000000
1!
b10001010 $
b1 %
b100010011010 #
#1530000000
0!
#1535000000
1!
b100010011011 #
#1540000000
0!
#1545000000
1!
b100010011100 #
#1550000000
0!
#1555000000
1!
b100010011101 #
#1560000000
0!
#1565000000
1!
b100010011110 #
#1570000000
0!
#1575000000
1!
b100010011111 #
#1580000000
0!
#1585000000
1!
b100010100000 #
#1590000000
0!
#1595000000
1!
b10 %
b100010100001 #
#1600000000
0!
#1605000000
1!
b100010100010 #
#1610000000
0!
#1615000000
1!
b100010100011 #
#1620000000
0!
#1625000000
1!
b100010100100 #
#1630000000
0!
#1635000000
1!
b100010100101 #
#1640000000
0!
#1645000000
1!
b100010100110 #
#1650000000
0!
#1655000000
1!
b100010100111 #
#1660000000
0!
#1665000000
1!
b100010101000 #
#1670000000
0!
#1675000000
1!
b10001011 $
b11 %
b100010101001 #
#1680000000
0!
#1685000000
1!
b1 %
b100010101010 #
#1690000000
0!
#1695000000
1!
b100010101011 #
#1700000000
0!
#1705000000
1!
b100010101100 #
#1710000000
0!
#1715000000
1!
b100010101101 #
#1720000000
0!
#1725000000
1!
b100010101110 #
#1730000000
0!
#1735000000
1!
b100010101111 #
#1740000000
0!
#1745000000
1!
b100010110000 #
#1750000000
0!
#1755000000
1!
b10 %
b100010110001 #
#1760000000
0!
#1765000000
1!
b100010110010 #
#1770000000
0!
#1775000000
1!
b100010110011 #
#1780000000
0!
#1785000000
1!
b100010110100 #
#1790000000
0!
#1795000000
1!
b100010110101 #
#1800000000
0!
#1805000000
1!
b100010110110 #
#1810000000
0!
#1815000000
1!
b100010110111 #
#1820000000
0!
#1825000000
1!
b100010111000 #
#1830000000
0!
#1835000000
1!
b10001100 $
b11 %
b100010111001 #
#1840000000
0!
#1845000000
1!
b1 %
b100010111010 #
#1850000000
0!
#1855000000
1!
b100010111011 #
#1860000000
0!
#1865000000
1!
b100010111100 #
#1870000000
0!
#1875000000
1!
b100010111101 #
#1880000000
0!
#1885000000
1!
b100010111110 #
#1890000000
0!
#1895000000
1!
b100010111111 #
#1900000000
0!
#1905000000
1!
b100011000000 #
#1910000000
0!
#1915000000
1!
b10 %
b100011000001 #
#1920000000
0!
#1925000000
1!
b100011000010 #
#1930000000
0!
#1935000000
1!
b100011000011 #
#1940000000
0!
#1945000000
1!
b100011000100 #
#1950000000
0!
#1955000000
1!
b100011000101 #
#1960000000
0!
#1965000000
1!
b100011000110 #
#1970000000
0!
#1975000000
1!
b100011000111 #
#1980000000
0!
#1985000000
1!
b100011001000 #
#1990000000
0!
#1995000000
1!
b11 %
b100011001001 #
#2000000000
0!
#2005000000
1!
b10001101 $
b1 %
b100011001010 #
#2010000000
0!
#2015000000
1!
b100011001011 #
#2020000000
0!
#2025000000
1!
b100011001100 #
#2030000000
0!
#2035000000
1!
b100011001101 #
#2040000000
0!
#2045000000
1!
b100011001110 #
#2050000000
0!
#2055000000
1!
b100011001111 #
#2060000000
0!
#2065000000
1!
b100011010000 #
#2070000000
0!
#2075000000
1!
b10 %
b100011010001 #
#2080000000
0!
#2085000000
1!
b100011010010 #
#2090000000
0!
#2095000000
1!
b100011010011 #
#2100000000
0!
#2105000000
1!
b100011010100 #
#2110000000
0!
#2115000000
1!
b100011010101 #
#2120000000
0!
#2125000000
1!
b100011010110 #
#2130000000
0!
#2135000000
1!
b100011010111 #
#2140000000
0!
#2145000000
1!
b100011011000 #
#2150000000
0!
#2155000000
1!
b11 %
b100011011001 #
#2160000000
0!
#2165000000
1!
b10001110 $
b1 %
b100011011010 #
#2170000000
0!
#2175000000
1!
b100011011011 #
#2180000000
0!
#2185000000
1!
b100011011100 #
#2190000000
0!
#2195000000
1!
b100011011101 #
#2200000000
0!
#2205000000
1!
b100011011110 #
#2210000000
0!
#2215000000
1!
b100011011111 #
#2220000000
0!
#2225000000
1!
b100011100000 #
#2230000000
0!
#2235000000
1!
b10 %
b100011100001 #
#2240000000
0!
#2245000000
1!
b100011100010 #
#2250000000
0!
#2255000000
1!
b100011100011 #
#2260000000
0!
#2265000000
1!
b100011100100 #
#2270000000
0!
#2275000000
1!
b100011100101 #
#2280000000
0!
#2285000000
1!
b100011100110 #
#2290000000
0!
#2295000000
1!
b100011100111 #
#2300000000
0!
#2305000000
1!
b100011101000 #
#2310000000
0!
#2315000000
1!
b10001111 $
b11 %
b100011101001 #
#2320000000
0!
#2325000000
1!
b1 %
b100011101010 #
#2330000000
0!
#2335000000
1!
b100011101011 #
#2340000000
0!
#2345000000
1!
b100011101100 #
#2350000000
0!
#2355000000
1!
b100011101101 #
#2360000000
0!
#2365000000
1!
b100011101110 #
#2370000000
0!
#2375000000
1!
b100011101111 #
#2380000000
0!
#2385000000
1!
b100011110000 #
#2390000000
0!
#2395000000
1!
b10 %
b100011110001 #
#2400000000
0!
#2405000000
1!
b100011110010 #
#2410000000
0!
#2415000000
1!
b100011110011 #
#2420000000
0!
#2425000000
1!
b100011110100 #
#2430000000
0!
#2435000000
1!
b100011110101 #
#2440000000
0!
#2445000000
1!
b100011110110 #
#2450000000
0!
#2455000000
1!
b100011110111 #
#2460000000
0!
#2465000000
1!
b100011111000 #
#2470000000
0!
#2475000000
1!
b10010000 $
b11 %
b100011111001 #
#2480000000
0!
#2485000000
1!
b1 %
b100011111010 #
#2490000000
0!
#2495000000
1!
b100011111011 #
#2500000000
0!
#2505000000
1!
b100011111100 #
#2510000000
0!
#2515000000
1!
b100011111101 #
#2520000000
0!
#2525000000
1!
b100011111110 #
#2530000000
0!
#2535000000
1!
b100011111111 #
#2540000000
0!
#2545000000
1!
b100100000000 #
#2550000000
0!
#2555000000
1!
b10 %
b100100000001 #
#2560000000
0!
#2565000000
1!
b100100000010 #
#2570000000
0!
#2575000000
1!
b100100000011 #
#2580000000
0!
#2585000000
1!
b100100000100 #
#2590000000
0!
#2595000000
1!
b100100000101 #
#2600000000
0!
#2605000000
1!
b100100000110 #
#2610000000
0!
#2615000000
1!
b100100000111 #
#2620000000
0!
#2625000000
1!
b100100001000 #
#2630000000
0!
#2635000000
1!
b11 %
b100100001001 #
#2640000000
0!
#2645000000
1!
b10010001 $
b1 %
b100100001010 #
#2650000000
0!
#2655000000
1!
b100100001011 #
#2660000000
0!
#2665000000
1!
b100100001100 #
#2670000000
0!
#2675000000
1!
b100100001101 #
#2680000000
0!
#2685000000
1!
b100100001110 #
#2690000000
0!
#2695000000
1!
b100100001111 #
#2700000000
0!
#2705000000
1!
b100100010000 #
#2710000000
0!
#2715000000
1!
b10 %
b100100010001 #
#2720000000
0!
#2725000000
1!
b100100010010 #
#2730000000
0!
#2735000000
1!
b100100010011 #
#2740000000
0!
#2745000000
1!
b100100010100 #
#2750000000
0!
#2755000000
1!
b100100010101 #
#2760000000
0!
#2765000000
1!
b100100010110 #
#2770000000
0!
#2775000000
1!
b100100010111 #
#2780000000
0!
#2785000000
1!
b100100011000 #
#2790000000
0!
#2795000000
1!
b11 %
b100100011001 #
#2800000000
0!
#2805000000
1!
b10010010 $
b1 %
b100100011010 #
#2810000000
0!
#2815000000
1!
b100100011011 #
#2820000000
0!
#2825000000
1!
b100100011100 #
#2830000000
0!
#2835000000
1!
b100100011101 #
#2840000000
0!
#2845000000
1!
b100100011110 #
#2850000000
0!
#2855000000
1!
b100100011111 #
#2860000000
0!
#2865000000
1!
b100100100000 #
#2870000000
0!
#2875000000
1!
b10 %
b100100100001 #
#2880000000
0!
#2885000000
1!
b100100100010 #
#2890000000
0!
#2895000000
1!
b100100100011 #
#2900000000
0!
#2905000000
1!
b100100100100 #
#2910000000
0!
#2915000000
1!
b100100100101 #
#2920000000
0!
#2925000000
1!
b100100100110 #
#2930000000
0!
#2935000000
1!
b100100100111 #
#2940000000
0!
#2945000000
1!
b100100101000 #
#2950000000
0!
#2955000000
1!
b10010011 $
b11 %
b100100101001 #
#2960000000
0!
#2965000000
1!
b1 %
b100100101010 #
#2970000000
0!
#2975000000
1!
b100100101011 #
#2980000000
0!
#2985000000
1!
b100100101100 #
#2990000000
0!
#2995000000
1!
b100100101101 #
#3000000000
0!
#3005000000
1!
b100100101110 #
#3010000000
0!
#3015000000
1!
b100100101111 #
#3020000000
0!
#3025000000
1!
b100100110000 #
#3030000000
0!
#3035000000
1!
b10 %
b100100110001 #
#3040000000
0!
#3045000000
1!
b100100110010 #
#3050000000
0!
#3055000000
1!
b100100110011 #
#3060000000
0!
#3065000000
1!
b100100110100 #
#3070000000
0!
#3075000000
1!
b100100110101 #
#3080000000
0!
#3085000000
1!
b100100110110 #
#3090000000
0!
#3095000000
1!
b100100110111 #
#3100000000
0!
#3105000000
1!
b100100111000 #
#3110000000
0!
#3115000000
1!
b10010100 $
b11 %
b100100111001 #
#3120000000
0!
#3125000000
1!
b1 %
b100100111010 #
#3130000000
0!
#3135000000
1!
b100100111011 #
#3140000000
0!
#3145000000
1!
b100100111100 #
#3150000000
0!
#3155000000
1!
b100100111101 #
#3160000000
0!
#3165000000
1!
b100100111110 #
#3170000000
0!
#3175000000
1!
b100100111111 #
#3180000000
0!
#3185000000
1!
b100101000000 #
#3190000000
0!
#3195000000
1!
b10 %
b100101000001 #
#3200000000
0!
#3205000000
1!
b100101000010 #
#3210000000
0!
#3215000000
1!
b100101000011 #
#3220000000
0!
#3225000000
1!
b100101000100 #
#3230000000
0!
#3235000000
1!
b100101000101 #
#3240000000
0!
#3245000000
1!
b100101000110 #
#3250000000
0!
#3255000000
1!
b100101000111 #
#3260000000
0!
#3265000000
1!
b100101001000 #
#3270000000
0!
#3275000000
1!
b11 %
b100101001001 #
#3280000000
0!
#3285000000
1!
b10010101 $
b1 %
b100101001010 #
#3290000000
0!
#3295000000
1!
b100101001011 #
#3300000000
0!
#3305000000
1!
b100101001100 #
#3310000000
0!
#3315000000
1!
b100101001101 #
#3320000000
0!
#3325000000
1!
b100101001110 #
#3330000000
0!
#3335000000
1!
b100101001111 #
#3340000000
0!
#3345000000
1!
b100101010000 #
#3350000000
0!
#3355000000
1!
b10 %
b100101010001 #
#3360000000
0!
#3365000000
1!
b100101010010 #
#3370000000
0!
#3375000000
1!
b100101010011 #
#3380000000
0!
#3385000000
1!
b100101010100 #
#3390000000
0!
#3395000000
1!
b100101010101 #
#3400000000
0!
#3405000000
1!
b100101010110 #
#3410000000
0!
#3415000000
1!
b100101010111 #
#3420000000
0!
#3425000000
1!
b100101011000 #
#3430000000
0!
#3435000000
1!
b11 %
b100101011001 #
#3440000000
0!
#3445000000
1!
b10010110 $
b1 %
b100101011010 #
#3450000000
0!
#3455000000
1!
b100101011011 #
#3460000000
0!
#3465000000
1!
b100101011100 #
#3470000000
0!
#3475000000
1!
b100101011101 #
#3480000000
0!
#3485000000
1!
b100101011110 #
#3490000000
0!
#3495000000
1!
b100101011111 #
#3500000000
0!
#3505000000
1!
b100101100000 #
#3510000000
0!
#3515000000
1!
b10 %
b100101100001 #
#3520000000
0!
#3525000000
1!
b100101100010 #
#3530000000
0!
#3535000000
1!
b100101100011 #
#3540000000
0!
#3545000000
1!
b100101100100 #
#3550000000
0!
#3555000000
1!
b100101100101 #
#3560000000
0!
#3565000000
1!
b100101100110 #
#3570000000
0!
#3575000000
1!
b100101100111 #
#3580000000
0!
#3585000000
1!
b100101101000 #
#3590000000
0!
#3595000000
1!
b10010111 $
b11 %
b100101101001 #
#3600000000
0!
#3605000000
1!
b1 %
b100101101010 #
#3610000000
0!
#3615000000
1!
b100101101011 #
#3620000000
0!
#3625000000
1!
b100101101100 #
#3630000000
0!
#3635000000
1!
b100101101101 #
#3640000000
0!
#3645000000
1!
b100101101110 #
#3650000000
0!
#3655000000
1!
b100101101111 #
#3660000000
0!
#3665000000
1!
b100101110000 #
#3670000000
0!
#3675000000
1!
b10 %
b100101110001 #
#3680000000
0!
#3685000000
1!
b100101110010 #
#3690000000
0!
#3695000000
1!
b100101110011 #
#3700000000
0!
#3705000000
1!
b100101110100 #
#3710000000
0!
#3715000000
1!
b100101110101 #
#3720000000
0!
#3725000000
1!
b100101110110 #
#3730000000
0!
#3735000000
1!
b100101110111 #
#3740000000
0!
#3745000000
1!
b100101111000 #
#3750000000
0!
#3755000000
1!
b10011000 $
b11 %
b100101111001 #
#3760000000
0!
#3765000000
1!
b1 %
b100101111010 #
#3770000000
0!
#3775000000
1!
b100101111011 #
#3780000000
0!
#3785000000
1!
b100101111100 #
#3790000000
0!
#3795000000
1!
b100101111101 #
#3800000000
0!
#3805000000
1!
b100101111110 #
#3810000000
0!
#3815000000
1!
b100101111111 #
#3820000000
0!
#3825000000
1!
b100110000000 #
#3830000000
0!
#3835000000
1!
b10 %
b100110000001 #
#3840000000
0!
#3845000000
1!
b100110000010 #
#3850000000
0!
#3855000000
1!
b100110000011 #
#3860000000
0!
#3865000000
1!
b100110000100 #
#3870000000
0!
#3875000000
1!
b100110000101 #
#3880000000
0!
#3885000000
1!
b100110000110 #
#3890000000
0!
#3895000000
1!
b100110000111 #
#3900000000
0!
#3905000000
1!
b100110001000 #
#3910000000
0!
#3915000000
1!
b11 %
b100110001001 #
#3920000000
0!
#3925000000
1!
b10011001 $
b1 %
b100110001010 #
#3930000000
0!
#3935000000
1!
b100110001011 #
#3940000000
0!
#3945000000
1!
b100110001100 #
#3950000000
0!
#3955000000
1!
b100110001101 #
#3960000000
0!
#3965000000
1!
b100110001110 #
#3970000000
0!
#3975000000
1!
b100110001111 #
#3980000000
0!
#3985000000
1!
b100110010000 #
#3990000000
0!
#3995000000
1!
b10 %
b100110010001 #
#4000000000
0!
#4005000000
1!
b100110010010 #
#4010000000
0!
#4015000000
1!
b100110010011 #
#4020000000
0!
#4025000000
1!
b100110010100 #
#4030000000
0!
#4035000000
1!
b100110010101 #
#4040000000
0!
#4045000000
1!
b100110010110 #
#4050000000
0!
#4055000000
1!
b100110010111 #
#4060000000
0!
#4065000000
1!
b100110011000 #
#4070000000
0!
#4075000000
1!
b11 %
b100110011001 #
#4080000000
0!
#4085000000
1!
b10011010 $
b1 %
b100110011010 #
#4090000000
0!
#4095000000
1!
b100110011011 #
#4100000000
0!
#4105000000
1!
b100110011100 #
#4110000000
0!
#4115000000
1!
b100110011101 #
#4120000000
0!
#4125000000
1!
b100110011110 #
#4130000000
0!
#4135000000
1!
b100110011111 #
#4140000000
0!
#4145000000
1!
b100110100000 #
#4150000000
0!
#4155000000
1!
b10 %
b100110100001 #
#4160000000
0!
#4165000000
1!
b100110100010 #
#4170000000
0!
#4175000000
1!
b100110100011 #
#4180000000
0!
#4185000000
1!
b100110100100 #
#4190000000
0!
#4195000000
1!
b100110100101 #
#4200000000
0!
#4205000000
1!
b100110100110 #
#4210000000
0!
#4215000000
1!
b100110100111 #
#4220000000
0!
#4225000000
1!
b100110101000 #
#4230000000
0!
#4235000000
1!
b10011011 $
b11 %
b100110101001 #
#4240000000
0!
#4245000000
1!
b1 %
b100110101010 #
#4250000000
0!
#4255000000
1!
b100110101011 #
#4260000000
0!
#4265000000
1!
b100110101100 #
#4270000000
0!
#4275000000
1!
b100110101101 #
#4280000000
0!
#4285000000
1!
b100110101110 #
#4290000000
0!
#4295000000
1!
b100110101111 #
#4300000000
0!
#4305000000
1!
b100110110000 #
#4310000000
0!
#4315000000
1!
b10 %
b100110110001 #
#4320000000
0!
#4325000000
1!
b100110110010 #
#4330000000
0!
#4335000000
1!
b100110110011 #
#4340000000
0!
#4345000000
1!
b100110110100 #
#4350000000
0!
#4355000000
1!
b100110110101 #
#4360000000
0!
#4365000000
1!
b100110110110 #
#4370000000
0!
#4375000000
1!
b100110110111 #
#4380000000
0!
#4385000000
1!
b100110111000 #
#4390000000
0!
#4395000000
1!
b10011100 $
b11 %
b100110111001 #
#4400000000
0!
#4405000000
1!
b1 %
b100110111010 #
#4410000000
0!
#4415000000
1!
b100110111011 #
#4420000000
0!
#4425000000
1!
b100110111100 #
#4430000000
0!
#4435000000
1!
b100110111101 #
#4440000000
0!
#4445000000
1!
b100110111110 #
#4450000000
0!
#4455000000
1!
b100110111111 #
#4460000000
0!
#4465000000
1!
b100111000000 #
#4470000000
0!
#4475000000
1!
b10 %
b100111000001 #
#4480000000
0!
#4485000000
1!
b100111000010 #
#4490000000
0!
#4495000000
1!
b100111000011 #
#4500000000
0!
#4505000000
1!
b100111000100 #
#4510000000
0!
#4515000000
1!
b100111000101 #
#4520000000
0!
#4525000000
1!
b100111000110 #
#4530000000
0!
#4535000000
1!
b100111000111 #
#4540000000
0!
#4545000000
1!
b100111001000 #
#4550000000
0!
#4555000000
1!
b11 %
b100111001001 #
#4560000000
0!
#4565000000
1!
b10011101 $
b1 %
b100111001010 #
#4570000000
0!
#4575000000
1!
b100111001011 #
#4580000000
0!
#4585000000
1!
b100111001100 #
#4590000000
0!
#4595000000
1!
b100111001101 #
#4600000000
0!
#4605000000
1!
b100111001110 #
#4610000000
0!
#4615000000
1!
b100111001111 #
#4620000000
0!
#4625000000
1!
b100111010000 #
#4630000000
0!
#4635000000
1!
b10 %
b100111010001 #
#4640000000
0!
#4645000000
1!
b100111010010 #
#4650000000
0!
#4655000000
1!
b100111010011 #
#4660000000
0!
#4665000000
1!
b100111010100 #
#4670000000
0!
#4675000000
1!
b100111010101 #
#4680000000
0!
#4685000000
1!
b100111010110 #
#4690000000
0!
#4695000000
1!
b100111010111 #
#4700000000
0!
#4705000000
1!
b100111011000 #
#4710000000
0!
#4715000000
1!
b11 %
b100111011001 #
#4720000000
0!
#4725000000
1!
b10011110 $
b1 %
b100111011010 #
#4730000000
0!
#4735000000
1!
b100111011011 #
#4740000000
0!
#4745000000
1!
b100111011100 #
#4750000000
0!
#4755000000
1!
b100111011101 #
#4760000000
0!
#4765000000
1!
b100111011110 #
#4770000000
0!
#4775000000
1!
b100111011111 #
#4780000000
0!
#4785000000
1!
b100111100000 #
#4790000000
0!
#4795000000
1!
b10 %
b100111100001 #
#4800000000
0!
#4805000000
1!
b100111100010 #
#4810000000
0!
#4815000000
1!
b100111100011 #
#4820000000
0!
#4825000000
1!
b100111100100 #
#4830000000
0!
#4835000000
1!
b100111100101 #
#4840000000
0!
#4845000000
1!
b100111100110 #
#4850000000
0!
#4855000000
1!
b100111100111 #
#4860000000
0!
#4865000000
1!
b100111101000 #
#4870000000
0!
#4875000000
1!
b10011111 $
b11 %
b100111101001 #
#4880000000
0!
#4885000000
1!
b1 %
b100111101010 #
#4890000000
0!
#4895000000
1!
b100111101011 #
#4900000000
0!
#4905000000
1!
b100111101100 #
#4910000000
0!
#4915000000
1!
b100111101101 #
#4920000000
0!
#4925000000
1!
b100111101110 #
#4930000000
0!
#4935000000
1!
b100111101111 #
#4940000000
0!
#4945000000
1!
b100111110000 #
#4950000000
0!
#4955000000
1!
b10 %
b100111110001 #
#4960000000
0!
#4965000000
1!
b100111110010 #
#4970000000
0!
#4975000000
1!
b100111110011 #
#4980000000
0!
#4985000000
1!
b100111110100 #
#4990000000
0!
#4995000000
1!
b100111110101 #
#5000000000
0!
#5005000000
1!
b100111110110 #
#5010000000
0!
#5015000000
1!
b100111110111 #
#5020000000
0!
#5025000000
1!
b100111111000 #
#5030000000
0!
#5035000000
1!
b10100000 $
b11 %
b100111111001 #
#5040000000
0!
#5045000000
1!
b1 %
b100111111010 #
#5050000000
0!
#5055000000
1!
b100111111011 #
#5060000000
0!
#5065000000
1!
b100111111100 #
#5070000000
0!
#5075000000
1!
b100111111101 #
#5080000000
0!
#5085000000
1!
b100111111110 #
#5090000000
0!
#5095000000
1!
b100111111111 #
#5100000000
0!
#5105000000
1!
b101000000000 #
#5110000000
0!
#5115000000
1!
b10 %
b101000000001 #
#5120000000
0!
#5125000000
1!
b101000000010 #
#5130000000
0!
#5135000000
1!
b101000000011 #
#5140000000
0!
#5145000000
1!
b101000000100 #
#5150000000
0!
#5155000000
1!
b101000000101 #
#5160000000
0!
#5165000000
1!
b101000000110 #
#5170000000
0!
#5175000000
1!
b101000000111 #
#5180000000
0!
#5185000000
1!
b101000001000 #
#5190000000
0!
#5195000000
1!
b11 %
b101000001001 #
#5200000000
0!
#5205000000
1!
b10100001 $
b1 %
b101000001010 #
#5210000000
0!
#5215000000
1!
b101000001011 #
#5220000000
0!
#5225000000
1!
b101000001100 #
#5230000000
0!
#5235000000
1!
b101000001101 #
#5240000000
0!
#5245000000
1!
b101000001110 #
#5250000000
0!
#5255000000
1!
b101000001111 #
#5260000000
0!
#5265000000
1!
b101000010000 #
#5270000000
0!
#5275000000
1!
b10 %
b101000010001 #
#5280000000
0!
#5285000000
1!
b101000010010 #
#5290000000
0!
#5295000000
1!
b101000010011 #
#5300000000
0!
#5305000000
1!
b101000010100 #
#5310000000
0!
#5315000000
1!
b101000010101 #
#5320000000
0!
#5325000000
1!
b101000010110 #
#5330000000
0!
#5335000000
1!
b101000010111 #
#5340000000
0!
#5345000000
1!
b101000011000 #
#5350000000
0!
#5355000000
1!
b11 %
b101000011001 #
#5360000000
0!
#5365000000
1!
b10100010 $
b1 %
b101000011010 #
#5370000000
0!
#5375000000
1!
b101000011011 #
#5380000000
0!
#5385000000
1!
b101000011100 #
#5390000000
0!
#5395000000
1!
b101000011101 #
#5400000000
0!
#5405000000
1!
b101000011110 #
#5410000000
0!
#5415000000
1!
b101000011111 #
#5420000000
0!
#5425000000
1!
b101000100000 #
#5430000000
0!
#5435000000
1!
b10 %
b101000100001 #
#5440000000
0!
#5445000000
1!
b101000100010 #
#5450000000
0!
#5455000000
1!
b101000100011 #
#5460000000
0!
#5465000000
1!
b101000100100 #
#5470000000
0!
