drive_serial_port.vcd
$comment Generated by Amaranth $end
$date 2024-08-02 15:28:01.358839 $end
$timescale 1 fs $end
$scope module bench $end
$scope module top $end
$var wire 1 ! clk $end
$var wire 1 " rst $end
$var wire 8 # externalReadPort__addr $end
$var wire 16 $ address $end
$var wire 8 % externalWritePort__addr $end
$var wire 32 & externalWritePort__data $end
$var wire 32 ' writeData $end
$var wire 1 ( externalWritePort__en $end
$var wire 1 ) writeEnable $end
$var wire 32 * readData $end
$var wire 32 + externalReadPort__data $end
$var wire 8 , internalReadPort__addr $end
$var wire 16 - internalReadWriteAddress $end
$var wire 8 . internalWritePort__addr $end
$var wire 1 / txDone $end
$var wire 1 0 txBusy $end
$var wire 1 1 tx $end
$var wire 4 2 txCurrentBit $end
$var wire 2 3 txCurrentByte $end
$var wire 8 4 txCurrentWord $end
$var wire 11 5 txTimer $end
$var wire 10 6 bitLength $end
$var wire 2 7 txState $end
$var wire 1 8 txReadDataRequest $end
$var wire 1 9 updateStatusDataRequest $end
$var wire 1 : start $end
$var wire 2 ; txReadDataRequestWait $end
$var wire 1 < rxDone $end
$var wire 1 = rxCRCvalid $end
$var wire 4 > rxCurrentBit $end
$var wire 2 ? rxCurrentByte $end
$var wire 8 @ rxCurrentWord $end
$var wire 2 A rxState $end
$var wire 1 B start$33 $end
$var wire 6 C txPacketSize $end
$var wire 6 D rxPacketSize $end
$var wire 32 E txReadData $end
$var wire 32 F internalReadPort__data $end
$var wire 1 G rxWriteDataRequest $end
$var wire 8 H rxNewDataIndex $end
$var wire 32 I internalWritePort__data $end
$var wire 32 J rxNewData $end
$var wire 1 K internalWritePort__en $end
$var wire 1 L rxBusy $end
$var wire 1 M valid $end
$var wire 1 N valid$45 $end
$var wire 32 O crc $end
$var wire 32 P data $end
$var wire 1 Q rx $end
$var wire 11 R rxTimer $end
$var wire 32 S rxData $end
$var wire 32 T crc$51 $end
$var wire 32 U data$52 $end
$var wire 32 ^ \memory[0] $end
$var wire 32 _ \memory[1] $end
$var wire 32 ` \memory[2] $end
$var wire 32 a \memory[3] $end
$var wire 32 b \memory[4] $end
$var wire 32 c \memory[5] $end
$var wire 32 d \memory[6] $end
$var wire 32 e \memory[7] $end
$var wire 32 f \memory[8] $end
$var wire 32 g \memory[9] $end
$var wire 32 h \memory[10] $end
$var wire 32 i \memory[11] $end
$var wire 32 j \memory[12] $end
$var wire 32 k \memory[13] $end
$var wire 32 l \memory[14] $end
$var wire 32 m \memory[15] $end
$var wire 32 n \memory[16] $end
$var wire 32 o \memory[17] $end
$var wire 32 p \memory[18] $end
$var wire 32 q \memory[19] $end
$var wire 32 r \memory[20] $end
$var wire 32 s \memory[21] $end
$var wire 32 t \memory[22] $end
$var wire 32 u \memory[23] $end
$var wire 32 v \memory[24] $end
$var wire 32 w \memory[25] $end
$var wire 32 x \memory[26] $end
$var wire 32 y \memory[27] $end
$var wire 32 z \memory[28] $end
$var wire 32 { \memory[29] $end
$var wire 32 | \memory[30] $end
$var wire 32 } \memory[31] $end
$var wire 32 ~ \memory[32] $end
$var wire 32 !! \memory[33] $end
$var wire 32 "! \memory[34] $end
$var wire 32 #! \memory[35] $end
$var wire 32 $! \memory[36] $end
$var wire 32 %! \memory[37] $end
$var wire 32 &! \memory[38] $end
$var wire 32 '! \memory[39] $end
$var wire 32 (! \memory[40] $end
$var wire 32 )! \memory[41] $end
$var wire 32 *! \memory[42] $end
$var wire 32 +! \memory[43] $end
$var wire 32 ,! \memory[44] $end
$var wire 32 -! \memory[45] $end
$var wire 32 .! \memory[46] $end
$var wire 32 /! \memory[47] $end
$var wire 32 0! \memory[48] $end
$var wire 32 1! \memory[49] $end
$var wire 32 2! \memory[50] $end
$var wire 32 3! \memory[51] $end
$var wire 32 4! \memory[52] $end
$var wire 32 5! \memory[53] $end
$var wire 32 6! \memory[54] $end
$var wire 32 7! \memory[55] $end
$var wire 32 8! \memory[56] $end
$var wire 32 9! \memory[57] $end
$var wire 32 :! \memory[58] $end
$var wire 32 ;! \memory[59] $end
$var wire 32 <! \memory[60] $end
$var wire 32 =! \memory[61] $end
$var wire 32 >! \memory[62] $end
$var wire 32 ?! \memory[63] $end
$var wire 32 @! \memory[64] $end
$var wire 32 A! \memory[65] $end
$var wire 32 B! \memory[66] $end
$var wire 32 C! \memory[67] $end
$var wire 32 D! \memory[68] $end
$var wire 32 E! \memory[69] $end
$var wire 32 F! \memory[70] $end
$var wire 32 G! \memory[71] $end
$var wire 32 H! \memory[72] $end
$var wire 32 I! \memory[73] $end
$var wire 32 J! \memory[74] $end
$var wire 32 K! \memory[75] $end
$var wire 32 L! \memory[76] $end
$var wire 32 M! \memory[77] $end
$var wire 32 N! \memory[78] $end
$var wire 32 O! \memory[79] $end
$var wire 32 P! \memory[80] $end
$var wire 32 Q! \memory[81] $end
$var wire 32 R! \memory[82] $end
$var wire 32 S! \memory[83] $end
$var wire 32 T! \memory[84] $end
$var wire 32 U! \memory[85] $end
$var wire 32 V! \memory[86] $end
$var wire 32 W! \memory[87] $end
$var wire 32 X! \memory[88] $end
$var wire 32 Y! \memory[89] $end
$var wire 32 Z! \memory[90] $end
$var wire 32 [! \memory[91] $end
$var wire 32 \! \memory[92] $end
$var wire 32 ]! \memory[93] $end
$var wire 32 ^! \memory[94] $end
$var wire 32 _! \memory[95] $end
$var wire 32 `! \memory[96] $end
$var wire 32 a! \memory[97] $end
$var wire 32 b! \memory[98] $end
$var wire 32 c! \memory[99] $end
$var wire 32 d! \memory[100] $end
$var wire 32 e! \memory[101] $end
$var wire 32 f! \memory[102] $end
$var wire 32 g! \memory[103] $end
$var wire 32 h! \memory[104] $end
$var wire 32 i! \memory[105] $end
$var wire 32 j! \memory[106] $end
$var wire 32 k! \memory[107] $end
$var wire 32 l! \memory[108] $end
$var wire 32 m! \memory[109] $end
$var wire 32 n! \memory[110] $end
$var wire 32 o! \memory[111] $end
$var wire 32 p! \memory[112] $end
$var wire 32 q! \memory[113] $end
$var wire 32 r! \memory[114] $end
$var wire 32 s! \memory[115] $end
$var wire 32 t! \memory[116] $end
$var wire 32 u! \memory[117] $end
$var wire 32 v! \memory[118] $end
$var wire 32 w! \memory[119] $end
$var wire 32 x! \memory[120] $end
$var wire 32 y! \memory[121] $end
$var wire 32 z! \memory[122] $end
$var wire 32 {! \memory[123] $end
$var wire 32 |! \memory[124] $end
$var wire 32 }! \memory[125] $end
$var wire 32 ~! \memory[126] $end
$var wire 32 !" \memory[127] $end
$var wire 32 "" \memory[128] $end
$var wire 32 #" \memory[129] $end
$var wire 32 $" \memory[130] $end
$scope module crc32_ethernet1 $end
$var wire 1 ! clk $end
$var wire 1 " rst $end
$var wire 1 : start $end
$var wire 1 M valid $end
$var wire 32 O crc $end
$var wire 32 P data $end
$var wire 32 X data_in $end
$var wire 32 Y crc_reg $end
$var wire 1 Z match_detected $end
$upscope $end
$scope module crc32_ethernet2 $end
$var wire 1 ! clk $end
$var wire 1 " rst $end
$var wire 1 B start $end
$var wire 1 N valid $end
$var wire 32 T crc $end
$var wire 32 U data $end
$var wire 32 [ data_in $end
$var wire 32 \ crc_reg $end
$var wire 1 ] match_detected $end
$upscope $end
$scope module memory $end
$var wire 1 ! clk $end
$var wire 1 " rst $end
$var wire 8 # externalReadPort__addr $end
$var wire 8 % externalWritePort__addr $end
$var wire 32 & externalWritePort__data $end
$var wire 1 ( externalWritePort__en $end
$var wire 32 + externalReadPort__data $end
$var wire 8 , internalReadPort__addr $end
$var wire 8 . internalWritePort__addr $end
$var wire 32 F internalReadPort__data $end
$var wire 32 I internalWritePort__data $end
$var wire 1 K internalWritePort__en $end
$var wire 1 V externalReadPort__en $end
$var wire 1 W internalReadPort__en $end
$upscope $end
$upscope $end
$upscope $end
$enddefinitions $end
#0
$dumpvars
0!
0"
b1 #
b1 $
b1 %
b1000 &
b1000 '
1(
1)
b0 *
b0 +
b0 ,
b0 -
b0 .
1/
00
11
b0 2
b0 3
b0 4
b0 5
b0 6
b0 7
08
09
0:
b0 ;
1<
0=
b0 >
b0 ?
b0 @
b0 A
0B
b1 C
b1 D
b0 E
b0 F
0G
b0 H
b0 I
b0 J
0K
0L
0M
0N
b11111111111111111111111111111111 O
b0 P
1Q
b0 R
b0 S
b11111111111111111111111111111111 T
b0 U
1V
1W
b0 X
b11111111111111111111111111111111 Y
0Z
b0 [
b11111111111111111111111111111111 \
0]
b0 ^
b0 _
b0 `
b0 a
b0 b
b0 c
b0 d
b0 e
b0 f
b0 g
b0 h
b0 i
b0 j
b0 k
b0 l
b0 m
b0 n
b0 o
b0 p
b0 q
b0 r
b0 s
b0 t
b0 u
b0 v
b0 w
b0 x
b0 y
b0 z
b0 {
b0 |
b0 }
b0 ~
b0 !!
b0 "!
b0 #!
b0 $!
b0 %!
b0 &!
b0 '!
b0 (!
b0 )!
b0 *!
b0 +!
b0 ,!
b0 -!
b0 .!
b0 /!
b0 0!
b0 1!
b0 2!
b0 3!
b0 4!
b0 5!
b0 6!
b0 7!
b0 8!
b0 9!
b0 :!
b0 ;!
b0 <!
b0 =!
b0 >!
b0 ?!
b0 @!
b0 A!
b0 B!
b0 C!
b11000000100000000100000000 D!
b111000001100000010100000100 E!
b1011000010100000100100001000 F!
b1111000011100000110100001100 G!
b0 H!
b0 I!
b0 J!
b0 K!
b0 L!
b0 M!
b0 N!
b0 O!
b0 P!
b0 Q!
b0 R!
b0 S!
b0 T!
b0 U!
b0 V!
b0 W!
b0 X!
b0 Y!
b0 Z!
b0 [!
b0 \!
b0 ]!
b0 ^!
b0 _!
b0 `!
b0 a!
b0 b!
b0 c!
b0 d!
b0 e!
b0 f!
b0 g!
b0 h!
b0 i!
b0 j!
b0 k!
b0 l!
b0 m!
b0 n!
b0 o!
b0 p!
b0 q!
b0 r!
b0 s!
b0 t!
b0 u!
b0 v!
b0 w!
b0 x!
b0 y!
b0 z!
b0 {!
b0 |!
b0 }!
b0 ~!
b0 !"
b0 ""
b0 #"
b0 $"
$end
#5000000
1!
b1000 _
b1000 6
0)
0(
b0 $
b0 #
b0 %
b100000001000000000000000011 '
b100000001000000000000000011 &
1)
1(
#10000000
0!
#15000000
1!
b1 7
10
b100000001000000000000000011 ^
18
b1 A
0/
1B
19
01
b1000 5
0<
b100 D
b100 C
1:
0)
0(
0Q
#20000000
0!
#25000000
1!
b100000001000000000000000011 +
08
b11 A
b10 ;
1L
0B
b111 5
b1000100 -
b100000001000000000000000011 F
b1011 R
0:
b100000001000000000000000011 *
b1000100 .
b1000100 ,
#30000000
0!
#35000000
1!
b1 ;
b1010 I
1K
09
b110 5
b10 -
b11000000100000000100000000 F
b1010 R
b10 .
b10 ,
#40000000
0!
#45000000
1!
b11000000100000000100000000 E
b0 ;
0K
b101 5
b0 F
b1001 R
b1010 `
#50000000
0!
#55000000
1!
b100 5
b1010 F
b1000 R
#60000000
0!
#65000000
1!
b111 R
b11 5
#70000000
0!
#75000000
1!
b110 R
b10 5
#80000000
0!
#85000000
1!
b101 R
b1 5
#90000000
0!
#95000000
1!
b100 R
b0 5
#100000000
0!
#105000000
1!
b11 7
b111 5
b1 2
b11 R
#110000000
0!
#115000000
1!
b10 R
b110 5
#120000000
0!
#125000000
1!
b1 R
b101 5
#130000000
0!
#135000000
1!
b0 R
b100 5
#140000000
0!
#145000000
1!
b11 5
b1 >
b111 R
#150000000
0!
#155000000
1!
b110 R
b10 5
#160000000
0!
#165000000
1!
b101 R
b1 5
#170000000
0!
#175000000
1!
b100 R
b0 5
#180000000
0!
#185000000
1!
b111 5
b10 2
b11 R
#190000000
0!
#195000000
1!
b10 R
b110 5
#200000000
0!
#205000000
1!
b1 R
b101 5
#210000000
0!
#215000000
1!
b0 R
b100 5
#220000000
0!
#225000000
1!
b11 5
b10 >
b111 R
#230000000
0!
#235000000
1!
b110 R
b10 5
#240000000
0!
#245000000
1!
b101 R
b1 5
#250000000
0!
#255000000
1!
b100 R
b0 5
#260000000
0!
#265000000
1!
b111 5
b11 2
b11 R
#270000000
0!
#275000000
1!
b10 R
b110 5
#280000000
0!
#285000000
1!
b1 R
b101 5
#290000000
0!
#295000000
1!
b0 R
b100 5
#300000000
0!
#305000000
1!
b11 5
b11 >
b111 R
#310000000
0!
#315000000
1!
b110 R
b10 5
#320000000
0!
#325000000
1!
b101 R
b1 5
#330000000
0!
#335000000
1!
b100 R
b0 5
#340000000
0!
#345000000
1!
b111 5
b100 2
b11 R
#350000000
0!
#355000000
1!
b10 R
b110 5
#360000000
0!
#365000000
1!
b1 R
b101 5
#370000000
0!
#375000000
1!
b0 R
b100 5
#380000000
0!
#385000000
1!
b11 5
b100 >
b111 R
#390000000
0!
#395000000
1!
b110 R
b10 5
#400000000
0!
#405000000
1!
b101 R
b1 5
#410000000
0!
#415000000
1!
b100 R
b0 5
#420000000
0!
#425000000
1!
b111 5
b101 2
b11 R
#430000000
0!
#435000000
1!
b10 R
b110 5
#440000000
0!
#445000000
1!
b1 R
b101 5
#450000000
0!
#455000000
1!
b0 R
b100 5
#460000000
0!
#465000000
1!
b11 5
b101 >
b111 R
#470000000
0!
#475000000
1!
b110 R
b10 5
#480000000
0!
#485000000
1!
b101 R
b1 5
#490000000
0!
#495000000
1!
b100 R
b0 5
#500000000
0!
#505000000
1!
b111 5
b110 2
b11 R
#510000000
0!
#515000000
1!
b10 R
b110 5
#520000000
0!
#525000000
1!
b1 R
b101 5
#530000000
0!
#535000000
1!
b0 R
b100 5
#540000000
0!
#545000000
1!
b11 5
b110 >
b111 R
#550000000
0!
#555000000
1!
b110 R
b10 5
#560000000
0!
#565000000
1!
b101 R
b1 5
#570000000
0!
#575000000
1!
b100 R
b0 5
#580000000
0!
#585000000
1!
b111 5
b111 2
b11 R
#590000000
0!
#595000000
1!
b10 R
b110 5
#600000000
0!
#605000000
1!
b1 R
b101 5
#610000000
0!
#615000000
1!
b0 R
b100 5
#620000000
0!
#625000000
1!
b11 5
b111 >
b111 R
#630000000
0!
#635000000
1!
b110 R
b10 5
#640000000
0!
#645000000
1!
b101 R
b1 5
#650000000
0!
#655000000
1!
b100 R
b0 5
#660000000
0!
#665000000
1!
b111 5
b1000 2
b11 R
#670000000
0!
#675000000
1!
b10 R
b110 5
#680000000
0!
#685000000
1!
b1 R
b101 5
#690000000
0!
#695000000
1!
b0 R
b100 5
#700000000
0!
#705000000
1!
b10 A
b11 5
b1000 R
#710000000
0!
#715000000
1!
b111 R
b10 5
#720000000
0!
#725000000
1!
b110 R
b1 5
#730000000
0!
#735000000
1!
b101 R
b0 5
#740000000
0!
#745000000
1!
b10 7
11
b111 5
b100 R
1Q
#750000000
0!
#755000000
1!
b11 R
b110 5
#760000000
0!
#765000000
1!
b10 R
b101 5
#770000000
0!
#775000000
1!
b1 R
b100 5
#780000000
0!
#785000000
1!
b0 R
b11 5
#790000000
0!
#795000000
1!
b1 A
b1 ?
b10 5
b0 >
#800000000
0!
#805000000
1!
b11111111111 R
b1 5
#810000000
0!
#815000000
1!
b11111111110 R
b0 5
#820000000
0!
#825000000
1!
b1 7
b1 3
01
b1000 5
b0 2
b11111111101 R
0Q
#830000000
0!
#835000000
1!
b11 A
19
b111 5
b1011 R
#840000000
0!
#845000000
1!
1K
09
b110 5
b1010 R
#850000000
0!
#855000000
1!
0K
b101 5
b1001 R
#860000000
0!
#865000000
1!
b1000 R
b100 5
#870000000
0!
#875000000
1!
b111 R
b11 5
#880000000
0!
#885000000
1!
b110 R
b10 5
#890000000
0!
#895000000
1!
b101 R
b1 5
#900000000
0!
#905000000
1!
b100 R
b0 5
#910000000
0!
#915000000
1!
b11 7
11
b111 5
b1 2
b11 R
1Q
#920000000
0!
#925000000
1!
b10 R
b110 5
#930000000
0!
#935000000
1!
b1 R
b101 5
#940000000
0!
#945000000
1!
b0 R
b100 5
#950000000
0!
#955000000
1!
b100000000 S
b11 5
b1 >
b111 R
#960000000
0!
#965000000
1!
b110 R
b10 5
#970000000
0!
#975000000
1!
b101 R
b1 5
#980000000
0!
#985000000
1!
b100 R
b0 5
#990000000
0!
#995000000
1!
01
b111 5
b10 2
b11 R
0Q
#1000000000
0!
#1005000000
1!
b10 R
b110 5
#1010000000
0!
#1015000000
1!
b1 R
b101 5
#1020000000
0!
#1025000000
1!
b0 R
b100 5
#1030000000
0!
#1035000000
1!
b11 5
b10 >
b111 R
#1040000000
0!
#1045000000
1!
b110 R
b10 5
#1050000000
0!
#1055000000
1!
b101 R
b1 5
#1060000000
0!
#1065000000
1!
b100 R
b0 5
#1070000000
0!
#1075000000
1!
b111 5
b11 2
b11 R
#1080000000
0!
#1085000000
1!
b10 R
b110 5
#1090000000
0!
#1095000000
1!
b101 5
b1 R
#1100000000
0!
#1105000000
1!
b0 R
b100 5
#1110000000
0!
#1115000000
1!
b11 5
b11 >
b111 R
#1120000000
0!
#1125000000
1!
b110 R
b10 5
#1130000000
0!
#1135000000
1!
b101 R
b1 5
#1140000000
0!
#1145000000
1!
b100 R
b0 5
#1150000000
0!
#1155000000
1!
b111 5
b100 2
b11 R
#1160000000
0!
#1165000000
1!
b10 R
b110 5
#1170000000
0!
#1175000000
1!
b1 R
b101 5
#1180000000
0!
#1185000000
1!
b0 R
b100 5
#1190000000
0!
#1195000000
1!
b11 5
b100 >
b111 R
#1200000000
0!
#1205000000
1!
b110 R
b10 5
#1210000000
0!
#1215000000
1!
b101 R
b1 5
#1220000000
0!
#1225000000
1!
b100 R
b0 5
#1230000000
0!
#1235000000
1!
b111 5
b101 2
b11 R
#1240000000
0!
#1245000000
1!
b10 R
b110 5
#1250000000
0!
#1255000000
1!
b1 R
b101 5
#1260000000
0!
#1265000000
1!
b0 R
b100 5
#1270000000
0!
#1275000000
1!
b11 5
b101 >
b111 R
#1280000000
0!
#1285000000
1!
b10 5
b110 R
#1290000000
0!
#1295000000
1!
b101 R
b1 5
#1300000000
0!
#1305000000
1!
b100 R
b0 5
#1310000000
0!
#1315000000
1!
b111 5
b110 2
b11 R
#1320000000
0!
#1325000000
1!
b10 R
b110 5
#1330000000
0!
#1335000000
1!
b1 R
b101 5
#1340000000
0!
#1345000000
1!
b0 R
b100 5
#1350000000
0!
#1355000000
1!
b11 5
b110 >
b111 R
#1360000000
0!
#1365000000
1!
b110 R
b10 5
#1370000000
0!
#1375000000
1!
b101 R
b1 5
#1380000000
0!
#1385000000
1!
b100 R
b0 5
#1390000000
0!
#1395000000
1!
b111 5
b111 2
b11 R
#1400000000
0!
#1405000000
1!
b10 R
b110 5
#1410000000
0!
#1415000000
1!
b1 R
b101 5
#1420000000
0!
#1425000000
1!
b0 R
b100 5
#1430000000
0!
#1435000000
1!
b11 5
b111 >
b111 R
#1440000000
0!
#1445000000
1!
b110 R
b10 5
#1450000000
0!
#1455000000
1!
b101 R
b1 5
#1460000000
0!
#1465000000
1!
b100 R
b0 5
#1470000000
0!
#1475000000
1!
b111 5
b1000 2
b11 R
#1480000000
0!
#1485000000
1!
b10 R
b110 5
#1490000000
0!
#1495000000
1!
b1 R
b101 5
#1500000000
0!
#1505000000
1!
b0 R
b100 5
#1510000000
0!
#1515000000
1!
b10 A
b11 5
b1000 R
#1520000000
0!
#1525000000
1!
b111 R
b10 5
#1530000000
0!
#1535000000
1!
b110 R
b1 5
#1540000000
0!
#1545000000
1!
b101 R
b0 5
#1550000000
0!
#1555000000
1!
b10 7
11
b111 5
b100 R
1Q
#1560000000
0!
#1565000000
1!
b11 R
b110 5
#1570000000
0!
#1575000000
1!
b10 R
b101 5
#1580000000
0!
#1585000000
1!
b1 R
b100 5
#1590000000
0!
#1595000000
1!
b0 R
b11 5
#1600000000
0!
#1605000000
1!
b1 A
b10 ?
b10 5
b0 >
#1610000000
0!
#1615000000
1!
b11111111111 R
b1 5
#1620000000
0!
#1625000000
1!
b11111111110 R
b0 5
#1630000000
0!
#1635000000
1!
b1 7
b10 3
01
b1000 5
b0 2
b11111111101 R
0Q
#1640000000
0!
#1645000000
1!
b11 A
19
b111 5
b1011 R
#1650000000
0!
#1655000000
1!
1K
09
b110 5
b1010 R
#1660000000
0!
#1665000000
1!
0K
b101 5
b1001 R
#1670000000
0!
#1675000000
1!
b1000 R
b100 5
#1680000000
0!
#1685000000
1!
b111 R
b11 5
#1690000000
0!
#1695000000
1!
b110 R
b10 5
#1700000000
0!
#1705000000
1!
b101 R
b1 5
#1710000000
0!
#1715000000
1!
b100 R
b0 5
#1720000000
0!
#1725000000
1!
b11 7
b1 2
b111 5
b11 R
#1730000000
0!
#1735000000
1!
b10 R
b110 5
#1740000000
0!
#1745000000
1!
b1 R
b101 5
#1750000000
0!
#1755000000
1!
b0 R
b100 5
#1760000000
0!
#1765000000
1!
b11 5
b1 >
b111 R
#1770000000
0!
#1775000000
1!
b110 R
b10 5
#1780000000
0!
#1785000000
1!
b101 R
b1 5
#1790000000
0!
#1795000000
1!
b100 R
b0 5
#1800000000
0!
#1805000000
1!
b111 5
11
b10 2
b11 R
1Q
#1810000000
0!
#1815000000
1!
b10 R
b110 5
#1820000000
0!
#1825000000
1!
b1 R
b101 5
#1830000000
0!
#1835000000
1!
b0 R
b100 5
#1840000000
0!
#1845000000
1!
b100000000100000000 S
b11 5
b10 >
b111 R
#1850000000
0!
#1855000000
1!
b110 R
b10 5
#1860000000
0!
#1865000000
1!
b101 R
b1 5
#1870000000
0!
#1875000000
1!
b100 R
b0 5
#1880000000
0!
#1885000000
1!
01
b111 5
b11 2
b11 R
0Q
#1890000000
0!
#1895000000
1!
b10 R
b110 5
#1900000000
0!
#1905000000
1!
b1 R
b101 5
#1910000000
0!
#1915000000
1!
b0 R
b100 5
#1920000000
0!
#1925000000
1!
b11 5
b11 >
b111 R
#1930000000
0!
#1935000000
1!
b110 R
b10 5
#1940000000
0!
#1945000000
1!
b101 R
b1 5
#1950000000
0!
#1955000000
1!
b100 R
b0 5
#1960000000
0!
#1965000000
1!
b111 5
b100 2
b11 R
#1970000000
0!
#1975000000
1!
b10 R
b110 5
#1980000000
0!
#1985000000
1!
b1 R
b101 5
#1990000000
0!
#1995000000
1!
b0 R
b100 5
#2000000000
0!
#2005000000
1!
b11 5
b100 >
b111 R
#2010000000
0!
#2015000000
1!
b110 R
b10 5
#2020000000
0!
#2025000000
1!
b101 R
b1 5
#2030000000
0!
#2035000000
1!
b100 R
b0 5
#2040000000
0!
#2045000000
1!
b111 5
b101 2
b11 R
#2050000000
0!
#2055000000
1!
b10 R
b110 5
#2060000000
0!
#2065000000
1!
b1 R
b101 5
#2070000000
0!
#2075000000
1!
b0 R
b100 5
#2080000000
0!
#2085000000
1!
b11 5
b101 >
b111 R
#2090000000
0!
#2095000000
1!
b110 R
b10 5
#2100000000
0!
#2105000000
1!
b101 R
b1 5
#2110000000
0!
#2115000000
1!
b100 R
b0 5
#2120000000
0!
#2125000000
1!
b111 5
b110 2
b11 R
#2130000000
0!
#2135000000
1!
b10 R
b110 5
#2140000000
0!
#2145000000
1!
b1 R
b101 5
#2150000000
0!
#2155000000
1!
b0 R
b100 5
#2160000000
0!
#2165000000
1!
b11 5
b110 >
b111 R
#2170000000
0!
#2175000000
1!
b110 R
b10 5
#2180000000
0!
#2185000000
1!
b101 R
b1 5
#2190000000
0!
#2195000000
1!
b100 R
b0 5
#2200000000
0!
#2205000000
1!
b111 5
b111 2
b11 R
#2210000000
0!
#2215000000
1!
b10 R
b110 5
#2220000000
0!
#2225000000
1!
b1 R
b101 5
#2230000000
0!
#2235000000
1!
b0 R
b100 5
#2240000000
0!
#2245000000
1!
b11 5
b111 R
b111 >
#2250000000
0!
#2255000000
1!
b110 R
b10 5
#2260000000
0!
#2265000000
1!
b101 R
b1 5
#2270000000
0!
#2275000000
1!
b100 R
b0 5
#2280000000
0!
#2285000000
1!
b111 5
b1000 2
b11 R
#2290000000
0!
#2295000000
1!
b10 R
b110 5
#2300000000
0!
#2305000000
1!
b1 R
b101 5
#2310000000
0!
#2315000000
1!
b0 R
b100 5
#2320000000
0!
#2325000000
1!
b10 A
b11 5
b1000 R
#2330000000
0!
#2335000000
1!
b111 R
b10 5
#2340000000
0!
#2345000000
1!
b110 R
b1 5
#2350000000
0!
#2355000000
1!
b101 R
b0 5
#2360000000
0!
#2365000000
1!
b10 7
11
b111 5
b100 R
1Q
#2370000000
0!
#2375000000
1!
b11 R
b110 5
#2380000000
0!
#2385000000
1!
b10 R
b101 5
#2390000000
0!
#2395000000
1!
b1 R
b100 5
#2400000000
0!
#2405000000
1!
b0 R
b11 5
#2410000000
0!
#2415000000
1!
b1 A
b11 ?
b10 5
b0 >
#2420000000
0!
#2425000000
1!
b11111111111 R
b1 5
#2430000000
0!
#2435000000
1!
b11111111110 R
b0 5
#2440000000
0!
#2445000000
1!
b1 7
b11 3
01
b1000 5
b0 2
b11111111101 R
0Q
#2450000000
0!
#2455000000
1!
b11 A
19
b111 5
b1011 R
#2460000000
0!
#2465000000
1!
1K
09
b110 5
b1010 R
#2470000000
0!
#2475000000
1!
0K
b101 5
b1001 R
#2480000000
0!
#2485000000
1!
b1000 R
b100 5
#2490000000
0!
#2495000000
1!
b111 R
b11 5
#2500000000
0!
#2505000000
1!
b110 R
b10 5
#2510000000
0!
#2515000000
1!
b101 R
b1 5
#2520000000
0!
#2525000000
1!
b100 R
b0 5
#2530000000
0!
#2535000000
1!
b11 7
11
b111 5
b1 2
b11 R
1Q
#2540000000
0!
#2545000000
1!
b10 R
b110 5
#2550000000
0!
#2555000000
1!
b1 R
b101 5
#2560000000
0!
#2565000000
1!
b0 R
b100 5
#2570000000
0!
#2575000000
1!
b1000000100000000100000000 S
b11 5
b1 >
b111 R
#2580000000
0!
#2585000000
1!
b110 R
b10 5
#2590000000
0!
#2595000000
1!
b101 R
b1 5
#2600000000
0!
#2605000000
1!
b100 R
b0 5
#2610000000
0!
#2615000000
1!
b111 5
b10 2
b11 R
#2620000000
0!
#2625000000
1!
b10 R
b110 5
#2630000000
0!
#2635000000
1!
b1 R
b101 5
#2640000000
0!
#2645000000
1!
b0 R
b100 5
#2650000000
0!
#2655000000
1!
b11000000100000000100000000 S
b11 5
b10 >
b111 R
#2660000000
0!
#2665000000
1!
b110 R
b10 5
#2670000000
0!
#2675000000
1!
b101 R
b1 5
#2680000000
0!
#2685000000
1!
b100 R
b0 5
#2690000000
0!
#2695000000
1!
01
b111 5
b11 2
b11 R
0Q
#2700000000
0!
#2705000000
1!
b10 R
b110 5
#2710000000
0!
#2715000000
1!
b1 R
b101 5
#2720000000
0!
#2725000000
1!
b0 R
b100 5
#2730000000
0!
#2735000000
1!
b11 5
b11 >
b111 R
#2740000000
0!
#2745000000
1!
b110 R
b10 5
#2750000000
0!
#2755000000
1!
b101 R
b1 5
#2760000000
0!
#2765000000
1!
b100 R
b0 5
#2770000000
0!
#2775000000
1!
b111 5
b100 2
b11 R
#2780000000
0!
#2785000000
1!
b10 R
b110 5
#2790000000
0!
#2795000000
1!
b1 R
b101 5
#2800000000
0!
#2805000000
1!
b0 R
b100 5
#2810000000
0!
#2815000000
1!
b11 5
b100 >
b111 R
#2820000000
0!
#2825000000
1!
b110 R
b10 5
#2830000000
0!
#2835000000
1!
b101 R
b1 5
#2840000000
0!
#2845000000
1!
b100 R
b0 5
#2850000000
0!
#2855000000
1!
b111 5
b101 2
b11 R
#2860000000
0!
#2865000000
1!
b10 R
b110 5
#2870000000
0!
#2875000000
1!
b1 R
b101 5
#2880000000
0!
#2885000000
1!
b0 R
b100 5
#2890000000
0!
#2895000000
1!
b11 5
b101 >
b111 R
#2900000000
0!
#2905000000
1!
b110 R
b10 5
#2910000000
0!
#2915000000
1!
b101 R
b1 5
#2920000000
0!
#2925000000
1!
b100 R
b0 5
#2930000000
0!
#2935000000
1!
b111 5
b110 2
b11 R
#2940000000
0!
#2945000000
1!
b10 R
b110 5
#2950000000
0!
#2955000000
1!
b1 R
b101 5
#2960000000
0!
#2965000000
1!
b0 R
b100 5
#2970000000
0!
#2975000000
1!
b11 5
b110 >
b111 R
#2980000000
0!
#2985000000
1!
b110 R
b10 5
#2990000000
0!
#2995000000
1!
b101 R
b1 5
#3000000000
0!
#3005000000
1!
b100 R
b0 5
#3010000000
0!
#3015000000
1!
b111 5
b111 2
b11 R
#3020000000
0!
#3025000000
1!
b10 R
b110 5
#3030000000
0!
#3035000000
1!
b1 R
b101 5
#3040000000
0!
#3045000000
1!
b0 R
b100 5
#3050000000
0!
#3055000000
1!
b11 5
b111 >
b111 R
#3060000000
0!
#3065000000
1!
b110 R
b10 5
#3070000000
0!
#3075000000
1!
b101 R
b1 5
#3080000000
0!
#3085000000
1!
b100 R
b0 5
#3090000000
0!
#3095000000
1!
b111 5
b1000 2
b11 R
#3100000000
0!
#3105000000
1!
b10 R
b110 5
#3110000000
0!
#3115000000
1!
b1 R
b101 5
#3120000000
0!
#3125000000
1!
b0 R
b100 5
#3130000000
0!
#3135000000
1!
b10 A
b11 5
b1000 R
#3140000000
0!
#3145000000
1!
b111 R
b10 5
#3150000000
0!
#3155000000
1!
b110 R
b1 5
#3160000000
0!
#3165000000
1!
b101 R
b0 5
#3170000000
0!
#3175000000
1!
b10 7
11
b111 5
b100 R
1Q
#3180000000
0!
#3185000000
1!
b11 R
b110 5
#3190000000
0!
#3195000000
1!
b10 R
b101 5
#3200000000
0!
#3205000000
1!
b1 R
b100 5
#3210000000
0!
#3215000000
1!
b0 R
b11 5
#3220000000
0!
#3225000000
1!
b11000000100000000100000000 J
b1 A
1N
b0 ?
1G
b10 5
b11000000100000000100000000 U
b0 >
b1 @
b11000000100000000100000000 [
#3230000000
0!
#3235000000
1!
b11000000100000000100000000 I
0N
b1110110110110111111011111000111 \
1K
0G
b1 5
b11 -
b11111111111 R
b11 .
b11 ,
b1110110110110111111011111000111 T
#3240000000
0!
