em_serial_port.vcd
$comment Generated by Amaranth $end
$date 2024-12-11 22:04:18.790338 $end
$timescale 1 fs $end
$scope module bench $end
$scope module top $end
$var wire 1 ! sync_100_clk $end
$var wire 1 " sync_100_rst $end
$var wire 7 # externalReadPort__addr $end
$var wire 16 $ address $end
$var wire 7 % externalWritePort__addr $end
$var wire 32 & externalWritePort__data $end
$var wire 32 ' writeData $end
$var wire 1 ( externalWritePort__en $end
$var wire 1 ) writeEnable $end
$var wire 32 * readData $end
$var wire 32 + externalReadPort__data $end
$var wire 7 , internalReadPort__addr $end
$var wire 16 - internalReadWriteAddress $end
$var wire 7 . internalWritePort__addr $end
$var wire 16 / bram_address $end
$var wire 1 0 bram_control_mode $end
$var wire 32 1 bram_read_data $end
$var wire 1 2 txDone $end
$var wire 1 3 txBusy $end
$var wire 1 4 rxDone $end
$var wire 1 5 rxBusy $end
$var wire 1 6 rxCRCvalid $end
$var wire 32 7 bram_write_data $end
$var wire 1 8 bram_write_enable $end
$var string 1 9 tx_fsm_state $end
$var string 1 : rx_fsm_state $end
$var wire 1 ; tx_start $end
$var wire 1 < rx_start $end
$var wire 8 = txPacketSize $end
$var wire 8 > rxPacketSize $end
$var wire 10 ? bitLength $end
$var wire 2 @ txReadDataRequestWait $end
$var wire 32 A txReadData $end
$var wire 32 B internalReadPort__data $end
$var wire 1 C txReadDataRequest $end
$var wire 1 D rxWriteDataRequest $end
$var wire 8 E txCurrentWord $end
$var wire 8 F rxNewDataIndex $end
$var wire 32 G internalWritePort__data $end
$var wire 32 H rxNewData $end
$var wire 1 I internalWritePort__en $end
$var wire 1 J valid $end
$var wire 1 K start $end
$var wire 1 L valid$43 $end
$var wire 1 M start$44 $end
$var wire 1 N tx $end
$var wire 4 O txCurrentBit $end
$var wire 2 P txCurrentByte $end
$var wire 11 Q txTimer $end
$var wire 1 R updateStatusDataRequest $end
$var wire 32 S crc $end
$var wire 32 T data $end
$var wire 4 U rxCurrentBit $end
$var wire 2 V rxCurrentByte $end
$var wire 8 W rxCurrentWord $end
$var wire 1 X rx_synced $end
$var wire 11 Y rxTimer $end
$var wire 32 Z rxData $end
$var wire 32 [ crc$58 $end
$var wire 32 \ data$59 $end
$var wire 32 h \memory[0] $end
$var wire 32 i \memory[1] $end
$var wire 32 j \memory[2] $end
$var wire 32 k \memory[3] $end
$var wire 32 l \memory[4] $end
$var wire 32 m \memory[5] $end
$var wire 32 n \memory[6] $end
$var wire 32 o \memory[7] $end
$var wire 32 p \memory[8] $end
$var wire 32 q \memory[9] $end
$var wire 32 r \memory[10] $end
$var wire 32 s \memory[11] $end
$var wire 32 t \memory[12] $end
$var wire 32 u \memory[13] $end
$var wire 32 v \memory[14] $end
$var wire 32 w \memory[15] $end
$var wire 32 x \memory[16] $end
$var wire 32 y \memory[17] $end
$var wire 32 z \memory[18] $end
$var wire 32 { \memory[19] $end
$var wire 32 | \memory[20] $end
$var wire 32 } \memory[21] $end
$var wire 32 ~ \memory[22] $end
$var wire 32 !! \memory[23] $end
$var wire 32 "! \memory[24] $end
$var wire 32 #! \memory[25] $end
$var wire 32 $! \memory[26] $end
$var wire 32 %! \memory[27] $end
$var wire 32 &! \memory[28] $end
$var wire 32 '! \memory[29] $end
$var wire 32 (! \memory[30] $end
$var wire 32 )! \memory[31] $end
$var wire 32 *! \memory[32] $end
$var wire 32 +! \memory[33] $end
$var wire 32 ,! \memory[34] $end
$var wire 32 -! \memory[35] $end
$var wire 32 .! \memory[36] $end
$var wire 32 /! \memory[37] $end
$var wire 32 0! \memory[38] $end
$var wire 32 1! \memory[39] $end
$var wire 32 2! \memory[40] $end
$var wire 32 3! \memory[41] $end
$var wire 32 4! \memory[42] $end
$var wire 32 5! \memory[43] $end
$var wire 32 6! \memory[44] $end
$var wire 32 7! \memory[45] $end
$var wire 32 8! \memory[46] $end
$var wire 32 9! \memory[47] $end
$var wire 32 :! \memory[48] $end
$var wire 32 ;! \memory[49] $end
$var wire 32 <! \memory[50] $end
$var wire 32 =! \memory[51] $end
$var wire 32 >! \memory[52] $end
$var wire 32 ?! \memory[53] $end
$var wire 32 @! \memory[54] $end
$var wire 32 A! \memory[55] $end
$var wire 32 B! \memory[56] $end
$var wire 32 C! \memory[57] $end
$var wire 32 D! \memory[58] $end
$var wire 32 E! \memory[59] $end
$var wire 32 F! \memory[60] $end
$var wire 32 G! \memory[61] $end
$var wire 32 H! \memory[62] $end
$var wire 32 I! \memory[63] $end
$var wire 32 J! \memory[64] $end
$var wire 32 K! \memory[65] $end
$var wire 32 L! \memory[66] $end
$var wire 32 M! \memory[67] $end
$var wire 32 N! \memory[68] $end
$var wire 32 O! \memory[69] $end
$var wire 32 P! \memory[70] $end
$var wire 32 Q! \memory[71] $end
$var wire 32 R! \memory[72] $end
$var wire 32 S! \memory[73] $end
$var wire 32 T! \memory[74] $end
$var wire 32 U! \memory[75] $end
$var wire 32 V! \memory[76] $end
$var wire 32 W! \memory[77] $end
$var wire 32 X! \memory[78] $end
$var wire 32 Y! \memory[79] $end
$var wire 32 Z! \memory[80] $end
$var wire 32 [! \memory[81] $end
$var wire 32 \! \memory[82] $end
$var wire 32 ]! \memory[83] $end
$var wire 32 ^! \memory[84] $end
$var wire 32 _! \memory[85] $end
$var wire 32 `! \memory[86] $end
$var wire 32 a! \memory[87] $end
$var wire 32 b! \memory[88] $end
$var wire 32 c! \memory[89] $end
$var wire 32 d! \memory[90] $end
$var wire 32 e! \memory[91] $end
$var wire 32 f! \memory[92] $end
$var wire 32 g! \memory[93] $end
$var wire 32 h! \memory[94] $end
$var wire 32 i! \memory[95] $end
$var wire 32 j! \memory[96] $end
$var wire 32 k! \memory[97] $end
$var wire 32 l! \memory[98] $end
$var wire 32 m! \memory[99] $end
$var wire 32 n! \memory[100] $end
$var wire 32 o! \memory[101] $end
$var wire 32 p! \memory[102] $end
$var wire 32 q! \memory[103] $end
$var wire 32 r! \memory[104] $end
$var wire 32 s! \memory[105] $end
$var wire 32 t! \memory[106] $end
$var wire 32 u! \memory[107] $end
$var wire 32 v! \memory[108] $end
$var wire 32 w! \memory[109] $end
$var wire 32 x! \memory[110] $end
$var wire 32 y! \memory[111] $end
$var wire 32 z! \memory[112] $end
$var wire 32 {! \memory[113] $end
$var wire 32 |! \memory[114] $end
$var wire 32 }! \memory[115] $end
$var wire 32 ~! \memory[116] $end
$var wire 32 !" \memory[117] $end
$var wire 32 "" \memory[118] $end
$var wire 32 #" \memory[119] $end
$var wire 32 $" \memory[120] $end
$var wire 32 %" \memory[121] $end
$var wire 32 &" \memory[122] $end
$var wire 32 '" \memory[123] $end
$var wire 32 (" \memory[124] $end
$var wire 32 )" \memory[125] $end
$var wire 32 *" \memory[126] $end
$var wire 32 +" \memory[127] $end
$scope module U$3 $end
$var wire 1 ! sync_100_clk $end
$var wire 1 " sync_100_rst $end
$var wire 1 X rx_synced $end
$var wire 1 e stage0 $end
$var wire 1 f rx $end
$var wire 1 g stage1 $end
$upscope $end
$scope module crc32_rx $end
$var wire 1 ! sync_100_clk $end
$var wire 1 " sync_100_rst $end
$var wire 1 L valid $end
$var wire 1 M start $end
$var wire 32 [ crc $end
$var wire 32 \ data $end
$var wire 32 ` data_in $end
$var wire 32 a crc_reg $end
$var wire 1 b match_detected $end
$upscope $end
$scope module crc32_tx $end
$var wire 1 ! sync_100_clk $end
$var wire 1 " sync_100_rst $end
$var wire 1 J valid $end
$var wire 1 K start $end
$var wire 32 S crc $end
$var wire 32 T data $end
$var wire 32 ] data_in $end
$var wire 32 ^ crc_reg $end
$var wire 1 _ match_detected $end
$upscope $end
$scope module memory $end
$var wire 1 ! sync_100_clk $end
$var wire 1 " sync_100_rst $end
$var wire 7 # externalReadPort__addr $end
$var wire 7 % externalWritePort__addr $end
$var wire 32 & externalWritePort__data $end
$var wire 1 ( externalWritePort__en $end
$var wire 32 + externalReadPort__data $end
$var wire 7 , internalReadPort__addr $end
$var wire 7 . internalWritePort__addr $end
$var wire 32 B internalReadPort__data $end
$var wire 32 G internalWritePort__data $end
$var wire 1 I internalWritePort__en $end
$var wire 1 c externalReadPort__en $end
$var wire 1 d internalReadPort__en $end
$upscope $end
$upscope $end
$upscope $end
$enddefinitions $end
#0
$dumpvars
0!
0"
b1 #
b100000000001 $
b1 %
b1000 &
b1000 '
1(
1)
b0 *
b0 +
b0 ,
b0 -
b0 .
b100000000001 /
00
b0 1
12
03
14
05
06
b1000 7
18
sidle/0 9
sidle/0 :
0;
0<
b1 =
b1 >
b1000 ?
b0 @
b0 A
b0 B
0C
0D
b0 E
b0 F
b0 G
b0 H
0I
0J
0K
0L
0M
1N
b0 O
b0 P
b0 Q
0R
b11111111111111111111111111111111 S
b0 T
b0 U
b0 V
b0 W
0X
b0 Y
b0 Z
b11111111111111111111111111111111 [
b0 \
b0 ]
b11111111111111111111111111111111 ^
0_
b0 `
b11111111111111111111111111111111 a
0b
1c
1d
0e
1f
0g
b0 h
b0 i
b0 j
b0 k
b0 l
b0 m
b0 n
b0 o
b0 p
b0 q
b0 r
b0 s
b0 t
b0 u
b0 v
b0 w
b0 x
b0 y
b0 z
b0 {
b0 |
b0 }
b0 ~
b0 !!
b0 "!
b0 #!
b0 $!
b0 %!
b0 &!
b0 '!
b0 (!
b0 )!
b0 *!
b0 +!
b0 ,!
b0 -!
b0 .!
b0 /!
b0 0!
b0 1!
b0 2!
b0 3!
b0 4!
b0 5!
b0 6!
b0 7!
b0 8!
b0 9!
b0 :!
b0 ;!
b0 <!
b0 =!
b0 >!
b0 ?!
b0 @!
b0 A!
b0 B!
b0 C!
b0 D!
b0 E!
b0 F!
b0 G!
b0 H!
b0 I!
b11000000100000000100000000 J!
b111000001100000010100000100 K!
b1011000010100000100100001000 L!
b1111000011100000110100001100 M!
b0 N!
b0 O!
b0 P!
b0 Q!
b0 R!
b0 S!
b0 T!
b0 U!
b0 V!
b0 W!
b0 X!
b0 Y!
b0 Z!
b0 [!
b0 \!
b0 ]!
b0 ^!
b0 _!
b0 `!
b0 a!
b0 b!
b0 c!
b0 d!
b0 e!
b0 f!
b0 g!
b0 h!
b0 i!
b0 j!
b0 k!
b0 l!
b0 m!
b0 n!
b0 o!
b0 p!
b0 q!
b0 r!
b0 s!
b0 t!
b0 u!
b0 v!
b0 w!
b0 x!
b0 y!
b0 z!
b0 {!
b0 |!
b0 }!
b0 ~!
b0 !"
b0 ""
b0 #"
b0 $"
b0 %"
b0 &"
b0 '"
b0 ("
b0 )"
b0 *"
b0 +"
$end
#5000000
1!
1e
b1000 i
08
0)
0(
b100000000000 /
b100000000000 $
b0 #
b0 %
b100000001000000000000000011 7
b100000001000000000000000011 '
b100000001000000000000000011 &
18
1)
1(
#10000000
0!
#15000000
1!
b100 =
1<
1;
b100 >
1g
b100000001000000000000000011 h
1X
08
0)
0(
#20000000
0!
#25000000
1!
sstart/1 :
0<
sstart/1 9
0;
b100000001000000000000000011 B
b100000001000000000000000011 +
b100000001000000000000000011 *
b100000001000000000000000011 1
#30000000
0!
#35000000
1!
sstart_bits_delay/2 :
1R
sstart_bits_delay/2 9
0N
1M
04
1C
13
b1000 Q
1K
02
0f
#40000000
0!
#45000000
1!
b11111111111 Y
0M
b1000000 -
0e
b10 @
0C
b111 Q
0K
b1000000 ,
b1000000 .
#50000000
0!
#55000000
1!
b11111111110 Y
b1 @
b11000000100000000100000000 B
b110 Q
0g
0X
#60000000
0!
#65000000
1!
sreceive/3 :
b1011 Y
b11000000100000000100000000 A
15
b0 @
b101 Q
#70000000
0!
#75000000
1!
b100 Q
b1010 Y
#80000000
0!
#85000000
1!
b11 Q
b1001 Y
#90000000
0!
#95000000
1!
b10 Q
b1000 Y
#100000000
0!
#105000000
1!
b1 Q
b111 Y
#110000000
0!
#115000000
1!
b0 Q
b110 Y
#120000000
0!
#125000000
1!
b101 Y
ssend/3 9
b1 O
b111 Q
#130000000
0!
#135000000
1!
b110 Q
b100 Y
#140000000
0!
#145000000
1!
b101 Q
b11 Y
#150000000
0!
#155000000
1!
b100 Q
b10 Y
#160000000
0!
#165000000
1!
b11 Q
b1 Y
#170000000
0!
#175000000
1!
b10 Q
b0 Y
#180000000
0!
#185000000
1!
b111 Y
b1 U
b1 Q
#190000000
0!
#195000000
1!
b0 Q
b110 Y
#200000000
0!
#205000000
1!
b101 Y
b10 O
b111 Q
#210000000
0!
#215000000
1!
b110 Q
b100 Y
#220000000
0!
#225000000
1!
b101 Q
b11 Y
#230000000
0!
#235000000
1!
b100 Q
b10 Y
#240000000
0!
#245000000
1!
b11 Q
b1 Y
#250000000
0!
#255000000
1!
b10 Q
b0 Y
#260000000
0!
#265000000
1!
b111 Y
b10 U
b1 Q
#270000000
0!
#275000000
1!
b0 Q
b110 Y
#280000000
0!
#285000000
1!
b101 Y
b11 O
b111 Q
#290000000
0!
#295000000
1!
b110 Q
b100 Y
#300000000
0!
#305000000
1!
b101 Q
b11 Y
#310000000
0!
#315000000
1!
b100 Q
b10 Y
#320000000
0!
#325000000
1!
b11 Q
b1 Y
#330000000
0!
#335000000
1!
b10 Q
b0 Y
#340000000
0!
#345000000
1!
b111 Y
b11 U
b1 Q
#350000000
0!
#355000000
1!
b0 Q
b110 Y
#360000000
0!
#365000000
1!
b101 Y
b100 O
b111 Q
#370000000
0!
#375000000
1!
b110 Q
b100 Y
#380000000
0!
#385000000
1!
b101 Q
b11 Y
#390000000
0!
#395000000
1!
b100 Q
b10 Y
#400000000
0!
#405000000
1!
b11 Q
b1 Y
#410000000
0!
#415000000
1!
b10 Q
b0 Y
#420000000
0!
#425000000
1!
b111 Y
b100 U
b1 Q
#430000000
0!
#435000000
1!
b0 Q
b110 Y
#440000000
0!
#445000000
1!
b101 Y
b101 O
b111 Q
#450000000
0!
#455000000
1!
b110 Q
b100 Y
#460000000
0!
#465000000
1!
b101 Q
b11 Y
#470000000
0!
#475000000
1!
b100 Q
b10 Y
#480000000
0!
#485000000
1!
b11 Q
b1 Y
#490000000
0!
#495000000
1!
b10 Q
b0 Y
#500000000
0!
#505000000
1!
b111 Y
b101 U
b1 Q
#510000000
0!
#515000000
1!
b0 Q
b110 Y
#520000000
0!
#525000000
1!
b101 Y
b110 O
b111 Q
#530000000
0!
#535000000
1!
b110 Q
b100 Y
#540000000
0!
#545000000
1!
b101 Q
b11 Y
#550000000
0!
#555000000
1!
b100 Q
b10 Y
#560000000
0!
#565000000
1!
b11 Q
b1 Y
#570000000
0!
#575000000
1!
b10 Q
b0 Y
#580000000
0!
#585000000
1!
b111 Y
b110 U
b1 Q
#590000000
0!
#595000000
1!
b0 Q
b110 Y
#600000000
0!
#605000000
1!
b101 Y
b111 O
b111 Q
#610000000
0!
#615000000
1!
b110 Q
b100 Y
#620000000
0!
#625000000
1!
b101 Q
b11 Y
#630000000
0!
#635000000
1!
b100 Q
b10 Y
#640000000
0!
#645000000
1!
b11 Q
b1 Y
#650000000
0!
#655000000
1!
b10 Q
b0 Y
#660000000
0!
#665000000
1!
b111 Y
b111 U
b1 Q
#670000000
0!
#675000000
1!
b0 Q
b110 Y
#680000000
0!
#685000000
1!
b101 Y
b1000 O
b111 Q
#690000000
0!
#695000000
1!
b110 Q
b100 Y
#700000000
0!
#705000000
1!
b101 Q
b11 Y
#710000000
0!
#715000000
1!
b100 Q
b10 Y
#720000000
0!
#725000000
1!
b11 Q
b1 Y
#730000000
0!
#735000000
1!
b10 Q
b0 Y
#740000000
0!
#745000000
1!
sstop_bits_delay/4 :
b1000 Y
b1 Q
#750000000
0!
#755000000
1!
b0 Q
b111 Y
#760000000
0!
#765000000
1!
b110 Y
sstop_bits_delay/4 9
1N
b111 Q
1f
#770000000
0!
#775000000
1!
b101 Y
1e
b110 Q
#780000000
0!
#785000000
1!
b100 Y
b101 Q
1g
1X
#790000000
0!
#795000000
1!
b100 Q
b11 Y
#800000000
0!
#805000000
1!
b11 Q
b10 Y
#810000000
0!
#815000000
1!
b10 Q
b1 Y
#820000000
0!
#825000000
1!
b1 Q
b0 Y
#830000000
0!
#835000000
1!
sstart_bits_delay/2 :
b0 U
b1 V
b0 Q
#840000000
0!
#845000000
1!
b11111111111 Y
b1 P
sstart_bits_delay/2 9
0N
b0 O
b1000 Q
0f
#850000000
0!
#855000000
1!
b11111111110 Y
0e
b111 Q
#860000000
0!
#865000000
1!
b11111111101 Y
b110 Q
0g
0X
#870000000
0!
#875000000
1!
sreceive/3 :
b1011 Y
b101 Q
#880000000
0!
#885000000
1!
b100 Q
b1010 Y
#890000000
0!
#895000000
1!
b11 Q
b1001 Y
#900000000
0!
#905000000
1!
b10 Q
b1000 Y
#910000000
0!
#915000000
1!
b1 Q
b111 Y
#920000000
0!
#925000000
1!
b0 Q
b110 Y
#930000000
0!
#935000000
1!
b101 Y
ssend/3 9
1N
b1 O
b111 Q
1f
#940000000
0!
#945000000
1!
b100 Y
1e
b110 Q
#950000000
0!
#955000000
1!
b11 Y
b101 Q
1g
1X
#960000000
0!
#965000000
1!
b100 Q
b10 Y
#970000000
0!
#975000000
1!
b11 Q
b1 Y
#980000000
0!
#985000000
1!
b10 Q
b0 Y
#990000000
0!
#995000000
1!
b111 Y
b1 U
b100000000 Z
b1 Q
#1000000000
0!
#1005000000
1!
b0 Q
b110 Y
#1010000000
0!
#1015000000
1!
b101 Y
0N
b10 O
b111 Q
0f
#1020000000
0!
#1025000000
1!
b100 Y
0e
b110 Q
#1030000000
0!
#1035000000
1!
b11 Y
b101 Q
0g
0X
#1040000000
0!
#1045000000
1!
b100 Q
b10 Y
#1050000000
0!
#1055000000
1!
b11 Q
b1 Y
#1060000000
0!
#1065000000
1!
b10 Q
b0 Y
#1070000000
0!
#1075000000
1!
b111 Y
b10 U
b1 Q
#1080000000
0!
#1085000000
1!
b0 Q
b110 Y
#1090000000
0!
#1095000000
1!
b101 Y
b11 O
b111 Q
#1100000000
0!
#1105000000
1!
b110 Q
b100 Y
#1110000000
0!
#1115000000
1!
b101 Q
b11 Y
#1120000000
0!
#1125000000
1!
b100 Q
b10 Y
#1130000000
0!
#1135000000
1!
b11 Q
b1 Y
#1140000000
0!
#1145000000
1!
b10 Q
b0 Y
#1150000000
0!
#1155000000
1!
b111 Y
b11 U
b1 Q
#1160000000
0!
#1165000000
1!
b0 Q
b110 Y
#1170000000
0!
#1175000000
1!
b101 Y
b100 O
b111 Q
#1180000000
0!
#1185000000
1!
b110 Q
b100 Y
#1190000000
0!
#1195000000
1!
b101 Q
b11 Y
#1200000000
0!
#1205000000
1!
b100 Q
b10 Y
#1210000000
0!
#1215000000
1!
b11 Q
b1 Y
#1220000000
0!
#1225000000
1!
b10 Q
b0 Y
#1230000000
0!
#1235000000
1!
b111 Y
b100 U
b1 Q
#1240000000
0!
#1245000000
1!
b0 Q
b110 Y
#1250000000
0!
#1255000000
1!
b101 Y
b101 O
b111 Q
#1260000000
0!
#1265000000
1!
b110 Q
b100 Y
#1270000000
0!
#1275000000
1!
b101 Q
b11 Y
#1280000000
0!
#1285000000
1!
b100 Q
b10 Y
#1290000000
0!
#1295000000
1!
b11 Q
b1 Y
#1300000000
0!
#1305000000
1!
b10 Q
b0 Y
#1310000000
0!
#1315000000
1!
b111 Y
b101 U
b1 Q
#1320000000
0!
#1325000000
1!
b0 Q
b110 Y
#1330000000
0!
#1335000000
1!
b101 Y
b110 O
b111 Q
#1340000000
0!
#1345000000
1!
b110 Q
b100 Y
#1350000000
0!
#1355000000
1!
b101 Q
b11 Y
#1360000000
0!
#1365000000
1!
b100 Q
b10 Y
#1370000000
0!
#1375000000
1!
b11 Q
b1 Y
#1380000000
0!
#1385000000
1!
b10 Q
b0 Y
#1390000000
0!
#1395000000
1!
b111 Y
b110 U
b1 Q
#1400000000
0!
#1405000000
1!
b0 Q
b110 Y
#1410000000
0!
#1415000000
1!
b101 Y
b111 O
b111 Q
#1420000000
0!
#1425000000
1!
b110 Q
b100 Y
#1430000000
0!
#1435000000
1!
b101 Q
b11 Y
#1440000000
0!
#1445000000
1!
b100 Q
b10 Y
#1450000000
0!
#1455000000
1!
b11 Q
b1 Y
#1460000000
0!
#1465000000
1!
b10 Q
b0 Y
#1470000000
0!
#1475000000
1!
b111 Y
b111 U
b1 Q
#1480000000
0!
#1485000000
1!
b0 Q
b110 Y
#1490000000
0!
#1495000000
1!
b101 Y
b1000 O
b111 Q
#1500000000
0!
#1505000000
1!
b110 Q
b100 Y
#1510000000
0!
#1515000000
1!
b101 Q
b11 Y
#1520000000
0!
#1525000000
1!
b100 Q
b10 Y
#1530000000
0!
#1535000000
1!
b11 Q
b1 Y
#1540000000
0!
#1545000000
1!
b10 Q
b0 Y
#1550000000
0!
#1555000000
1!
sstop_bits_delay/4 :
b1000 Y
b1 Q
#1560000000
0!
#1565000000
1!
b0 Q
b111 Y
#1570000000
0!
#1575000000
1!
b110 Y
sstop_bits_delay/4 9
1N
b111 Q
1f
#1580000000
0!
#1585000000
1!
b101 Y
1e
b110 Q
#1590000000
0!
#1595000000
1!
b100 Y
b101 Q
1g
1X
#1600000000
0!
#1605000000
1!
b100 Q
b11 Y
#1610000000
0!
#1615000000
1!
b11 Q
b10 Y
#1620000000
0!
#1625000000
1!
b10 Q
b1 Y
#1630000000
0!
#1635000000
1!
b1 Q
b0 Y
#1640000000
0!
#1645000000
1!
sstart_bits_delay/2 :
b0 U
b10 V
b0 Q
#1650000000
0!
#1655000000
1!
b11111111111 Y
b10 P
sstart_bits_delay/2 9
0N
b0 O
b1000 Q
0f
#1660000000
0!
#1665000000
1!
b11111111110 Y
0e
b111 Q
#1670000000
0!
#1675000000
1!
b11111111101 Y
b110 Q
0g
0X
#1680000000
0!
#1685000000
1!
sreceive/3 :
b1011 Y
b101 Q
#1690000000
0!
#1695000000
1!
b100 Q
b1010 Y
#1700000000
0!
#1705000000
1!
b11 Q
b1001 Y
#1710000000
0!
#1715000000
1!
b10 Q
b1000 Y
#1720000000
0!
#1725000000
1!
b1 Q
b111 Y
#1730000000
0!
#1735000000
1!
b0 Q
b110 Y
#1740000000
0!
#1745000000
1!
b101 Y
ssend/3 9
b1 O
b111 Q
#1750000000
0!
#1755000000
1!
b110 Q
b100 Y
#1760000000
0!
#1765000000
1!
b101 Q
b11 Y
#1770000000
0!
#1775000000
1!
b100 Q
b10 Y
#1780000000
0!
#1785000000
1!
b11 Q
b1 Y
#1790000000
0!
#1795000000
1!
b10 Q
b0 Y
#1800000000
0!
#1805000000
1!
b111 Y
b1 U
b1 Q
#1810000000
0!
#1815000000
1!
b0 Q
b110 Y
#1820000000
0!
#1825000000
1!
b101 Y
1N
b10 O
b111 Q
1f
#1830000000
0!
#1835000000
1!
b100 Y
1e
b110 Q
#1840000000
0!
#1845000000
1!
b11 Y
b101 Q
1g
1X
#1850000000
0!
#1855000000
1!
b100 Q
b10 Y
#1860000000
0!
#1865000000
1!
b11 Q
b1 Y
#1870000000
0!
#1875000000
1!
b10 Q
b0 Y
#1880000000
0!
#1885000000
1!
b111 Y
b10 U
b100000000100000000 Z
b1 Q
#1890000000
0!
#1895000000
1!
b0 Q
b110 Y
#1900000000
0!
#1905000000
1!
b101 Y
0N
b11 O
b111 Q
0f
#1910000000
0!
#1915000000
1!
b100 Y
0e
b110 Q
#1920000000
0!
#1925000000
1!
b11 Y
b101 Q
0g
0X
#1930000000
0!
#1935000000
1!
b100 Q
b10 Y
#1940000000
0!
#1945000000
1!
b11 Q
b1 Y
#1950000000
0!
#1955000000
1!
b10 Q
b0 Y
#1960000000
0!
#1965000000
1!
b111 Y
b11 U
b1 Q
#1970000000
0!
#1975000000
1!
b0 Q
b110 Y
#1980000000
0!
#1985000000
1!
b101 Y
b100 O
b111 Q
#1990000000
0!
#1995000000
1!
b110 Q
b100 Y
#2000000000
0!
#2005000000
1!
b101 Q
b11 Y
#2010000000
0!
#2015000000
1!
b100 Q
b10 Y
#2020000000
0!
#2025000000
1!
b11 Q
b1 Y
#2030000000
0!
#2035000000
1!
b10 Q
b0 Y
#2040000000
0!
#2045000000
1!
b111 Y
b100 U
b1 Q
#2050000000
0!
#2055000000
1!
b0 Q
b110 Y
#2060000000
0!
#2065000000
1!
b101 Y
b101 O
b111 Q
#2070000000
0!
#2075000000
1!
b110 Q
b100 Y
#2080000000
0!
#2085000000
1!
b101 Q
b11 Y
#2090000000
0!
#2095000000
1!
b100 Q
b10 Y
#2100000000
0!
#2105000000
1!
b11 Q
b1 Y
#2110000000
0!
#2115000000
1!
b10 Q
b0 Y
#2120000000
0!
#2125000000
1!
b111 Y
b101 U
b1 Q
#2130000000
0!
#2135000000
1!
b0 Q
b110 Y
#2140000000
0!
#2145000000
1!
b101 Y
b110 O
b111 Q
#2150000000
0!
#2155000000
1!
b110 Q
b100 Y
#2160000000
0!
#2165000000
1!
b101 Q
b11 Y
#2170000000
0!
#2175000000
1!
b100 Q
b10 Y
#2180000000
0!
#2185000000
1!
b11 Q
b1 Y
#2190000000
0!
#2195000000
1!
b10 Q
b0 Y
#2200000000
0!
#2205000000
1!
b111 Y
b110 U
b1 Q
#2210000000
0!
#2215000000
1!
b0 Q
b110 Y
#2220000000
0!
#2225000000
1!
b101 Y
b111 O
b111 Q
#2230000000
0!
#2235000000
1!
b110 Q
b100 Y
#2240000000
0!
#2245000000
1!
b101 Q
b11 Y
#2250000000
0!
#2255000000
1!
b100 Q
b10 Y
#2260000000
0!
#2265000000
1!
b11 Q
b1 Y
#2270000000
0!
#2275000000
1!
b10 Q
b0 Y
#2280000000
0!
#2285000000
1!
b111 Y
b111 U
b1 Q
#2290000000
0!
#2295000000
1!
b0 Q
b110 Y
#2300000000
0!
#2305000000
1!
b101 Y
b1000 O
b111 Q
#2310000000
0!
#2315000000
1!
b110 Q
b100 Y
#2320000000
0!
#2325000000
1!
b101 Q
b11 Y
#2330000000
0!
#2335000000
1!
b100 Q
b10 Y
#2340000000
0!
#2345000000
1!
b11 Q
b1 Y
#2350000000
0!
#2355000000
1!
b10 Q
b0 Y
#2360000000
0!
#2365000000
1!
sstop_bits_delay/4 :
b1000 Y
b1 Q
#2370000000
0!
#2375000000
1!
b0 Q
b111 Y
#2380000000
0!
#2385000000
1!
b110 Y
sstop_bits_delay/4 9
1N
b111 Q
1f
#2390000000
0!
#2395000000
1!
b101 Y
1e
b110 Q
#2400000000
0!
#2405000000
1!
b100 Y
b101 Q
1g
1X
#2410000000
0!
#2415000000
1!
b100 Q
b11 Y
#2420000000
0!
#2425000000
1!
b11 Q
b10 Y
#2430000000
0!
#2435000000
1!
b10 Q
b1 Y
#2440000000
0!
#2445000000
1!
b1 Q
b0 Y
#2450000000
0!
#2455000000
1!
sstart_bits_delay/2 :
b0 U
b11 V
b0 Q
#2460000000
0!
#2465000000
1!
b11111111111 Y
b11 P
sstart_bits_delay/2 9
0N
b0 O
b1000 Q
0f
#2470000000
0!
#2475000000
1!
b11111111110 Y
0e
b111 Q
#2480000000
0!
#2485000000
1!
b11111111101 Y
b110 Q
0g
0X
#2490000000
0!
#2495000000
1!
sreceive/3 :
b1011 Y
b101 Q
#2500000000
0!
#2505000000
1!
b100 Q
b1010 Y
#2510000000
0!
#2515000000
1!
b11 Q
b1001 Y
#2520000000
0!
#2525000000
1!
b10 Q
b1000 Y
#2530000000
0!
#2535000000
1!
b1 Q
b111 Y
#2540000000
0!
#2545000000
1!
b0 Q
b110 Y
#2550000000
0!
#2555000000
1!
b101 Y
ssend/3 9
1N
b1 O
b111 Q
1f
#2560000000
0!
#2565000000
1!
b100 Y
1e
b110 Q
#2570000000
0!
#2575000000
1!
b11 Y
b101 Q
1g
1X
#2580000000
0!
#2585000000
1!
b100 Q
b10 Y
#2590000000
0!
#2595000000
1!
b11 Q
b1 Y
#2600000000
0!
#2605000000
1!
b10 Q
b0 Y
#2610000000
0!
#2615000000
1!
b111 Y
b1 U
b1000000100000000100000000 Z
b1 Q
#2620000000
0!
#2625000000
1!
b0 Q
b110 Y
#2630000000
0!
#2635000000
1!
b101 Y
b10 O
b111 Q
#2640000000
0!
#2645000000
1!
b110 Q
b100 Y
#2650000000
0!
#2655000000
1!
b101 Q
b11 Y
#2660000000
0!
#2665000000
1!
b100 Q
b10 Y
#2670000000
0!
#2675000000
1!
b11 Q
b1 Y
#2680000000
0!
#2685000000
1!
b10 Q
b0 Y
#2690000000
0!
#2695000000
1!
b111 Y
b10 U
b11000000100000000100000000 Z
b1 Q
#2700000000
0!
#2705000000
1!
b0 Q
b110 Y
#2710000000
0!
#2715000000
1!
b101 Y
0N
b11 O
b111 Q
0f
#2720000000
0!
#2725000000
1!
b100 Y
0e
b110 Q
#2730000000
0!
#2735000000
1!
b11 Y
b101 Q
0g
0X
#2740000000
0!
#2745000000
1!
b100 Q
b10 Y
#2750000000
0!
#2755000000
1!
b11 Q
b1 Y
#2760000000
0!
#2765000000
1!
b10 Q
b0 Y
#2770000000
0!
#2775000000
1!
b111 Y
b11 U
b1 Q
#2780000000
0!
#2785000000
1!
b0 Q
b110 Y
#2790000000
0!
#2795000000
1!
b101 Y
b100 O
b111 Q
#2800000000
0!
#2805000000
1!
b110 Q
b100 Y
#2810000000
0!
#2815000000
1!
b101 Q
b11 Y
#2820000000
0!
#2825000000
1!
b100 Q
b10 Y
#2830000000
0!
#2835000000
1!
b11 Q
b1 Y
#2840000000
0!
#2845000000
1!
b10 Q
b0 Y
#2850000000
0!
#2855000000
1!
b111 Y
b100 U
b1 Q
#2860000000
0!
#2865000000
1!
b0 Q
b110 Y
#2870000000
0!
#2875000000
1!
b101 Y
b101 O
b111 Q
#2880000000
0!
#2885000000
1!
b110 Q
b100 Y
#2890000000
0!
#2895000000
1!
b101 Q
b11 Y
#2900000000
0!
#2905000000
1!
b100 Q
b10 Y
#2910000000
0!
#2915000000
1!
b11 Q
b1 Y
#2920000000
0!
