fanuc_encoders_test.vcd
$comment Generated by Amaranth $end
$date 2024-12-08 01:45:33.627105 $end
$timescale 1 fs $end
$scope module bench $end
$scope module top $end
$var wire 1 ! sync_100_clk $end
$var wire 1 " sync_100_rst $end
$var wire 6 # tx_enable $end
$var wire 6 $ tx $end
$var wire 1 % req $end
$var wire 1 & rx $end
$var wire 6 ' synced_rx $end
$var wire 1 ( trigger $end
$var wire 1 ) trigger$8 $end
$var wire 8 * debug $end
$var wire 16 + bram_address $end
$var wire 32 , bram_read_data $end
$var wire 16 - multiturn_count $end
$var wire 16 . singleturn_count $end
$var wire 10 / commutation_count $end
$var wire 1 0 battery_fail $end
$var wire 1 1 unindexed $end
$var wire 1 2 no_response $end
$var wire 1 3 crc_fail $end
$var wire 1 4 done $end
$scope module U$1 $end
$var wire 1 ! sync_100_clk $end
$var wire 1 " sync_100_rst $end
$var wire 1 ) trigger$5 $end
$var wire 1 7 stage0 $end
$var wire 1 8 trigger $end
$var wire 1 9 stage1 $end
$upscope $end
$scope module U$2 $end
$var wire 1 ! sync_100_clk $end
$var wire 1 " sync_100_rst $end
$var wire 6 ' synced_rx $end
$var wire 6 : stage0 $end
$var wire 6 ; rx $end
$var wire 6 < stage1 $end
$var wire 6 = stage2 $end
$var wire 6 > stage3 $end
$upscope $end
$scope module U$3 $end
$var wire 1 ! sync_100_clk $end
$var wire 1 " sync_100_rst $end
$var wire 1 & rx $end
$var wire 1 ( trigger $end
$var wire 16 - multiturn_count $end
$var wire 16 . singleturn_count $end
$var wire 10 / commutation_count $end
$var wire 1 0 battery_fail $end
$var wire 1 1 unindexed $end
$var wire 1 2 no_response $end
$var wire 1 3 crc_fail $end
$var wire 1 4 done $end
$var wire 1 ? input_prev $end
$var string 1 @ fsm_state $end
$var wire 8 A cnt $end
$var wire 7 B idx $end
$var wire 1 C crc_ok $end
$var wire 1 D buf_36 $end
$var wire 1 E buf_37 $end
$var wire 1 F buf_38 $end
$var wire 1 G buf_39 $end
$var wire 1 H buf_40 $end
$var wire 1 I buf_41 $end
$var wire 1 J buf_42 $end
$var wire 1 K buf_43 $end
$var wire 1 L buf_44 $end
$var wire 1 M buf_45 $end
$var wire 1 N buf_46 $end
$var wire 1 O buf_47 $end
$var wire 1 P buf_48 $end
$var wire 1 Q buf_49 $end
$var wire 1 R buf_50 $end
$var wire 1 S buf_51 $end
$var wire 1 T buf_18 $end
$var wire 1 U buf_19 $end
$var wire 1 V buf_20 $end
$var wire 1 W buf_21 $end
$var wire 1 X buf_22 $end
$var wire 1 Y buf_23 $end
$var wire 1 Z buf_24 $end
$var wire 1 [ buf_25 $end
$var wire 1 \ buf_26 $end
$var wire 1 ] buf_27 $end
$var wire 1 ^ buf_28 $end
$var wire 1 _ buf_29 $end
$var wire 1 ` buf_30 $end
$var wire 1 a buf_31 $end
$var wire 1 b buf_32 $end
$var wire 1 c buf_54 $end
$var wire 1 d buf_55 $end
$var wire 1 e buf_56 $end
$var wire 1 f buf_57 $end
$var wire 1 g buf_58 $end
$var wire 1 h buf_59 $end
$var wire 1 i buf_60 $end
$var wire 1 j buf_61 $end
$var wire 1 k buf_62 $end
$var wire 1 l buf_63 $end
$var wire 1 m buf_5 $end
$var wire 1 n buf_8 $end
$var wire 1 o capture $end
$var wire 1 p buf_0 $end
$var wire 1 q buf_1 $end
$var wire 1 r buf_2 $end
$var wire 1 s buf_3 $end
$var wire 1 t buf_4 $end
$var wire 1 u buf_6 $end
$var wire 1 v buf_7 $end
$var wire 1 w buf_9 $end
$var wire 1 x buf_10 $end
$var wire 1 y buf_11 $end
$var wire 1 z buf_12 $end
$var wire 1 { buf_13 $end
$var wire 1 | buf_14 $end
$var wire 1 } buf_15 $end
$var wire 1 ~ buf_16 $end
$var wire 1 !! buf_17 $end
$var wire 1 "! buf_33 $end
$var wire 1 #! buf_34 $end
$var wire 1 $! buf_35 $end
$var wire 1 %! buf_52 $end
$var wire 1 &! buf_53 $end
$var wire 1 '! buf_64 $end
$var wire 1 (! buf_65 $end
$var wire 1 )! buf_66 $end
$var wire 1 *! buf_67 $end
$var wire 1 +! buf_68 $end
$var wire 1 ,! buf_69 $end
$var wire 1 -! buf_70 $end
$var wire 1 .! buf_71 $end
$var wire 1 /! buf_72 $end
$var wire 1 0! buf_73 $end
$var wire 1 1! buf_74 $end
$var wire 1 2! buf_75 $end
$var wire 3 3! state $end
$var wire 1 4! input $end
$var wire 1 5! strobe $end
$var wire 1 6! reset $end
$scope module crc $end
$var wire 1 ! sync_100_clk $end
$var wire 1 " sync_100_rst $end
$var wire 1 C crc_ok $end
$var wire 1 4! input $end
$var wire 1 5! strobe $end
$var wire 1 6! reset $end
$var wire 5 7! shreg $end
$var wire 5 8! xor $end
$upscope $end
$upscope $end
$scope module request_pulse $end
$var wire 1 ! sync_100_clk $end
$var wire 1 " sync_100_rst $end
$var wire 1 % req $end
$var wire 1 ) trigger $end
$var wire 10 5 cnt $end
$var string 1 6 fsm_state $end
$upscope $end
$upscope $end
$upscope $end
$enddefinitions $end
#0
$dumpvars
0!
0"
b111111 #
b0 $
0%
0&
b0 '
0(
0)
b0 *
b0 +
b0 ,
b0 -
b0 .
b0 /
00
01
02
03
04
b0 5
sidle/0 6
07
08
09
b0 :
b0 ;
b0 <
b0 =
b0 >
0?
sWAIT_START/0 @
b0 A
b0 B
1C
0D
0E
0F
0G
0H
0I
0J
0K
0L
0M
0N
0O
0P
0Q
0R
0S
0T
0U
0V
0W
0X
0Y
0Z
0[
0\
0]
0^
0_
0`
0a
0b
0c
0d
0e
0f
0g
0h
0i
0j
0k
0l
0m
0n
0o
0p
0q
0r
0s
0t
0u
0v
0w
0x
0y
0z
0{
0|
0}
0~
0!!
0"!
0#!
0$!
0%!
0&!
0'!
0(!
0)!
0*!
0+!
0,!
0-!
0.!
0/!
00!
01!
02!
b1 3!
04!
05!
06!
b0 7!
b0 8!
$end
#5000000
1!
b1 5
#10000000
0!
#15000000
1!
b10 5
#20000000
0!
#25000000
1!
b11 5
#30000000
0!
#35000000
1!
b100 5
#40000000
0!
#45000000
1!
b101 5
#50000000
0!
#55000000
1!
b110 5
#60000000
0!
#65000000
1!
b111 5
#70000000
0!
#75000000
1!
b1000 5
#80000000
0!
#85000000
1!
b1001 5
#90000000
0!
#95000000
1!
b1010 5
18
#100000000
0!
#105000000
1!
17
b1011 5
08
b1 ;
#110000000
0!
#115000000
1!
07
b1 :
b1100 5
19
1)
1(
#120000000
0!
#125000000
1!
12
09
1%
spulse/1 6
b1 <
b0 5
0)
b111111 $
0(
#130000000
0!
#135000000
1!
b1 5
b1 =
#140000000
0!
#145000000
1!
b1 >
b10 5
b1 '
1&
14!
#150000000
0!
#155000000
1!
b11 5
1?
#160000000
0!
#165000000
1!
b100 5
#170000000
0!
#175000000
1!
b101 5
#180000000
0!
#185000000
1!
b110 5
#190000000
0!
#195000000
1!
b111 5
#200000000
0!
#205000000
1!
b1000 5
#210000000
0!
#215000000
1!
b1001 5
#220000000
0!
#225000000
1!
b1010 5
#230000000
0!
#235000000
1!
b1011 5
#240000000
0!
#245000000
1!
b1100 5
#250000000
0!
#255000000
1!
b1101 5
#260000000
0!
#265000000
1!
b1110 5
#270000000
0!
#275000000
1!
b1111 5
#280000000
0!
#285000000
1!
b10000 5
#290000000
0!
#295000000
1!
b10001 5
#300000000
0!
#305000000
1!
b10010 5
#310000000
0!
#315000000
1!
b10011 5
#320000000
0!
#325000000
1!
b10100 5
#330000000
0!
#335000000
1!
b10101 5
#340000000
0!
#345000000
1!
b10110 5
#350000000
0!
#355000000
1!
b10111 5
#360000000
0!
#365000000
1!
b11000 5
#370000000
0!
#375000000
1!
b11001 5
#380000000
0!
#385000000
1!
b11010 5
#390000000
0!
#395000000
1!
b11011 5
#400000000
0!
#405000000
1!
b11100 5
#410000000
0!
#415000000
1!
b11101 5
#420000000
0!
#425000000
1!
b11110 5
#430000000
0!
#435000000
1!
b11111 5
#440000000
0!
#445000000
1!
b100000 5
#450000000
0!
#455000000
1!
b100001 5
#460000000
0!
#465000000
1!
b100010 5
#470000000
0!
#475000000
1!
b100011 5
#480000000
0!
#485000000
1!
b100100 5
#490000000
0!
#495000000
1!
b100101 5
#500000000
0!
#505000000
1!
b100110 5
#510000000
0!
#515000000
1!
b100111 5
#520000000
0!
#525000000
1!
b101000 5
#530000000
0!
#535000000
1!
b101001 5
#540000000
0!
#545000000
1!
b101010 5
#550000000
0!
#555000000
1!
b101011 5
#560000000
0!
#565000000
1!
b101100 5
#570000000
0!
#575000000
1!
b101101 5
#580000000
0!
#585000000
1!
b101110 5
#590000000
0!
#595000000
1!
b101111 5
#600000000
0!
#605000000
1!
b110000 5
#610000000
0!
#615000000
1!
b110001 5
#620000000
0!
#625000000
1!
b110010 5
#630000000
0!
#635000000
1!
b110011 5
#640000000
0!
#645000000
1!
b110100 5
#650000000
0!
#655000000
1!
b110101 5
#660000000
0!
#665000000
1!
b110110 5
#670000000
0!
#675000000
1!
b110111 5
#680000000
0!
#685000000
1!
b111000 5
#690000000
0!
#695000000
1!
b111001 5
#700000000
0!
#705000000
1!
b111010 5
#710000000
0!
#715000000
1!
b111011 5
#720000000
0!
#725000000
1!
b111100 5
#730000000
0!
#735000000
1!
b111101 5
#740000000
0!
#745000000
1!
b111110 5
#750000000
0!
#755000000
1!
b111111 5
#760000000
0!
#765000000
1!
b1000000 5
#770000000
0!
#775000000
1!
b1000001 5
#780000000
0!
#785000000
1!
b1000010 5
#790000000
0!
#795000000
1!
b1000011 5
#800000000
0!
#805000000
1!
b1000100 5
#810000000
0!
#815000000
1!
b1000101 5
#820000000
0!
#825000000
1!
b1000110 5
#830000000
0!
#835000000
1!
b1000111 5
#840000000
0!
#845000000
1!
b1001000 5
#850000000
0!
#855000000
1!
b1001001 5
#860000000
0!
#865000000
1!
b1001010 5
#870000000
0!
#875000000
1!
b1001011 5
#880000000
0!
#885000000
1!
b1001100 5
#890000000
0!
#895000000
1!
b1001101 5
#900000000
0!
#905000000
1!
b1001110 5
#910000000
0!
#915000000
1!
b1001111 5
#920000000
0!
#925000000
1!
b1010000 5
#930000000
0!
#935000000
1!
b1010001 5
#940000000
0!
#945000000
1!
b1010010 5
#950000000
0!
#955000000
1!
b1010011 5
#960000000
0!
#965000000
1!
b1010100 5
#970000000
0!
#975000000
1!
b1010101 5
#980000000
0!
#985000000
1!
b1010110 5
#990000000
0!
#995000000
1!
b1010111 5
#1000000000
0!
#1005000000
1!
b1011000 5
#1010000000
0!
#1015000000
1!
b1011001 5
#1020000000
0!
#1025000000
1!
b1011010 5
#1030000000
0!
#1035000000
1!
b1011011 5
#1040000000
0!
#1045000000
1!
b1011100 5
#1050000000
0!
#1055000000
1!
b1011101 5
#1060000000
0!
#1065000000
1!
b1011110 5
#1070000000
0!
#1075000000
1!
b1011111 5
#1080000000
0!
#1085000000
1!
b1100000 5
#1090000000
0!
#1095000000
1!
b1100001 5
#1100000000
0!
#1105000000
1!
b1100010 5
#1110000000
0!
#1115000000
1!
b1100011 5
#1120000000
0!
#1125000000
1!
b1100100 5
#1130000000
0!
#1135000000
1!
b1100101 5
#1140000000
0!
#1145000000
1!
b1100110 5
#1150000000
0!
#1155000000
1!
b1100111 5
#1160000000
0!
#1165000000
1!
b1101000 5
#1170000000
0!
#1175000000
1!
b1101001 5
#1180000000
0!
#1185000000
1!
b1101010 5
#1190000000
0!
#1195000000
1!
b1101011 5
#1200000000
0!
#1205000000
1!
b1101100 5
#1210000000
0!
#1215000000
1!
b1101101 5
#1220000000
0!
#1225000000
1!
b1101110 5
#1230000000
0!
#1235000000
1!
b1101111 5
#1240000000
0!
#1245000000
1!
b1110000 5
#1250000000
0!
#1255000000
1!
b1110001 5
#1260000000
0!
#1265000000
1!
b1110010 5
#1270000000
0!
#1275000000
1!
b1110011 5
#1280000000
0!
#1285000000
1!
b1110100 5
#1290000000
0!
#1295000000
1!
b1110101 5
#1300000000
0!
#1305000000
1!
b1110110 5
#1310000000
0!
#1315000000
1!
b1110111 5
#1320000000
0!
#1325000000
1!
b1111000 5
#1330000000
0!
#1335000000
1!
b1111001 5
#1340000000
0!
#1345000000
1!
b1111010 5
#1350000000
0!
#1355000000
1!
b1111011 5
#1360000000
0!
#1365000000
1!
b1111100 5
#1370000000
0!
#1375000000
1!
b1111101 5
#1380000000
0!
#1385000000
1!
b1111110 5
#1390000000
0!
#1395000000
1!
b1111111 5
#1400000000
0!
#1405000000
1!
b10000000 5
#1410000000
0!
#1415000000
1!
b10000001 5
#1420000000
0!
#1425000000
1!
b10000010 5
#1430000000
0!
#1435000000
1!
b10000011 5
#1440000000
0!
#1445000000
1!
b10000100 5
#1450000000
0!
#1455000000
1!
b10000101 5
#1460000000
0!
#1465000000
1!
b10000110 5
#1470000000
0!
#1475000000
1!
b10000111 5
#1480000000
0!
#1485000000
1!
b10001000 5
#1490000000
0!
#1495000000
1!
b10001001 5
#1500000000
0!
#1505000000
1!
b10001010 5
#1510000000
0!
#1515000000
1!
b10001011 5
#1520000000
0!
#1525000000
1!
b10001100 5
#1530000000
0!
#1535000000
1!
b10001101 5
#1540000000
0!
#1545000000
1!
b10001110 5
#1550000000
0!
#1555000000
1!
b10001111 5
#1560000000
0!
#1565000000
1!
b10010000 5
#1570000000
0!
#1575000000
1!
b10010001 5
#1580000000
0!
#1585000000
1!
b10010010 5
#1590000000
0!
#1595000000
1!
b10010011 5
#1600000000
0!
#1605000000
1!
b10010100 5
#1610000000
0!
#1615000000
1!
b10010101 5
#1620000000
0!
#1625000000
1!
b10010110 5
#1630000000
0!
#1635000000
1!
b10010111 5
#1640000000
0!
#1645000000
1!
b10011000 5
#1650000000
0!
#1655000000
1!
b10011001 5
#1660000000
0!
#1665000000
1!
b10011010 5
#1670000000
0!
#1675000000
1!
b10011011 5
#1680000000
0!
#1685000000
1!
b10011100 5
#1690000000
0!
#1695000000
1!
b10011101 5
#1700000000
0!
#1705000000
1!
b10011110 5
#1710000000
0!
#1715000000
1!
b10011111 5
#1720000000
0!
#1725000000
1!
b10100000 5
#1730000000
0!
#1735000000
1!
b10100001 5
#1740000000
0!
#1745000000
1!
b10100010 5
#1750000000
0!
#1755000000
1!
b10100011 5
#1760000000
0!
#1765000000
1!
b10100100 5
#1770000000
0!
#1775000000
1!
b10100101 5
#1780000000
0!
#1785000000
1!
b10100110 5
#1790000000
0!
#1795000000
1!
b10100111 5
#1800000000
0!
#1805000000
1!
b10101000 5
#1810000000
0!
#1815000000
1!
b10101001 5
#1820000000
0!
#1825000000
1!
b10101010 5
#1830000000
0!
#1835000000
1!
b10101011 5
#1840000000
0!
#1845000000
1!
b10101100 5
#1850000000
0!
#1855000000
1!
b10101101 5
#1860000000
0!
#1865000000
1!
b10101110 5
#1870000000
0!
#1875000000
1!
b10101111 5
#1880000000
0!
#1885000000
1!
b10110000 5
#1890000000
0!
#1895000000
1!
b10110001 5
#1900000000
0!
#1905000000
1!
b10110010 5
#1910000000
0!
#1915000000
1!
b10110011 5
#1920000000
0!
#1925000000
1!
b10110100 5
#1930000000
0!
#1935000000
1!
b10110101 5
#1940000000
0!
#1945000000
1!
b10110110 5
#1950000000
0!
#1955000000
1!
b10110111 5
#1960000000
0!
#1965000000
1!
b10111000 5
#1970000000
0!
#1975000000
1!
b10111001 5
#1980000000
0!
#1985000000
1!
b10111010 5
#1990000000
0!
#1995000000
1!
b10111011 5
#2000000000
0!
#2005000000
1!
b10111100 5
#2010000000
0!
#2015000000
1!
b10111101 5
#2020000000
0!
#2025000000
1!
b10111110 5
#2030000000
0!
#2035000000
1!
b10111111 5
#2040000000
0!
#2045000000
1!
b11000000 5
#2050000000
0!
#2055000000
1!
b11000001 5
#2060000000
0!
#2065000000
1!
b11000010 5
#2070000000
0!
#2075000000
1!
b11000011 5
#2080000000
0!
#2085000000
1!
b11000100 5
#2090000000
0!
#2095000000
1!
b11000101 5
#2100000000
0!
#2105000000
1!
b11000110 5
#2110000000
0!
#2115000000
1!
b11000111 5
#2120000000
0!
#2125000000
1!
b11001000 5
#2130000000
0!
#2135000000
1!
b11001001 5
#2140000000
0!
#2145000000
1!
b11001010 5
#2150000000
0!
#2155000000
1!
b11001011 5
#2160000000
0!
#2165000000
1!
b11001100 5
#2170000000
0!
#2175000000
1!
b11001101 5
#2180000000
0!
#2185000000
1!
b11001110 5
#2190000000
0!
#2195000000
1!
b11001111 5
#2200000000
0!
#2205000000
1!
b11010000 5
#2210000000
0!
#2215000000
1!
b11010001 5
#2220000000
0!
#2225000000
1!
b11010010 5
#2230000000
0!
#2235000000
1!
b11010011 5
#2240000000
0!
#2245000000
1!
b11010100 5
#2250000000
0!
#2255000000
1!
b11010101 5
#2260000000
0!
#2265000000
1!
b11010110 5
#2270000000
0!
#2275000000
1!
b11010111 5
#2280000000
0!
#2285000000
1!
b11011000 5
#2290000000
0!
#2295000000
1!
b11011001 5
#2300000000
0!
#2305000000
1!
b11011010 5
#2310000000
0!
#2315000000
1!
b11011011 5
#2320000000
0!
#2325000000
1!
b11011100 5
#2330000000
0!
#2335000000
1!
b11011101 5
#2340000000
0!
#2345000000
1!
b11011110 5
#2350000000
0!
#2355000000
1!
b11011111 5
#2360000000
0!
#2365000000
1!
b11100000 5
#2370000000
0!
#2375000000
1!
b11100001 5
#2380000000
0!
#2385000000
1!
b11100010 5
#2390000000
0!
#2395000000
1!
b11100011 5
#2400000000
0!
#2405000000
1!
b11100100 5
#2410000000
0!
#2415000000
1!
b11100101 5
#2420000000
0!
#2425000000
1!
b11100110 5
#2430000000
0!
#2435000000
1!
b11100111 5
#2440000000
0!
#2445000000
1!
b11101000 5
#2450000000
0!
#2455000000
1!
b11101001 5
#2460000000
0!
#2465000000
1!
b11101010 5
#2470000000
0!
#2475000000
1!
b11101011 5
#2480000000
0!
#2485000000
1!
b11101100 5
#2490000000
0!
#2495000000
1!
b11101101 5
#2500000000
0!
#2505000000
1!
b11101110 5
#2510000000
0!
#2515000000
1!
b11101111 5
#2520000000
0!
#2525000000
1!
b11110000 5
#2530000000
0!
#2535000000
1!
b11110001 5
#2540000000
0!
#2545000000
1!
b11110010 5
#2550000000
0!
#2555000000
1!
b11110011 5
#2560000000
0!
#2565000000
1!
b11110100 5
#2570000000
0!
#2575000000
1!
b11110101 5
#2580000000
0!
#2585000000
1!
b11110110 5
#2590000000
0!
#2595000000
1!
b11110111 5
#2600000000
0!
#2605000000
1!
b11111000 5
#2610000000
0!
#2615000000
1!
b11111001 5
#2620000000
0!
#2625000000
1!
b11111010 5
#2630000000
0!
#2635000000
1!
b11111011 5
#2640000000
0!
#2645000000
1!
b11111100 5
#2650000000
0!
#2655000000
1!
b11111101 5
#2660000000
0!
#2665000000
1!
b11111110 5
#2670000000
0!
#2675000000
1!
b11111111 5
#2680000000
0!
#2685000000
1!
b100000000 5
#2690000000
0!
#2695000000
1!
b100000001 5
#2700000000
0!
#2705000000
1!
b100000010 5
#2710000000
0!
#2715000000
1!
b100000011 5
#2720000000
0!
#2725000000
1!
b100000100 5
#2730000000
0!
#2735000000
1!
b100000101 5
#2740000000
0!
#2745000000
1!
b100000110 5
#2750000000
0!
#2755000000
1!
b100000111 5
#2760000000
0!
#2765000000
1!
b100001000 5
#2770000000
0!
#2775000000
1!
b100001001 5
#2780000000
0!
#2785000000
1!
b100001010 5
#2790000000
0!
#2795000000
1!
b100001011 5
#2800000000
0!
#2805000000
1!
b100001100 5
#2810000000
0!
#2815000000
1!
b100001101 5
#2820000000
0!
#2825000000
1!
b100001110 5
#2830000000
0!
#2835000000
1!
b100001111 5
#2840000000
0!
#2845000000
1!
b100010000 5
#2850000000
0!
#2855000000
1!
b100010001 5
#2860000000
0!
#2865000000
1!
b100010010 5
#2870000000
0!
#2875000000
1!
b100010011 5
#2880000000
0!
#2885000000
1!
b100010100 5
#2890000000
0!
#2895000000
1!
b100010101 5
#2900000000
0!
#2905000000
1!
b100010110 5
#2910000000
0!
#2915000000
1!
b100010111 5
#2920000000
0!
#2925000000
1!
b100011000 5
#2930000000
0!
#2935000000
1!
b100011001 5
#2940000000
0!
#2945000000
1!
b100011010 5
#2950000000
0!
#2955000000
1!
b100011011 5
#2960000000
0!
#2965000000
1!
b100011100 5
#2970000000
0!
#2975000000
1!
b100011101 5
#2980000000
0!
#2985000000
1!
b100011110 5
#2990000000
0!
#2995000000
1!
b100011111 5
#3000000000
0!
#3005000000
1!
b100100000 5
#3010000000
0!
#3015000000
1!
b100100001 5
#3020000000
0!
#3025000000
1!
b100100010 5
#3030000000
0!
#3035000000
1!
b100100011 5
#3040000000
0!
#3045000000
1!
b100100100 5
#3050000000
0!
#3055000000
1!
b100100101 5
#3060000000
0!
#3065000000
1!
b100100110 5
#3070000000
0!
#3075000000
1!
b100100111 5
#3080000000
0!
#3085000000
1!
b100101000 5
#3090000000
0!
#3095000000
1!
b100101001 5
#3100000000
0!
#3105000000
1!
b100101010 5
#3110000000
0!
#3115000000
1!
b100101011 5
#3120000000
0!
#3125000000
1!
b100101100 5
#3130000000
0!
#3135000000
1!
b100101101 5
#3140000000
0!
#3145000000
1!
b100101110 5
#3150000000
0!
#3155000000
1!
b100101111 5
#3160000000
0!
#3165000000
1!
b100110000 5
#3170000000
0!
#3175000000
1!
b100110001 5
#3180000000
0!
#3185000000
1!
b100110010 5
#3190000000
0!
#3195000000
1!
b100110011 5
#3200000000
0!
#3205000000
1!
b100110100 5
#3210000000
0!
#3215000000
1!
b100110101 5
#3220000000
0!
#3225000000
1!
b100110110 5
#3230000000
0!
#3235000000
1!
b100110111 5
#3240000000
0!
#3245000000
1!
b100111000 5
#3250000000
0!
#3255000000
1!
b100111001 5
#3260000000
0!
#3265000000
1!
b100111010 5
#3270000000
0!
#3275000000
1!
b100111011 5
#3280000000
0!
#3285000000
1!
b100111100 5
#3290000000
0!
#3295000000
1!
b100111101 5
#3300000000
0!
#3305000000
1!
b100111110 5
#3310000000
0!
#3315000000
1!
b100111111 5
#3320000000
0!
#3325000000
1!
b101000000 5
#3330000000
0!
#3335000000
1!
b101000001 5
#3340000000
0!
#3345000000
1!
b101000010 5
#3350000000
0!
#3355000000
1!
b101000011 5
#3360000000
0!
#3365000000
1!
b101000100 5
#3370000000
0!
#3375000000
1!
b101000101 5
#3380000000
0!
#3385000000
1!
b101000110 5
#3390000000
0!
#3395000000
1!
b101000111 5
#3400000000
0!
#3405000000
1!
b101001000 5
#3410000000
0!
#3415000000
1!
b101001001 5
#3420000000
0!
#3425000000
1!
b101001010 5
#3430000000
0!
#3435000000
1!
b101001011 5
#3440000000
0!
#3445000000
1!
b101001100 5
#3450000000
0!
#3455000000
1!
b101001101 5
#3460000000
0!
#3465000000
1!
b101001110 5
#3470000000
0!
#3475000000
1!
b101001111 5
#3480000000
0!
#3485000000
1!
b101010000 5
#3490000000
0!
#3495000000
1!
b101010001 5
#3500000000
0!
#3505000000
1!
b101010010 5
#3510000000
0!
#3515000000
1!
b101010011 5
#3520000000
0!
#3525000000
1!
b101010100 5
#3530000000
0!
#3535000000
1!
b101010101 5
#3540000000
0!
#3545000000
1!
b101010110 5
#3550000000
0!
#3555000000
1!
b101010111 5
#3560000000
0!
#3565000000
1!
b101011000 5
#3570000000
0!
#3575000000
1!
b101011001 5
#3580000000
0!
#3585000000
1!
b101011010 5
#3590000000
0!
#3595000000
1!
b101011011 5
#3600000000
0!
#3605000000
1!
b101011100 5
#3610000000
0!
#3615000000
1!
b101011101 5
#3620000000
0!
#3625000000
1!
b101011110 5
#3630000000
0!
#3635000000
1!
b101011111 5
#3640000000
0!
#3645000000
1!
b101100000 5
#3650000000
0!
#3655000000
1!
b101100001 5
#3660000000
0!
#3665000000
1!
b101100010 5
#3670000000
0!
#3675000000
1!
b101100011 5
#3680000000
0!
#3685000000
1!
b101100100 5
#3690000000
0!
#3695000000
1!
b101100101 5
#3700000000
0!
#3705000000
1!
b101100110 5
#3710000000
0!
#3715000000
1!
b101100111 5
#3720000000
0!
#3725000000
1!
b101101000 5
#3730000000
0!
#3735000000
1!
b101101001 5
#3740000000
0!
#3745000000
1!
b101101010 5
#3750000000
0!
#3755000000
1!
b101101011 5
#3760000000
0!
#3765000000
1!
b101101100 5
#3770000000
0!
#3775000000
1!
b101101101 5
#3780000000
0!
#3785000000
1!
b101101110 5
#3790000000
0!
#3795000000
1!
b101101111 5
#3800000000
0!
#3805000000
1!
b101110000 5
#3810000000
0!
#3815000000
1!
b101110001 5
#3820000000
0!
#3825000000
1!
b101110010 5
#3830000000
0!
#3835000000
1!
b101110011 5
#3840000000
0!
#3845000000
1!
b101110100 5
#3850000000
0!
#3855000000
1!
b101110101 5
#3860000000
0!
#3865000000
1!
b101110110 5
#3870000000
0!
#3875000000
1!
b101110111 5
#3880000000
0!
#3885000000
1!
b101111000 5
#3890000000
0!
#3895000000
1!
b101111001 5
#3900000000
0!
#3905000000
1!
b101111010 5
#3910000000
0!
#3915000000
1!
b101111011 5
#3920000000
0!
#3925000000
1!
b101111100 5
#3930000000
0!
#3935000000
1!
b101111101 5
#3940000000
0!
#3945000000
1!
b101111110 5
#3950000000
0!
#3955000000
1!
b101111111 5
#3960000000
0!
#3965000000
1!
b110000000 5
#3970000000
0!
#3975000000
1!
b110000001 5
#3980000000
0!
#3985000000
1!
b110000010 5
#3990000000
0!
#3995000000
1!
b110000011 5
#4000000000
0!
#4005000000
1!
b110000100 5
#4010000000
0!
#4015000000
1!
b110000101 5
#4020000000
0!
#4025000000
1!
b110000110 5
#4030000000
0!
#4035000000
1!
b110000111 5
#4040000000
0!
#4045000000
1!
b110001000 5
#4050000000
0!
#4055000000
1!
b110001001 5
#4060000000
0!
#4065000000
1!
b110001010 5
#4070000000
0!
#4075000000
1!
b110001011 5
#4080000000
0!
#4085000000
1!
b110001100 5
#4090000000
0!
#4095000000
1!
b110001101 5
#4100000000
0!
#4105000000
1!
b110001110 5
#4110000000
0!
#4115000000
1!
b110001111 5
#4120000000
0!
#4125000000
1!
b110010000 5
#4130000000
0!
#4135000000
1!
b110010001 5
#4140000000
0!
#4145000000
1!
b110010010 5
#4150000000
0!
#4155000000
1!
b110010011 5
#4160000000
0!
#4165000000
1!
b110010100 5
#4170000000
0!
#4175000000
1!
b110010101 5
#4180000000
0!
#4185000000
1!
b110010110 5
#4190000000
0!
#4195000000
1!
b110010111 5
#4200000000
0!
#4205000000
1!
b110011000 5
#4210000000
0!
#4215000000
1!
b110011001 5
#4220000000
0!
#4225000000
1!
b110011010 5
#4230000000
0!
#4235000000
1!
b110011011 5
#4240000000
0!
#4245000000
1!
b110011100 5
#4250000000
0!
#4255000000
1!
b110011101 5
#4260000000
0!
#4265000000
1!
b110011110 5
#4270000000
0!
#4275000000
1!
b110011111 5
#4280000000
0!
#4285000000
1!
b110100000 5
#4290000000
0!
#4295000000
1!
b110100001 5
#4300000000
0!
#4305000000
1!
b110100010 5
#4310000000
0!
#4315000000
1!
b110100011 5
#4320000000
0!
#4325000000
1!
b110100100 5
#4330000000
0!
#4335000000
1!
b110100101 5
#4340000000
0!
#4345000000
1!
b110100110 5
#4350000000
0!
#4355000000
1!
b110100111 5
#4360000000
0!
#4365000000
1!
b110101000 5
#4370000000
0!
#4375000000
1!
b110101001 5
#4380000000
0!
#4385000000
1!
b110101010 5
#4390000000
0!
#4395000000
1!
b110101011 5
#4400000000
0!
#4405000000
1!
b110101100 5
#4410000000
0!
#4415000000
1!
b110101101 5
#4420000000
0!
#4425000000
1!
b110101110 5
#4430000000
0!
#4435000000
1!
b110101111 5
#4440000000
0!
#4445000000
1!
b110110000 5
#4450000000
0!
#4455000000
1!
b110110001 5
#4460000000
0!
#4465000000
1!
b110110010 5
#4470000000
0!
#4475000000
1!
b110110011 5
#4480000000
0!
#4485000000
1!
b110110100 5
#4490000000
0!
#4495000000
1!
b110110101 5
#4500000000
0!
#4505000000
1!
b110110110 5
#4510000000
0!
#4515000000
1!
b110110111 5
#4520000000
0!
#4525000000
1!
b110111000 5
#4530000000
0!
#4535000000
1!
b110111001 5
#4540000000
0!
#4545000000
1!
b110111010 5
#4550000000
0!
#4555000000
1!
b110111011 5
#4560000000
0!
#4565000000
1!
b110111100 5
#4570000000
0!
#4575000000
1!
b110111101 5
#4580000000
0!
#4585000000
1!
b110111110 5
#4590000000
0!
#4595000000
1!
b110111111 5
#4600000000
0!
#4605000000
1!
b111000000 5
#4610000000
0!
#4615000000
1!
b111000001 5
#4620000000
0!
#4625000000
1!
b111000010 5
#4630000000
0!
#4635000000
1!
b111000011 5
#4640000000
0!
#4645000000
1!
b111000100 5
#4650000000
0!
#4655000000
1!
b111000101 5
#4660000000
0!
#4665000000
1!
b111000110 5
#4670000000
0!
#4675000000
1!
b111000111 5
#4680000000
0!
#4685000000
1!
b111001000 5
#4690000000
0!
#4695000000
1!
b111001001 5
#4700000000
0!
#4705000000
1!
b111001010 5
#4710000000
0!
#4715000000
1!
b111001011 5
#4720000000
0!
#4725000000
1!
b111001100 5
#4730000000
0!
#4735000000
1!
b111001101 5
#4740000000
0!
#4745000000
1!
b111001110 5
#4750000000
0!
#4755000000
1!
b111001111 5
#4760000000
0!
#4765000000
1!
b111010000 5
#4770000000
0!
#4775000000
1!
b111010001 5
#4780000000
0!
#4785000000
1!
b111010010 5
#4790000000
0!
#4795000000
1!
b111010011 5
#4800000000
0!
#4805000000
1!
b111010100 5
#4810000000
0!
#4815000000
1!
b111010101 5
#4820000000
0!
#4825000000
1!
b111010110 5
#4830000000
0!
#4835000000
1!
b111010111 5
#4840000000
0!
#4845000000
1!
b111011000 5
#4850000000
0!
#4855000000
1!
b111011001 5
#4860000000
0!
#4865000000
1!
b111011010 5
#4870000000
0!
#4875000000
1!
b111011011 5
#4880000000
0!
#4885000000
1!
b111011100 5
#4890000000
0!
