global_timers_test.vcd
$comment Generated by Amaranth $end
$date 2024-12-06 23:27:23.254321 $end
$timescale 1 fs $end
$scope module bench $end
$scope module top $end
$var wire 1 ! sync_25_clk $end
$var wire 1 " sync_25_rst $end
$var wire 1 # trigger $end
$var wire 16 $ current_count_0 $end
$var wire 16 % reset_count_0 $end
$var wire 16 & current_count_1 $end
$var wire 16 ' reset_count_1 $end
$var wire 16 ( current_count_2 $end
$var wire 16 ) reset_count_2 $end
$var wire 16 * current_count_3 $end
$var wire 16 + reset_count_3 $end
$var wire 16 , current_count_4 $end
$var wire 16 - reset_count_4 $end
$var wire 16 . current_count_5 $end
$var wire 16 / reset_count_5 $end
$var wire 16 0 current_count_6 $end
$var wire 16 1 reset_count_6 $end
$var wire 16 2 current_count_7 $end
$var wire 16 3 reset_count_7 $end
$var wire 8 4 timer_pulse $end
$upscope $end
$upscope $end
$enddefinitions $end
#0
$dumpvars
0!
0"
0#
b0 $
b1010 %
b0 &
b1010 '
b0 (
b1010 )
b0 *
b1010 +
b0 ,
b1010 -
b0 .
b1010 /
b0 0
b1010 1
b0 2
b1010 3
b0 4
$end
#20000000
1!
#40000000
0!
#60000000
1!
#80000000
0!
#100000000
1!
#120000000
0!
#140000000
1!
#160000000
0!
#180000000
1!
#200000000
0!
#220000000
1!
#240000000
0!
#260000000
1!
#280000000
0!
#300000000
1!
#320000000
0!
#340000000
1!
#360000000
0!
#380000000
1!
1#
#400000000
0!
#420000000
1!
b1010 $
0#
#440000000
0!
#460000000
1!
b1001 $
#480000000
0!
#500000000
1!
b1000 $
#520000000
0!
#540000000
1!
b111 $
#560000000
0!
#580000000
1!
b110 $
#600000000
0!
#620000000
1!
b101 $
#640000000
0!
#660000000
1!
b100 $
#680000000
0!
#700000000
1!
b11 $
#720000000
0!
#740000000
1!
b10 $
#760000000
0!
#780000000
1!
b1 $
b1 4
#800000000
0!
#820000000
1!
b1010 &
b0 $
b0 4
#840000000
0!
#860000000
1!
b1001 &
#880000000
0!
#900000000
1!
b1000 &
#920000000
0!
#940000000
1!
b111 &
#960000000
0!
#980000000
1!
b110 &
#1000000000
0!
#1020000000
1!
b101 &
#1040000000
0!
#1060000000
1!
b100 &
#1080000000
0!
#1100000000
1!
b11 &
#1120000000
0!
#1140000000
1!
b10 &
#1160000000
0!
#1180000000
1!
b1 &
b10 4
#1200000000
0!
#1220000000
1!
b0 &
b1010 (
b0 4
#1240000000
0!
#1260000000
1!
b1001 (
#1280000000
0!
#1300000000
1!
b1000 (
#1320000000
0!
#1340000000
1!
b111 (
#1360000000
0!
#1380000000
1!
b110 (
#1400000000
0!
#1420000000
1!
b101 (
#1440000000
0!
#1460000000
1!
b100 (
#1480000000
0!
#1500000000
1!
b11 (
#1520000000
0!
#1540000000
1!
b10 (
#1560000000
0!
#1580000000
1!
b1 (
b100 4
#1600000000
0!
#1620000000
1!
b0 (
b1010 *
b0 4
#1640000000
0!
#1660000000
1!
b1001 *
#1680000000
0!
#1700000000
1!
b1000 *
#1720000000
0!
#1740000000
1!
b111 *
#1760000000
0!
#1780000000
1!
b110 *
#1800000000
0!
#1820000000
1!
b101 *
#1840000000
0!
#1860000000
1!
b100 *
#1880000000
0!
#1900000000
1!
b11 *
#1920000000
0!
#1940000000
1!
b10 *
#1960000000
0!
#1980000000
1!
b1 *
b1000 4
#2000000000
0!
#2020000000
1!
b0 *
b1010 ,
b0 4
#2040000000
0!
#2060000000
1!
b1001 ,
#2080000000
0!
#2100000000
1!
b1000 ,
#2120000000
0!
#2140000000
1!
b111 ,
#2160000000
0!
#2180000000
1!
b110 ,
#2200000000
0!
#2220000000
1!
b101 ,
#2240000000
0!
#2260000000
1!
b100 ,
#2280000000
0!
#2300000000
1!
b11 ,
#2320000000
0!
#2340000000
1!
b10 ,
#2360000000
0!
#2380000000
1!
b1 ,
b10000 4
#2400000000
0!
#2420000000
1!
b1010 .
b0 ,
b0 4
#2440000000
0!
#2460000000
1!
b1001 .
#2480000000
0!
#2500000000
1!
b1000 .
#2520000000
0!
#2540000000
1!
b111 .
#2560000000
0!
#2580000000
1!
b110 .
#2600000000
0!
#2620000000
1!
b101 .
#2640000000
0!
#2660000000
1!
b100 .
#2680000000
0!
#2700000000
1!
b11 .
#2720000000
0!
#2740000000
1!
b10 .
#2760000000
0!
#2780000000
1!
b1 .
b100000 4
#2800000000
0!
#2820000000
1!
b0 .
b1010 0
b0 4
#2840000000
0!
#2860000000
1!
b1001 0
#2880000000
0!
#2900000000
1!
b1000 0
#2920000000
0!
#2940000000
1!
b111 0
#2960000000
0!
#2980000000
1!
b110 0
#3000000000
0!
#3020000000
1!
b101 0
#3040000000
0!
#3060000000
1!
b100 0
#3080000000
0!
#3100000000
1!
b11 0
#3120000000
0!
#3140000000
1!
b10 0
#3160000000
0!
#3180000000
1!
b1 0
b1000000 4
#3200000000
0!
#3220000000
1!
b1010 2
b0 0
b0 4
#3240000000
0!
#3260000000
1!
b1001 2
#3280000000
0!
#3300000000
1!
b1000 2
#3320000000
0!
#3340000000
1!
b111 2
#3360000000
0!
#3380000000
1!
b110 2
#3400000000
0!
#3420000000
1!
b101 2
#3440000000
0!
#3460000000
1!
b100 2
#3480000000
0!
#3500000000
1!
b11 2
#3520000000
0!
#3540000000
1!
b10 2
#3560000000
0!
#3580000000
1!
b1 2
b10000000 4
#3600000000
0!
#3620000000
1!
b0 2
b0 4
