i2c.vcd
$comment Generated by Amaranth $end
$date 2023-12-26 18:31:33.217862 $end
$timescale 1 ps $end
$scope module bench $end
$scope module top $end
$var wire 1 ! clk $end
$var wire 1 " rst $end
$var wire 1 # sdaOut $end
$var wire 1 $ drvSda $end
$var wire 5 % currentBit $end
$var wire 6 & timer $end
$var wire 3 ' state $end
$var wire 1 ( start $end
$var wire 1 ) scl $end
$var wire 1 * sendSource $end
$var wire 8 + address $end
$var wire 8 , data $end
$var wire 1 - ackBit $end
$var wire 1 . sdaIn $end
$upscope $end
$upscope $end
$enddefinitions $end
#0
$dumpvars
0!
0"
1#
0$
b0 %
b0 &
b0 '
0(
1)
0*
b0 +
b0 ,
0-
1.
$end
#50000
b1011 ,
1!
0.
b1010 +
#100000
0!
#150000
1(
1!
#200000
0!
#250000
0(
0#
b1 '
1!
1$
b110 &
#300000
0!
#350000
1!
b101 &
#400000
0!
#450000
1!
b100 &
#500000
0!
#550000
1!
b11 &
#600000
0!
#650000
1!
b10 &
#700000
0!
#750000
1!
b1 &
#800000
0!
#850000
1!
b0 &
#900000
0!
#950000
b10 '
1!
0)
b110 &
#1000000
0!
#1050000
1!
b101 &
#1100000
0!
#1150000
1!
b100 &
#1200000
0!
#1250000
1!
b11 &
#1300000
0!
#1350000
1!
b10 &
#1400000
0!
#1450000
1!
b1 &
#1500000
0!
#1550000
1!
b0 &
#1600000
0!
#1650000
b11 '
1!
b1100 &
#1700000
0!
#1750000
1!
b1011 &
#1800000
0!
#1850000
1!
b1010 &
#1900000
0!
#1950000
1!
b1001 &
#2000000
0!
#2050000
1!
b1000 &
#2100000
0!
#2150000
1!
b111 &
#2200000
0!
#2250000
1!
b110 &
#2300000
0!
#2350000
1!
b101 &
#2400000
0!
#2450000
1!
b100 &
#2500000
0!
#2550000
1!
b11 &
#2600000
0!
#2650000
1!
b10 &
#2700000
0!
#2750000
1!
b1 &
#2800000
0!
#2850000
1!
b0 &
#2900000
0!
#2950000
1!
b1 %
b11001 &
#3000000
0!
#3050000
1!
b11000 &
#3100000
0!
#3150000
1!
b10111 &
#3200000
0!
#3250000
1!
b10110 &
#3300000
0!
#3350000
1!
b10101 &
#3400000
0!
#3450000
1!
b10100 &
#3500000
0!
#3550000
1!
b10011 &
#3600000
0!
#3650000
1!
b10010 &
#3700000
0!
#3750000
1!
1)
b10001 &
#3800000
0!
#3850000
1!
b10000 &
#3900000
0!
#3950000
1!
b1111 &
#4000000
0!
#4050000
1!
b1110 &
#4100000
0!
#4150000
1!
b1101 &
#4200000
0!
#4250000
1!
b1100 &
#4300000
0!
#4350000
1!
b1011 &
#4400000
0!
#4450000
1!
b1010 &
#4500000
0!
#4550000
1!
b1001 &
#4600000
0!
#4650000
1!
b1000 &
#4700000
0!
#4750000
1!
b111 &
#4800000
0!
#4850000
1!
b110 &
#4900000
0!
#4950000
1!
0)
b101 &
#5000000
0!
#5050000
1!
b100 &
#5100000
0!
#5150000
1!
b11 &
#5200000
0!
#5250000
1!
b10 &
#5300000
0!
#5350000
1!
b1 &
#5400000
0!
#5450000
1!
b0 &
#5500000
0!
#5550000
1!
b10 %
b11001 &
1#
#5600000
0!
#5650000
1!
b11000 &
#5700000
0!
#5750000
1!
b10111 &
#5800000
0!
#5850000
1!
b10110 &
#5900000
0!
#5950000
1!
b10101 &
#6000000
0!
#6050000
1!
b10100 &
#6100000
0!
#6150000
1!
b10011 &
#6200000
0!
#6250000
1!
b10010 &
#6300000
0!
#6350000
1!
1)
b10001 &
#6400000
0!
#6450000
1!
b10000 &
#6500000
0!
#6550000
1!
b1111 &
#6600000
0!
#6650000
1!
b1110 &
#6700000
0!
#6750000
1!
b1101 &
#6800000
0!
#6850000
1!
b1100 &
#6900000
0!
#6950000
1!
b1011 &
#7000000
0!
#7050000
1!
b1010 &
#7100000
0!
#7150000
1!
b1001 &
#7200000
0!
#7250000
1!
b1000 &
#7300000
0!
#7350000
1!
b111 &
#7400000
0!
#7450000
1!
b110 &
#7500000
0!
#7550000
1!
0)
b101 &
#7600000
0!
#7650000
1!
b100 &
#7700000
0!
#7750000
1!
b11 &
#7800000
0!
#7850000
1!
b10 &
#7900000
0!
#7950000
1!
b1 &
#8000000
0!
#8050000
1!
b0 &
#8100000
0!
#8150000
1!
b11 %
b11001 &
0#
#8200000
0!
#8250000
1!
b11000 &
#8300000
0!
#8350000
1!
b10111 &
#8400000
0!
#8450000
1!
b10110 &
#8500000
0!
#8550000
1!
b10101 &
#8600000
0!
#8650000
1!
b10100 &
#8700000
0!
#8750000
1!
b10011 &
#8800000
0!
#8850000
1!
b10010 &
#8900000
0!
#8950000
1!
1)
b10001 &
#9000000
0!
#9050000
1!
b10000 &
#9100000
0!
#9150000
1!
b1111 &
#9200000
0!
#9250000
1!
b1110 &
#9300000
0!
#9350000
1!
b1101 &
#9400000
0!
#9450000
1!
b1100 &
#9500000
0!
#9550000
1!
b1011 &
#9600000
0!
#9650000
1!
b1010 &
#9700000
0!
#9750000
1!
b1001 &
#9800000
0!
#9850000
1!
b1000 &
#9900000
0!
#9950000
1!
b111 &
#10000000
0!
#10050000
1!
b110 &
#10100000
0!
#10150000
1!
0)
b101 &
#10200000
0!
#10250000
1!
b100 &
#10300000
0!
#10350000
1!
b11 &
#10400000
0!
#10450000
1!
b10 &
#10500000
0!
#10550000
1!
b1 &
#10600000
0!
#10650000
1!
b0 &
#10700000
0!
#10750000
1!
b100 %
b11001 &
1#
#10800000
0!
#10850000
1!
b11000 &
#10900000
0!
#10950000
1!
b10111 &
#11000000
0!
#11050000
1!
b10110 &
#11100000
0!
#11150000
1!
b10101 &
#11200000
0!
#11250000
1!
b10100 &
#11300000
0!
#11350000
1!
b10011 &
#11400000
0!
#11450000
1!
b10010 &
#11500000
0!
#11550000
1!
1)
b10001 &
#11600000
0!
#11650000
1!
b10000 &
#11700000
0!
#11750000
1!
b1111 &
#11800000
0!
#11850000
1!
b1110 &
#11900000
0!
#11950000
1!
b1101 &
#12000000
0!
#12050000
1!
b1100 &
#12100000
0!
#12150000
1!
b1011 &
#12200000
0!
#12250000
1!
b1010 &
#12300000
0!
#12350000
1!
b1001 &
#12400000
0!
#12450000
1!
b1000 &
#12500000
0!
#12550000
1!
b111 &
#12600000
0!
#12650000
1!
b110 &
#12700000
0!
#12750000
1!
0)
b101 &
#12800000
0!
#12850000
1!
b100 &
#12900000
0!
#12950000
1!
b11 &
#13000000
0!
#13050000
1!
b10 &
#13100000
0!
#13150000
1!
b1 &
#13200000
0!
#13250000
1!
b0 &
#13300000
0!
#13350000
1!
b101 %
b11001 &
0#
#13400000
0!
#13450000
1!
b11000 &
#13500000
0!
#13550000
1!
b10111 &
#13600000
0!
#13650000
1!
b10110 &
#13700000
0!
#13750000
1!
b10101 &
#13800000
0!
#13850000
1!
b10100 &
#13900000
0!
#13950000
1!
b10011 &
#14000000
0!
#14050000
1!
b10010 &
#14100000
0!
#14150000
1!
1)
b10001 &
#14200000
0!
#14250000
1!
b10000 &
#14300000
0!
#14350000
1!
b1111 &
#14400000
0!
#14450000
1!
b1110 &
#14500000
0!
#14550000
1!
b1101 &
#14600000
0!
#14650000
1!
b1100 &
#14700000
0!
#14750000
1!
b1011 &
#14800000
0!
#14850000
1!
b1010 &
#14900000
0!
#14950000
1!
b1001 &
#15000000
0!
#15050000
1!
b1000 &
#15100000
0!
#15150000
1!
b111 &
#15200000
0!
#15250000
1!
b110 &
#15300000
0!
#15350000
1!
0)
b101 &
#15400000
0!
#15450000
1!
b100 &
#15500000
0!
#15550000
1!
b11 &
#15600000
0!
#15650000
1!
b10 &
#15700000
0!
#15750000
1!
b1 &
#15800000
0!
#15850000
1!
b0 &
#15900000
0!
#15950000
1!
b110 %
b11001 &
#16000000
0!
#16050000
1!
b11000 &
#16100000
0!
#16150000
1!
b10111 &
#16200000
0!
#16250000
1!
b10110 &
#16300000
0!
#16350000
1!
b10101 &
#16400000
0!
#16450000
1!
b10100 &
#16500000
0!
#16550000
1!
b10011 &
#16600000
0!
#16650000
1!
b10010 &
#16700000
0!
#16750000
1!
1)
b10001 &
#16800000
0!
#16850000
1!
b10000 &
#16900000
0!
#16950000
1!
b1111 &
#17000000
0!
#17050000
1!
b1110 &
#17100000
0!
#17150000
1!
b1101 &
#17200000
0!
#17250000
1!
b1100 &
#17300000
0!
#17350000
1!
b1011 &
#17400000
0!
#17450000
1!
b1010 &
#17500000
0!
#17550000
1!
b1001 &
#17600000
0!
#17650000
1!
b1000 &
#17700000
0!
#17750000
1!
b111 &
#17800000
0!
#17850000
1!
b110 &
#17900000
0!
#17950000
1!
0)
b101 &
#18000000
0!
#18050000
1!
b100 &
#18100000
0!
#18150000
1!
b11 &
#18200000
0!
#18250000
1!
b10 &
#18300000
0!
#18350000
1!
b1 &
#18400000
0!
#18450000
1!
b0 &
#18500000
0!
#18550000
1!
b111 %
b11001 &
#18600000
0!
#18650000
1!
b11000 &
#18700000
0!
#18750000
1!
b10111 &
#18800000
0!
#18850000
1!
b10110 &
#18900000
0!
#18950000
1!
b10101 &
#19000000
0!
#19050000
1!
b10100 &
#19100000
0!
#19150000
1!
b10011 &
#19200000
0!
#19250000
1!
b10010 &
#19300000
0!
#19350000
1!
1)
b10001 &
#19400000
0!
#19450000
1!
b10000 &
#19500000
0!
#19550000
1!
b1111 &
#19600000
0!
#19650000
1!
b1110 &
#19700000
0!
#19750000
1!
b1101 &
#19800000
0!
#19850000
1!
b1100 &
#19900000
0!
#19950000
1!
b1011 &
#20000000
0!
#20050000
1!
b1010 &
#20100000
0!
#20150000
1!
b1001 &
#20200000
0!
#20250000
1!
b1000 &
#20300000
0!
#20350000
1!
b111 &
#20400000
0!
#20450000
1!
b110 &
#20500000
0!
#20550000
1!
0)
b101 &
#20600000
0!
#20650000
1!
b100 &
#20700000
0!
#20750000
1!
b11 &
#20800000
0!
#20850000
1!
b10 &
#20900000
0!
#20950000
1!
b1 &
#21000000
0!
#21050000
1!
b0 &
#21100000
0!
#21150000
1!
b1000 %
b11001 &
#21200000
0!
#21250000
1!
b11000 &
#21300000
0!
#21350000
1!
b10111 &
#21400000
0!
#21450000
1!
b10110 &
#21500000
0!
#21550000
1!
b10101 &
#21600000
0!
#21650000
1!
b10100 &
#21700000
0!
#21750000
1!
b10011 &
#21800000
0!
#21850000
1!
b10010 &
#21900000
0!
#21950000
1!
1)
b10001 &
#22000000
0!
#22050000
1!
b10000 &
#22100000
0!
#22150000
1!
b1111 &
#22200000
0!
#22250000
1!
b1110 &
#22300000
0!
#22350000
1!
b1101 &
#22400000
0!
#22450000
1!
b1100 &
#22500000
0!
#22550000
1!
b1011 &
#22600000
0!
#22650000
1!
b1010 &
#22700000
0!
#22750000
1!
b1001 &
#22800000
0!
#22850000
1!
b1000 &
#22900000
0!
#22950000
1!
b111 &
#23000000
0!
#23050000
1!
b110 &
#23100000
0!
#23150000
1!
0)
b101 &
#23200000
0!
#23250000
1!
b100 &
#23300000
0!
#23350000
1!
b11 &
#23400000
0!
#23450000
1!
b10 &
#23500000
0!
#23550000
1!
b1 &
#23600000
0!
#23650000
1!
b0 &
#23700000
0!
#23750000
b100 '
1!
0$
b11001 &
#23800000
0!
#23850000
1!
b11000 &
#23900000
0!
#23950000
1!
b10111 &
#24000000
0!
#24050000
1!
b10110 &
#24100000
0!
#24150000
1!
b10101 &
#24200000
0!
#24250000
1!
b10100 &
#24300000
0!
#24350000
1!
b10011 &
#24400000
0!
#24450000
1!
b10010 &
#24500000
0!
#24550000
1!
1)
b10001 &
#24600000
0!
#24650000
1!
b10000 &
#24700000
0!
#24750000
1!
b1111 &
#24800000
0!
#24850000
1!
b1110 &
#24900000
0!
#24950000
1!
b1101 &
#25000000
0!
#25050000
1!
b1100 &
#25100000
0!
#25150000
1!
b1011 &
#25200000
0!
#25250000
1!
b1010 &
#25300000
0!
#25350000
1!
b1001 &
#25400000
0!
#25450000
1!
b1000 &
#25500000
0!
#25550000
1!
b111 &
#25600000
0!
#25650000
1!
b110 &
#25700000
0!
#25750000
1!
0)
b101 &
#25800000
0!
#25850000
1!
b100 &
#25900000
0!
#25950000
1!
b11 &
#26000000
0!
#26050000
1!
b10 &
#26100000
0!
#26150000
1!
b1 &
#26200000
0!
#26250000
1!
b0 &
#26300000
0!
#26350000
b0 %
b11 '
1!
1*
b11001 &
#26400000
0!
#26450000
1!
b11000 &
#26500000
0!
#26550000
1!
b10111 &
#26600000
0!
#26650000
1!
b10110 &
#26700000
0!
#26750000
1!
b10101 &
#26800000
0!
#26850000
1!
b10100 &
#26900000
0!
#26950000
1!
b10011 &
#27000000
0!
#27050000
1!
b10010 &
#27100000
0!
#27150000
1!
1)
b10001 &
#27200000
0!
#27250000
1!
b10000 &
#27300000
0!
#27350000
1!
b1111 &
#27400000
0!
#27450000
1!
b1110 &
#27500000
0!
#27550000
1!
b1101 &
#27600000
0!
#27650000
1!
b1100 &
#27700000
0!
#27750000
1!
b1011 &
#27800000
0!
#27850000
1!
b1010 &
#27900000
0!
#27950000
1!
b1001 &
#28000000
0!
#28050000
1!
b1000 &
#28100000
0!
#28150000
1!
b111 &
#28200000
0!
#28250000
1!
b110 &
#28300000
0!
#28350000
1!
0)
b101 &
#28400000
0!
#28450000
1!
b100 &
#28500000
0!
#28550000
1!
b11 &
#28600000
0!
#28650000
1!
b10 &
#28700000
0!
#28750000
1!
b1 &
#28800000
0!
#28850000
1!
b0 &
#28900000
0!
#28950000
1!
b1 %
b11001 &
1#
#29000000
0!
#29050000
1!
b11000 &
#29100000
0!
#29150000
1!
b10111 &
#29200000
0!
#29250000
1!
b10110 &
#29300000
0!
#29350000
1!
b10101 &
#29400000
0!
#29450000
1!
b10100 &
#29500000
0!
#29550000
1!
b10011 &
#29600000
0!
#29650000
1!
b10010 &
#29700000
0!
#29750000
1!
1)
b10001 &
#29800000
0!
#29850000
1!
b10000 &
#29900000
0!
#29950000
1!
b1111 &
#30000000
0!
#30050000
1!
b1110 &
#30100000
0!
#30150000
1!
b1101 &
#30200000
0!
#30250000
1!
b1100 &
#30300000
0!
#30350000
1!
b1011 &
#30400000
0!
#30450000
1!
b1010 &
#30500000
0!
#30550000
1!
b1001 &
#30600000
0!
#30650000
1!
b1000 &
#30700000
0!
#30750000
1!
b111 &
#30800000
0!
#30850000
1!
b110 &
#30900000
0!
#30950000
1!
0)
b101 &
#31000000
0!
#31050000
1!
b100 &
#31100000
0!
#31150000
1!
b11 &
#31200000
0!
#31250000
1!
b10 &
#31300000
0!
#31350000
1!
b1 &
#31400000
0!
#31450000
1!
b0 &
#31500000
0!
#31550000
1!
b10 %
b11001 &
#31600000
0!
#31650000
1!
b11000 &
#31700000
0!
#31750000
1!
b10111 &
#31800000
0!
#31850000
1!
b10110 &
#31900000
0!
#31950000
1!
b10101 &
#32000000
0!
#32050000
1!
b10100 &
#32100000
0!
#32150000
1!
b10011 &
#32200000
0!
#32250000
1!
b10010 &
#32300000
0!
#32350000
1!
1)
b10001 &
#32400000
0!
#32450000
1!
b10000 &
#32500000
0!
#32550000
1!
b1111 &
#32600000
0!
#32650000
1!
b1110 &
#32700000
0!
#32750000
1!
b1101 &
#32800000
0!
#32850000
1!
b1100 &
#32900000
0!
#32950000
1!
b1011 &
#33000000
0!
#33050000
1!
b1010 &
#33100000
0!
#33150000
1!
b1001 &
#33200000
0!
#33250000
1!
b1000 &
#33300000
0!
#33350000
1!
b111 &
#33400000
0!
#33450000
1!
b110 &
#33500000
0!
#33550000
1!
0)
b101 &
#33600000
0!
#33650000
1!
b100 &
#33700000
0!
#33750000
1!
b11 &
#33800000
0!
#33850000
1!
b10 &
#33900000
0!
#33950000
1!
b1 &
#34000000
0!
#34050000
1!
b0 &
#34100000
0!
#34150000
1!
b11 %
b11001 &
0#
#34200000
0!
#34250000
1!
b11000 &
#34300000
0!
#34350000
1!
b10111 &
#34400000
0!
#34450000
1!
b10110 &
#34500000
0!
#34550000
1!
b10101 &
#34600000
0!
#34650000
1!
b10100 &
#34700000
0!
#34750000
1!
b10011 &
#34800000
0!
#34850000
1!
b10010 &
#34900000
0!
#34950000
1!
1)
b10001 &
#35000000
0!
#35050000
1!
b10000 &
#35100000
0!
#35150000
1!
b1111 &
#35200000
0!
#35250000
1!
b1110 &
#35300000
0!
#35350000
1!
b1101 &
#35400000
0!
#35450000
1!
b1100 &
#35500000
0!
#35550000
1!
b1011 &
#35600000
0!
#35650000
1!
b1010 &
#35700000
0!
#35750000
1!
b1001 &
#35800000
0!
#35850000
1!
b1000 &
#35900000
0!
#35950000
1!
b111 &
#36000000
0!
#36050000
1!
b110 &
#36100000
0!
#36150000
1!
0)
b101 &
#36200000
0!
#36250000
1!
b100 &
#36300000
0!
#36350000
1!
b11 &
#36400000
0!
#36450000
1!
b10 &
#36500000
0!
#36550000
1!
b1 &
#36600000
0!
#36650000
1!
b0 &
#36700000
0!
#36750000
1!
b100 %
b11001 &
1#
#36800000
0!
#36850000
1!
b11000 &
#36900000
0!
#36950000
1!
b10111 &
#37000000
0!
#37050000
1!
b10110 &
#37100000
0!
#37150000
1!
b10101 &
#37200000
0!
#37250000
1!
b10100 &
#37300000
0!
#37350000
1!
b10011 &
#37400000
0!
#37450000
1!
b10010 &
#37500000
0!
#37550000
1!
1)
b10001 &
#37600000
0!
#37650000
1!
b10000 &
#37700000
0!
#37750000
1!
b1111 &
#37800000
0!
#37850000
1!
b1110 &
#37900000
0!
#37950000
1!
b1101 &
#38000000
0!
#38050000
1!
b1100 &
#38100000
0!
#38150000
1!
b1011 &
#38200000
0!
#38250000
1!
b1010 &
#38300000
0!
#38350000
1!
b1001 &
#38400000
0!
#38450000
1!
b1000 &
#38500000
0!
#38550000
1!
b111 &
#38600000
0!
#38650000
1!
b110 &
#38700000
0!
#38750000
1!
0)
b101 &
#38800000
0!
#38850000
1!
b100 &
#38900000
0!
#38950000
1!
b11 &
#39000000
0!
#39050000
1!
b10 &
#39100000
0!
#39150000
1!
b1 &
#39200000
0!
#39250000
1!
b0 &
#39300000
0!
#39350000
1!
b101 %
b11001 &
0#
#39400000
0!
#39450000
1!
b11000 &
#39500000
0!
#39550000
1!
b10111 &
#39600000
0!
#39650000
1!
b10110 &
#39700000
0!
#39750000
1!
b10101 &
#39800000
0!
#39850000
1!
b10100 &
#39900000
0!
#39950000
1!
b10011 &
#40000000
0!
#40050000
1!
b10010 &
#40100000
0!
#40150000
1!
1)
b10001 &
#40200000
0!
#40250000
1!
b10000 &
#40300000
0!
#40350000
1!
b1111 &
#40400000
0!
#40450000
1!
b1110 &
#40500000
0!
#40550000
1!
b1101 &
#40600000
0!
#40650000
1!
b1100 &
#40700000
0!
#40750000
1!
b1011 &
#40800000
0!
#40850000
1!
b1010 &
#40900000
0!
#40950000
1!
b1001 &
#41000000
0!
#41050000
1!
b1000 &
#41100000
0!
#41150000
1!
b111 &
#41200000
0!
#41250000
1!
b110 &
#41300000
0!
#41350000
1!
0)
b101 &
#41400000
0!
#41450000
1!
b100 &
#41500000
0!
#41550000
1!
b11 &
#41600000
0!
#41650000
1!
b10 &
#41700000
0!
#41750000
1!
b1 &
#41800000
0!
#41850000
1!
b0 &
#41900000
0!
#41950000
1!
b110 %
b11001 &
#42000000
0!
#42050000
1!
b11000 &
#42100000
0!
#42150000
1!
b10111 &
#42200000
0!
#42250000
1!
b10110 &
#42300000
0!
#42350000
1!
b10101 &
#42400000
0!
#42450000
1!
b10100 &
#42500000
0!
#42550000
1!
b10011 &
#42600000
0!
#42650000
1!
b10010 &
#42700000
0!
#42750000
1!
1)
b10001 &
#42800000
0!
#42850000
1!
b10000 &
#42900000
0!
#42950000
1!
b1111 &
#43000000
0!
#43050000
1!
b1110 &
#43100000
0!
#43150000
1!
b1101 &
#43200000
0!
#43250000
1!
b1100 &
#43300000
0!
#43350000
1!
b1011 &
#43400000
0!
#43450000
1!
b1010 &
#43500000
0!
#43550000
1!
b1001 &
#43600000
0!
#43650000
1!
b1000 &
#43700000
0!
#43750000
1!
b111 &
#43800000
0!
#43850000
1!
b110 &
#43900000
0!
#43950000
1!
0)
b101 &
#44000000
0!
#44050000
1!
b100 &
#44100000
0!
#44150000
1!
b11 &
#44200000
0!
#44250000
1!
b10 &
#44300000
0!
#44350000
1!
b1 &
#44400000
0!
#44450000
1!
b0 &
#44500000
0!
#44550000
1!
b111 %
b11001 &
#44600000
0!
#44650000
1!
b11000 &
#44700000
0!
#44750000
1!
b10111 &
#44800000
0!
#44850000
1!
b10110 &
#44900000
0!
#44950000
1!
b10101 &
#45000000
0!
#45050000
1!
b10100 &
#45100000
0!
#45150000
1!
b10011 &
#45200000
0!
#45250000
1!
b10010 &
#45300000
0!
#45350000
1!
1)
b10001 &
#45400000
0!
#45450000
1!
b10000 &
#45500000
0!
#45550000
1!
b1111 &
#45600000
0!
#45650000
1!
b1110 &
#45700000
0!
#45750000
1!
b1101 &
#45800000
0!
#45850000
1!
b1100 &
#45900000
0!
#45950000
1!
b1011 &
#46000000
0!
#46050000
1!
b1010 &
#46100000
0!
#46150000
1!
b1001 &
#46200000
0!
#46250000
1!
b1000 &
#46300000
0!
#46350000
1!
b111 &
#46400000
0!
#46450000
1!
b110 &
#46500000
0!
#46550000
1!
0)
b101 &
#46600000
0!
#46650000
1!
b100 &
#46700000
0!
#46750000
1!
b11 &
#46800000
0!
#46850000
1!
b10 &
#46900000
0!
#46950000
1!
b1 &
#47000000
0!
#47050000
1!
b0 &
#47100000
0!
#47150000
1!
b1000 %
b11001 &
#47200000
0!
#47250000
1!
b11000 &
#47300000
0!
#47350000
1!
b10111 &
#47400000
0!
#47450000
1!
b10110 &
#47500000
0!
#47550000
1!
b10101 &
#47600000
0!
#47650000
1!
b10100 &
#47700000
0!
#47750000
1!
b10011 &
#47800000
0!
#47850000
1!
b10010 &
#47900000
0!
#47950000
1!
1)
b10001 &
#48000000
0!
#48050000
1!
b10000 &
#48100000
0!
#48150000
1!
b1111 &
#48200000
0!
#48250000
1!
b1110 &
#48300000
0!
#48350000
1!
b1101 &
#48400000
0!
#48450000
1!
b1100 &
#48500000
0!
#48550000
1!
b1011 &
#48600000
0!
#48650000
1!
b1010 &
#48700000
0!
#48750000
1!
b1001 &
#48800000
0!
#48850000
1!
b1000 &
#48900000
0!
#48950000
1!
b111 &
#49000000
0!
#49050000
1!
b110 &
#49100000
0!
#49150000
1!
0)
b101 &
#49200000
0!
#49250000
1!
b100 &
#49300000
0!
#49350000
1!
b11 &
#49400000
0!
#49450000
1!
b10 &
#49500000
0!
#49550000
1!
b1 &
#49600000
0!
#49650000
1!
b0 &
#49700000
0!
#49750000
b100 '
1!
b11001 &
#49800000
0!
#49850000
1!
b11000 &
#49900000
0!
#49950000
1!
b10111 &
#50000000
0!
#50050000
1!
b10110 &
#50100000
0!
#50150000
1!
b10101 &
#50200000
0!
#50250000
1!
b10100 &
#50300000
0!
#50350000
1!
b10011 &
#50400000
0!
#50450000
1!
b10010 &
#50500000
0!
#50550000
1!
1)
b10001 &
#50600000
0!
#50650000
1!
b10000 &
#50700000
0!
#50750000
1!
b1111 &
#50800000
0!
#50850000
1!
b1110 &
#50900000
0!
#50950000
1!
b1101 &
#51000000
0!
#51050000
1!
b1100 &
#51100000
0!
#51150000
1!
b1011 &
#51200000
0!
#51250000
1!
b1010 &
#51300000
0!
#51350000
1!
b1001 &
#51400000
0!
#51450000
1!
b1000 &
#51500000
0!
#51550000
1!
b111 &
#51600000
0!
#51650000
1!
b110 &
#51700000
0!
#51750000
1!
0)
b101 &
#51800000
0!
#51850000
1!
b100 &
#51900000
0!
#51950000
1!
b11 &
#52000000
0!
#52050000
1!
b10 &
#52100000
0!
#52150000
1!
b1 &
#52200000
0!
#52250000
1!
b0 &
#52300000
0!
#52350000
b101 '
1!
b11001 &
#52400000
0!
#52450000
1!
b11000 &
#52500000
0!
#52550000
1!
b10111 &
#52600000
0!
#52650000
1!
b10110 &
#52700000
0!
#52750000
1!
b10101 &
#52800000
0!
#52850000
1!
b10100 &
#52900000
0!
#52950000
1!
b10011 &
#53000000
0!
#53050000
1!
b10010 &
#53100000
0!
#53150000
1!
b10001 &
#53200000
0!
#53250000
1!
b10000 &
#53300000
0!
#53350000
1!
b1111 &
#53400000
0!
#53450000
1!
b1110 &
#53500000
0!
#53550000
1!
b1101 &
#53600000
0!
#53650000
1!
b1100 &
#53700000
0!
#53750000
1!
b1011 &
#53800000
0!
#53850000
1!
b1010 &
#53900000
0!
#53950000
1!
b1001 &
#54000000
0!
#54050000
1!
b1000 &
#54100000
0!
#54150000
1!
b111 &
#54200000
0!
#54250000
1!
b110 &
#54300000
0!
#54350000
1!
b101 &
#54400000
0!
#54450000
1!
b100 &
#54500000
0!
#54550000
1!
b11 &
#54600000
0!
#54650000
1!
b10 &
#54700000
0!
#54750000
1!
b1 &
#54800000
0!
#54850000
1!
b0 &
#54900000
0!
#54950000
b110 '
1!
1)
b110 &
#55000000
0!
#55050000
1!
b101 &
#55100000
0!
#55150000
1!
b100 &
#55200000
0!
#55250000
1!
b11 &
#55300000
0!
#55350000
1!
b10 &
#55400000
0!
#55450000
1!
b1 &
#55500000
0!
#55550000
1!
b0 &
#55600000
0!
#55650000
b0 '
1!
1#
