i2c_test.vcd
$comment Generated by Amaranth $end
$date 2024-11-23 20:11:22.382729 $end
$timescale 1 fs $end
$scope module bench $end
$scope module top $end
$var wire 1 ! sync_25_clk $end
$var wire 1 " sync_25_rst $end
$var wire 5 # counter $end
$var wire 1 $ scl_toggle $end
$var wire 4 % half_counter $end
$var wire 1 & scl_high_sample $end
$var wire 1 ' scl $end
$var wire 1 ( scl_low_sample $end
$var wire 1 ) scl_enable $end
$var string 1 * i2c_fsm_state $end
$var wire 1 + busy $end
$var wire 1 , d_out $end
$var wire 1 - read_next $end
$var wire 1 . start $end
$var wire 1 / error $end
$var wire 3 0 byte_counter $end
$var wire 3 1 bytes_sent $end
$var wire 3 2 bit_counter $end
$var wire 32 3 read_data $end
$var wire 48 4 send_data $end
$var wire 7 5 device_address $end
$var wire 8 6 register_address $end
$var wire 32 7 data_in $end
$var wire 1 8 sda_in $end
$var wire 3 9 byte_count $end
$var wire 1 : read $end
$var wire 32 ; data_out $end
$var wire 1 < sda_out_enable $end
$upscope $end
$upscope $end
$enddefinitions $end
#0
$dumpvars
0!
0"
b0 #
0$
b0 %
0&
0'
0(
0)
sidle/0 *
0+
1,
0-
1.
0/
b0 0
b0 1
b0 2
b0 3
b0 4
b10 5
b11 6
b100 7
08
b1 9
0:
b0 ;
0<
$end
#20000000
1!
1$
b11110 #
sstart/1 *
b1110 %
0.
#40000000
0!
#60000000
1!
b1000000001100000100000000000000000000000000 4
b101 0
b111 2
b11101 #
1+
b1101 %
#80000000
0!
#100000000
1!
b11100 #
b1100 %
#120000000
0!
#140000000
1!
b11011 #
b1011 %
#160000000
0!
#180000000
1!
b11010 #
b1010 %
#200000000
0!
#220000000
1!
b11001 #
b1001 %
#240000000
0!
#260000000
1!
b11000 #
b1000 %
#280000000
0!
#300000000
1!
b10111 #
b111 %
#320000000
0!
#340000000
1!
b10110 #
b110 %
#360000000
0!
#380000000
1!
b10101 #
b101 %
#400000000
0!
#420000000
1!
b10100 #
b100 %
#440000000
0!
#460000000
1!
b10011 #
b11 %
#480000000
0!
#500000000
1!
b10010 #
b10 %
#520000000
0!
#540000000
1!
b10001 #
b1 %
#560000000
0!
#580000000
1!
b10000 #
b0 %
#600000000
0!
#620000000
1!
b1111 #
1(
b1111 %
#640000000
0!
#660000000
1!
b1110 #
0(
b1110 %
#680000000
0!
#700000000
1!
b1101 #
b1101 %
#720000000
0!
#740000000
1!
b1100 #
b1100 %
#760000000
0!
#780000000
1!
b1011 #
b1011 %
#800000000
0!
#820000000
1!
b1010 #
b1010 %
#840000000
0!
#860000000
1!
b1001 #
b1001 %
#880000000
0!
#900000000
1!
b1000 #
b1000 %
#920000000
0!
#940000000
1!
b111 #
b111 %
#960000000
0!
#980000000
1!
b110 #
b110 %
#1000000000
0!
#1020000000
1!
b101 #
b101 %
#1040000000
0!
#1060000000
1!
b100 #
b100 %
#1080000000
0!
#1100000000
1!
b11 #
b11 %
#1120000000
0!
#1140000000
1!
b10 #
b10 %
#1160000000
0!
#1180000000
1!
b1 #
b1 %
#1200000000
0!
#1220000000
1!
b0 #
b0 %
#1240000000
0!
#1260000000
1!
b1110 %
0$
b11110 #
1)
#1280000000
0!
#1300000000
1!
b11101 #
b1101 %
#1320000000
0!
#1340000000
1!
b11100 #
b1100 %
#1360000000
0!
#1380000000
1!
b11011 #
b1011 %
#1400000000
0!
#1420000000
1!
b11010 #
b1010 %
#1440000000
0!
#1460000000
1!
b11001 #
b1001 %
#1480000000
0!
#1500000000
1!
b11000 #
b1000 %
#1520000000
0!
#1540000000
1!
b10111 #
b111 %
#1560000000
0!
#1580000000
1!
b10110 #
b110 %
#1600000000
0!
#1620000000
1!
b10101 #
b101 %
#1640000000
0!
#1660000000
1!
b10100 #
b100 %
#1680000000
0!
#1700000000
1!
b10011 #
b11 %
#1720000000
0!
#1740000000
1!
b10010 #
b10 %
#1760000000
0!
#1780000000
1!
b10001 #
b1 %
#1800000000
0!
#1820000000
1!
b10000 #
b0 %
#1840000000
0!
#1860000000
1!
b1111 #
1(
b1111 %
#1880000000
0!
#1900000000
1!
b1110 #
0(
b1110 %
#1920000000
0!
#1940000000
1!
b1101 #
b1101 %
#1960000000
0!
#1980000000
1!
b1100 #
b1100 %
#2000000000
0!
#2020000000
1!
b1011 #
b1011 %
#2040000000
0!
#2060000000
1!
b1010 #
b1010 %
#2080000000
0!
#2100000000
1!
b1001 #
b1001 %
#2120000000
0!
#2140000000
1!
b1000 #
b1000 %
#2160000000
0!
#2180000000
1!
b111 #
b111 %
#2200000000
0!
#2220000000
1!
b110 #
b110 %
#2240000000
0!
#2260000000
1!
b101 #
b101 %
#2280000000
0!
#2300000000
1!
b100 #
b100 %
#2320000000
0!
#2340000000
1!
b11 #
b11 %
#2360000000
0!
#2380000000
1!
b10 #
b10 %
#2400000000
0!
#2420000000
1!
b1 #
b1 %
#2440000000
0!
#2460000000
1!
b0 #
b0 %
#2480000000
0!
#2500000000
1!
1$
b11110 #
b1110 %
#2520000000
0!
#2540000000
1!
1'
b11101 #
b1101 %
#2560000000
0!
#2580000000
1!
b11100 #
b1100 %
#2600000000
0!
#2620000000
1!
b11011 #
b1011 %
#2640000000
0!
#2660000000
1!
b11010 #
b1010 %
#2680000000
0!
#2700000000
1!
b11001 #
b1001 %
#2720000000
0!
#2740000000
1!
b11000 #
b1000 %
#2760000000
0!
#2780000000
1!
b10111 #
b111 %
#2800000000
0!
#2820000000
1!
b10110 #
b110 %
#2840000000
0!
#2860000000
1!
b10101 #
b101 %
#2880000000
0!
#2900000000
1!
b10100 #
b100 %
#2920000000
0!
#2940000000
1!
b10011 #
b11 %
#2960000000
0!
#2980000000
1!
b10010 #
b10 %
#3000000000
0!
#3020000000
1!
b10001 #
b1 %
#3040000000
0!
#3060000000
1!
b10000 #
b0 %
#3080000000
0!
#3100000000
1!
1&
b1111 #
b1111 %
#3120000000
0!
#3140000000
1!
0&
b1110 #
0,
ssend/2 *
b1110 %
1<
#3160000000
0!
#3180000000
1!
b1101 #
b1101 %
#3200000000
0!
#3220000000
1!
b1100 #
b1100 %
#3240000000
0!
#3260000000
1!
b1011 #
b1011 %
#3280000000
0!
#3300000000
1!
b1010 #
b1010 %
#3320000000
0!
#3340000000
1!
b1001 #
b1001 %
#3360000000
0!
#3380000000
1!
b1000 #
b1000 %
#3400000000
0!
#3420000000
1!
b111 #
b111 %
#3440000000
0!
#3460000000
1!
b110 #
b110 %
#3480000000
0!
#3500000000
1!
b101 #
b101 %
#3520000000
0!
#3540000000
1!
b100 #
b100 %
#3560000000
0!
#3580000000
1!
b11 #
b11 %
#3600000000
0!
#3620000000
1!
b10 #
b10 %
#3640000000
0!
#3660000000
1!
b1 #
b1 %
#3680000000
0!
#3700000000
1!
b0 #
b0 %
#3720000000
0!
#3740000000
1!
0$
b11110 #
b1110 %
#3760000000
0!
#3780000000
1!
0'
b11101 #
b1101 %
#3800000000
0!
#3820000000
1!
b11100 #
b1100 %
#3840000000
0!
#3860000000
1!
b11011 #
b1011 %
#3880000000
0!
#3900000000
1!
b11010 #
b1010 %
#3920000000
0!
#3940000000
1!
b11001 #
b1001 %
#3960000000
0!
#3980000000
1!
b11000 #
b1000 %
#4000000000
0!
#4020000000
1!
b10111 #
b111 %
#4040000000
0!
#4060000000
1!
b10110 #
b110 %
#4080000000
0!
#4100000000
1!
b10101 #
b101 %
#4120000000
0!
#4140000000
1!
b10100 #
b100 %
#4160000000
0!
#4180000000
1!
b10011 #
b11 %
#4200000000
0!
#4220000000
1!
b10010 #
b10 %
#4240000000
0!
#4260000000
1!
b10001 #
b1 %
#4280000000
0!
#4300000000
1!
b10000 #
b0 %
#4320000000
0!
#4340000000
1!
b1111 #
1(
b1111 %
#4360000000
0!
#4380000000
1!
b110 2
b1110 #
0(
b1110 %
#4400000000
0!
#4420000000
1!
b1101 #
b1101 %
#4440000000
0!
#4460000000
1!
b1100 #
b1100 %
#4480000000
0!
#4500000000
1!
b1011 #
b1011 %
#4520000000
0!
#4540000000
1!
b1010 #
b1010 %
#4560000000
0!
#4580000000
1!
b1001 #
b1001 %
#4600000000
0!
#4620000000
1!
b1000 #
b1000 %
#4640000000
0!
#4660000000
1!
b111 #
b111 %
#4680000000
0!
#4700000000
1!
b110 #
b110 %
#4720000000
0!
#4740000000
1!
b101 #
b101 %
#4760000000
0!
#4780000000
1!
b100 #
b100 %
#4800000000
0!
#4820000000
1!
b11 #
b11 %
#4840000000
0!
#4860000000
1!
b10 #
b10 %
#4880000000
0!
#4900000000
1!
b1 #
b1 %
#4920000000
0!
#4940000000
1!
b0 #
b0 %
#4960000000
0!
#4980000000
1!
1$
b11110 #
b1110 %
#5000000000
0!
#5020000000
1!
1'
b11101 #
b1101 %
#5040000000
0!
#5060000000
1!
b11100 #
b1100 %
#5080000000
0!
#5100000000
1!
b11011 #
b1011 %
#5120000000
0!
#5140000000
1!
b11010 #
b1010 %
#5160000000
0!
#5180000000
1!
b11001 #
b1001 %
#5200000000
0!
#5220000000
1!
b11000 #
b1000 %
#5240000000
0!
#5260000000
1!
b10111 #
b111 %
#5280000000
0!
#5300000000
1!
b10110 #
b110 %
#5320000000
0!
#5340000000
1!
b10101 #
b101 %
#5360000000
0!
#5380000000
1!
b10100 #
b100 %
#5400000000
0!
#5420000000
1!
b10011 #
b11 %
#5440000000
0!
#5460000000
1!
b10010 #
b10 %
#5480000000
0!
#5500000000
1!
b10001 #
b1 %
#5520000000
0!
#5540000000
1!
b10000 #
b0 %
#5560000000
0!
#5580000000
1!
1&
b1111 #
b1111 %
#5600000000
0!
#5620000000
1!
0&
b1110 #
b1110 %
#5640000000
0!
#5660000000
1!
b1101 #
b1101 %
#5680000000
0!
#5700000000
1!
b1100 #
b1100 %
#5720000000
0!
#5740000000
1!
b1011 #
b1011 %
#5760000000
0!
#5780000000
1!
b1010 #
b1010 %
#5800000000
0!
#5820000000
1!
b1001 #
b1001 %
#5840000000
0!
#5860000000
1!
b1000 #
b1000 %
#5880000000
0!
#5900000000
1!
b111 #
b111 %
#5920000000
0!
#5940000000
1!
b110 #
b110 %
#5960000000
0!
#5980000000
1!
b101 #
b101 %
#6000000000
0!
#6020000000
1!
b100 #
b100 %
#6040000000
0!
#6060000000
1!
b11 #
b11 %
#6080000000
0!
#6100000000
1!
b10 #
b10 %
#6120000000
0!
#6140000000
1!
b1 #
b1 %
#6160000000
0!
#6180000000
1!
b0 #
b0 %
#6200000000
0!
#6220000000
1!
0$
b11110 #
b1110 %
#6240000000
0!
#6260000000
1!
0'
b11101 #
b1101 %
#6280000000
0!
#6300000000
1!
b11100 #
b1100 %
#6320000000
0!
#6340000000
1!
b11011 #
b1011 %
#6360000000
0!
#6380000000
1!
b11010 #
b1010 %
#6400000000
0!
#6420000000
1!
b11001 #
b1001 %
#6440000000
0!
#6460000000
1!
b11000 #
b1000 %
#6480000000
0!
#6500000000
1!
b10111 #
b111 %
#6520000000
0!
#6540000000
1!
b10110 #
b110 %
#6560000000
0!
#6580000000
1!
b10101 #
b101 %
#6600000000
0!
#6620000000
1!
b10100 #
b100 %
#6640000000
0!
#6660000000
1!
b10011 #
b11 %
#6680000000
0!
#6700000000
1!
b10010 #
b10 %
#6720000000
0!
#6740000000
1!
b10001 #
b1 %
#6760000000
0!
#6780000000
1!
b10000 #
b0 %
#6800000000
0!
#6820000000
1!
b1111 #
1(
b1111 %
#6840000000
0!
#6860000000
1!
b101 2
b1110 #
0(
b1110 %
#6880000000
0!
#6900000000
1!
b1101 #
b1101 %
#6920000000
0!
#6940000000
1!
b1100 #
b1100 %
#6960000000
0!
#6980000000
1!
b1011 #
b1011 %
#7000000000
0!
#7020000000
1!
b1010 #
b1010 %
#7040000000
0!
#7060000000
1!
b1001 #
b1001 %
#7080000000
0!
#7100000000
1!
b1000 #
b1000 %
#7120000000
0!
#7140000000
1!
b111 #
b111 %
#7160000000
0!
#7180000000
1!
b110 #
b110 %
#7200000000
0!
#7220000000
1!
b101 #
b101 %
#7240000000
0!
#7260000000
1!
b100 #
b100 %
#7280000000
0!
#7300000000
1!
b11 #
b11 %
#7320000000
0!
#7340000000
1!
b10 #
b10 %
#7360000000
0!
#7380000000
1!
b1 #
b1 %
#7400000000
0!
#7420000000
1!
b0 #
b0 %
#7440000000
0!
#7460000000
1!
1$
b11110 #
b1110 %
#7480000000
0!
#7500000000
1!
1'
b11101 #
b1101 %
#7520000000
0!
#7540000000
1!
b11100 #
b1100 %
#7560000000
0!
#7580000000
1!
b11011 #
b1011 %
#7600000000
0!
#7620000000
1!
b11010 #
b1010 %
#7640000000
0!
#7660000000
1!
b11001 #
b1001 %
#7680000000
0!
#7700000000
1!
b11000 #
b1000 %
#7720000000
0!
#7740000000
1!
b10111 #
b111 %
#7760000000
0!
#7780000000
1!
b10110 #
b110 %
#7800000000
0!
#7820000000
1!
b10101 #
b101 %
#7840000000
0!
#7860000000
1!
b10100 #
b100 %
#7880000000
0!
#7900000000
1!
b10011 #
b11 %
#7920000000
0!
#7940000000
1!
b10010 #
b10 %
#7960000000
0!
#7980000000
1!
b10001 #
b1 %
#8000000000
0!
#8020000000
1!
b10000 #
b0 %
#8040000000
0!
#8060000000
1!
1&
b1111 #
b1111 %
#8080000000
0!
#8100000000
1!
0&
b1110 #
b1110 %
#8120000000
0!
#8140000000
1!
b1101 #
b1101 %
#8160000000
0!
#8180000000
1!
b1100 #
b1100 %
#8200000000
0!
#8220000000
1!
b1011 #
b1011 %
#8240000000
0!
#8260000000
1!
b1010 #
b1010 %
#8280000000
0!
#8300000000
1!
b1001 #
b1001 %
#8320000000
0!
#8340000000
1!
b1000 #
b1000 %
#8360000000
0!
#8380000000
1!
b111 #
b111 %
#8400000000
0!
#8420000000
1!
b110 #
b110 %
#8440000000
0!
#8460000000
1!
b101 #
b101 %
#8480000000
0!
#8500000000
1!
b100 #
b100 %
#8520000000
0!
#8540000000
1!
b11 #
b11 %
#8560000000
0!
#8580000000
1!
b10 #
b10 %
#8600000000
0!
#8620000000
1!
b1 #
b1 %
#8640000000
0!
#8660000000
1!
b0 #
b0 %
#8680000000
0!
#8700000000
1!
0$
b11110 #
b1110 %
#8720000000
0!
#8740000000
1!
0'
b11101 #
b1101 %
#8760000000
0!
#8780000000
1!
b11100 #
b1100 %
#8800000000
0!
#8820000000
1!
b11011 #
b1011 %
#8840000000
0!
#8860000000
1!
b11010 #
b1010 %
#8880000000
0!
#8900000000
1!
b11001 #
b1001 %
#8920000000
0!
#8940000000
1!
b11000 #
b1000 %
#8960000000
0!
#8980000000
1!
b10111 #
b111 %
#9000000000
0!
#9020000000
1!
b10110 #
b110 %
#9040000000
0!
#9060000000
1!
b10101 #
b101 %
#9080000000
0!
#9100000000
1!
b10100 #
b100 %
#9120000000
0!
#9140000000
1!
b10011 #
b11 %
#9160000000
0!
#9180000000
1!
b10010 #
b10 %
#9200000000
0!
#9220000000
1!
b10001 #
b1 %
#9240000000
0!
#9260000000
1!
b10000 #
b0 %
#9280000000
0!
#9300000000
1!
b1111 #
1(
b1111 %
#9320000000
0!
#9340000000
1!
b100 2
b1110 #
0(
b1110 %
#9360000000
0!
#9380000000
1!
b1101 #
b1101 %
#9400000000
0!
#9420000000
1!
b1100 #
b1100 %
#9440000000
0!
#9460000000
1!
b1011 #
b1011 %
#9480000000
0!
#9500000000
1!
b1010 #
b1010 %
#9520000000
0!
#9540000000
1!
b1001 #
b1001 %
#9560000000
0!
#9580000000
1!
b1000 #
b1000 %
#9600000000
0!
#9620000000
1!
b111 #
b111 %
#9640000000
0!
#9660000000
1!
b110 #
b110 %
#9680000000
0!
#9700000000
1!
b101 #
b101 %
#9720000000
0!
#9740000000
1!
b100 #
b100 %
#9760000000
0!
#9780000000
1!
b11 #
b11 %
#9800000000
0!
#9820000000
1!
b10 #
b10 %
#9840000000
0!
#9860000000
1!
b1 #
b1 %
#9880000000
0!
#9900000000
1!
b0 #
b0 %
#9920000000
0!
#9940000000
1!
1$
b11110 #
b1110 %
#9960000000
0!
#9980000000
1!
1'
b11101 #
b1101 %
#10000000000
0!
#10020000000
1!
b11100 #
b1100 %
#10040000000
0!
#10060000000
1!
b11011 #
b1011 %
#10080000000
0!
#10100000000
1!
b11010 #
b1010 %
#10120000000
0!
#10140000000
1!
b11001 #
b1001 %
#10160000000
0!
#10180000000
1!
b11000 #
b1000 %
#10200000000
0!
#10220000000
1!
b10111 #
b111 %
#10240000000
0!
#10260000000
1!
b10110 #
b110 %
#10280000000
0!
#10300000000
1!
b10101 #
b101 %
#10320000000
0!
#10340000000
1!
b10100 #
b100 %
#10360000000
0!
#10380000000
1!
b10011 #
b11 %
#10400000000
0!
#10420000000
1!
b10010 #
b10 %
#10440000000
0!
#10460000000
1!
b10001 #
b1 %
#10480000000
0!
#10500000000
1!
b10000 #
b0 %
#10520000000
0!
#10540000000
1!
1&
b1111 #
b1111 %
#10560000000
0!
#10580000000
1!
0&
b1110 #
b1110 %
#10600000000
0!
#10620000000
1!
b1101 #
b1101 %
#10640000000
0!
#10660000000
1!
b1100 #
b1100 %
#10680000000
0!
#10700000000
1!
b1011 #
b1011 %
#10720000000
0!
#10740000000
1!
b1010 #
b1010 %
#10760000000
0!
#10780000000
1!
b1001 #
b1001 %
#10800000000
0!
#10820000000
1!
b1000 #
b1000 %
#10840000000
0!
#10860000000
1!
b111 #
b111 %
#10880000000
0!
#10900000000
1!
b110 #
b110 %
#10920000000
0!
#10940000000
1!
b101 #
b101 %
#10960000000
0!
#10980000000
1!
b100 #
b100 %
#11000000000
0!
#11020000000
1!
b11 #
b11 %
#11040000000
0!
#11060000000
1!
b10 #
b10 %
#11080000000
0!
#11100000000
1!
b1 #
b1 %
#11120000000
0!
#11140000000
1!
b0 #
b0 %
#11160000000
0!
#11180000000
1!
0$
b11110 #
b1110 %
#11200000000
0!
#11220000000
1!
0'
b11101 #
b1101 %
#11240000000
0!
#11260000000
1!
b11100 #
b1100 %
#11280000000
0!
#11300000000
1!
b11011 #
b1011 %
#11320000000
0!
#11340000000
1!
b11010 #
b1010 %
#11360000000
0!
#11380000000
1!
b11001 #
b1001 %
#11400000000
0!
#11420000000
1!
b11000 #
b1000 %
#11440000000
0!
#11460000000
1!
b10111 #
b111 %
#11480000000
0!
#11500000000
1!
b10110 #
b110 %
#11520000000
0!
#11540000000
1!
b10101 #
b101 %
#11560000000
0!
#11580000000
1!
b10100 #
b100 %
#11600000000
0!
#11620000000
1!
b10011 #
b11 %
#11640000000
0!
#11660000000
1!
b10010 #
b10 %
#11680000000
0!
#11700000000
1!
b10001 #
b1 %
#11720000000
0!
#11740000000
1!
b10000 #
b0 %
#11760000000
0!
#11780000000
1!
b1111 #
1(
b1111 %
#11800000000
0!
#11820000000
1!
b11 2
b1110 #
0(
b1110 %
#11840000000
0!
#11860000000
1!
b1101 #
b1101 %
#11880000000
0!
#11900000000
1!
b1100 #
b1100 %
#11920000000
0!
#11940000000
1!
b1011 #
b1011 %
#11960000000
0!
#11980000000
1!
b1010 #
b1010 %
#12000000000
0!
#12020000000
1!
b1001 #
b1001 %
#12040000000
0!
#12060000000
1!
b1000 #
b1000 %
#12080000000
0!
#12100000000
1!
b111 #
b111 %
#12120000000
0!
#12140000000
1!
b110 #
b110 %
#12160000000
0!
#12180000000
1!
b101 #
b101 %
#12200000000
0!
#12220000000
1!
b100 #
b100 %
#12240000000
0!
#12260000000
1!
b11 #
b11 %
#12280000000
0!
#12300000000
1!
b10 #
b10 %
#12320000000
0!
#12340000000
1!
b1 #
b1 %
#12360000000
0!
#12380000000
1!
b0 #
b0 %
#12400000000
0!
#12420000000
1!
1$
b11110 #
b1110 %
#12440000000
0!
#12460000000
1!
1'
b11101 #
b1101 %
#12480000000
0!
#12500000000
1!
b11100 #
b1100 %
#12520000000
0!
#12540000000
1!
b11011 #
b1011 %
#12560000000
0!
#12580000000
1!
b11010 #
b1010 %
#12600000000
0!
#12620000000
1!
b11001 #
b1001 %
#12640000000
0!
#12660000000
1!
b11000 #
b1000 %
#12680000000
0!
#12700000000
1!
b10111 #
b111 %
#12720000000
0!
#12740000000
1!
b10110 #
b110 %
#12760000000
0!
#12780000000
1!
b10101 #
b101 %
#12800000000
0!
#12820000000
1!
b10100 #
b100 %
#12840000000
0!
#12860000000
1!
b10011 #
b11 %
#12880000000
0!
#12900000000
1!
b10010 #
b10 %
#12920000000
0!
#12940000000
1!
b10001 #
b1 %
#12960000000
0!
#12980000000
1!
b10000 #
b0 %
#13000000000
0!
#13020000000
1!
1&
b1111 #
b1111 %
#13040000000
0!
#13060000000
1!
0&
b1110 #
b1110 %
#13080000000
0!
#13100000000
1!
b1101 #
b1101 %
#13120000000
0!
#13140000000
1!
b1100 #
b1100 %
#13160000000
0!
#13180000000
1!
b1011 #
b1011 %
#13200000000
0!
#13220000000
1!
b1010 #
b1010 %
#13240000000
0!
#13260000000
1!
b1001 #
b1001 %
#13280000000
0!
#13300000000
1!
b1000 #
b1000 %
#13320000000
0!
#13340000000
1!
b111 #
b111 %
#13360000000
0!
#13380000000
1!
b110 #
b110 %
#13400000000
0!
#13420000000
1!
b101 #
b101 %
#13440000000
0!
#13460000000
1!
b100 #
b100 %
#13480000000
0!
#13500000000
1!
b11 #
b11 %
#13520000000
0!
#13540000000
1!
b10 #
b10 %
#13560000000
0!
#13580000000
1!
b1 #
b1 %
#13600000000
0!
#13620000000
1!
b0 #
b0 %
#13640000000
0!
#13660000000
1!
0$
b11110 #
b1110 %
#13680000000
0!
#13700000000
1!
0'
b11101 #
b1101 %
#13720000000
0!
#13740000000
1!
b11100 #
b1100 %
#13760000000
0!
#13780000000
1!
b11011 #
b1011 %
#13800000000
0!
#13820000000
1!
b11010 #
b1010 %
#13840000000
0!
#13860000000
1!
b11001 #
b1001 %
#13880000000
0!
#13900000000
1!
b11000 #
b1000 %
#13920000000
0!
#13940000000
1!
b10111 #
b111 %
#13960000000
0!
#13980000000
1!
b10110 #
b110 %
#14000000000
0!
#14020000000
1!
b10101 #
b101 %
#14040000000
0!
#14060000000
1!
b10100 #
b100 %
#14080000000
0!
#14100000000
1!
b10011 #
b11 %
#14120000000
0!
#14140000000
1!
b10010 #
b10 %
#14160000000
0!
#14180000000
1!
b10001 #
b1 %
#14200000000
0!
#14220000000
1!
b10000 #
b0 %
#14240000000
0!
#14260000000
1!
b1111 #
1(
b1111 %
#14280000000
0!
#14300000000
1!
b10 2
b1110 #
0(
b1110 %
#14320000000
0!
#14340000000
1!
b1101 #
b1101 %
#14360000000
0!
#14380000000
1!
b1100 #
b1100 %
#14400000000
0!
#14420000000
1!
b1011 #
b1011 %
#14440000000
0!
#14460000000
1!
b1010 #
b1010 %
#14480000000
0!
#14500000000
1!
b1001 #
b1001 %
#14520000000
0!
#14540000000
1!
b1000 #
b1000 %
#14560000000
0!
#14580000000
1!
b111 #
b111 %
#14600000000
0!
#14620000000
1!
b110 #
b110 %
#14640000000
0!
#14660000000
1!
b101 #
b101 %
#14680000000
0!
#14700000000
1!
b100 #
b100 %
#14720000000
0!
#14740000000
1!
b11 #
b11 %
#14760000000
0!
#14780000000
1!
b10 #
b10 %
#14800000000
0!
#14820000000
1!
b1 #
b1 %
#14840000000
0!
#14860000000
1!
b0 #
b0 %
#14880000000
0!
#14900000000
1!
1$
b11110 #
b1110 %
#14920000000
0!
#14940000000
1!
1'
b11101 #
b1101 %
#14960000000
0!
#14980000000
1!
b11100 #
b1100 %
#15000000000
0!
#15020000000
1!
b11011 #
b1011 %
#15040000000
0!
#15060000000
1!
b11010 #
b1010 %
#15080000000
0!
#15100000000
1!
b11001 #
b1001 %
#15120000000
0!
#15140000000
1!
b11000 #
b1000 %
#15160000000
0!
#15180000000
1!
b10111 #
b111 %
#15200000000
0!
#15220000000
1!
b10110 #
b110 %
#15240000000
0!
#15260000000
1!
b10101 #
b101 %
#15280000000
0!
#15300000000
1!
b10100 #
b100 %
#15320000000
0!
#15340000000
1!
b10011 #
b11 %
#15360000000
0!
#15380000000
1!
b10010 #
b10 %
#15400000000
0!
#15420000000
1!
b10001 #
b1 %
#15440000000
0!
#15460000000
1!
b10000 #
b0 %
#15480000000
0!
#15500000000
1!
1&
b1111 #
b1111 %
#15520000000
0!
#15540000000
1!
0&
b1110 #
b1110 %
#15560000000
0!
#15580000000
1!
b1101 #
b1101 %
#15600000000
0!
#15620000000
1!
b1100 #
b1100 %
#15640000000
0!
#15660000000
1!
b1011 #
b1011 %
#15680000000
0!
#15700000000
1!
b1010 #
b1010 %
#15720000000
0!
#15740000000
1!
b1001 #
b1001 %
#15760000000
0!
#15780000000
1!
b1000 #
b1000 %
#15800000000
0!
#15820000000
1!
b111 #
b111 %
#15840000000
0!
#15860000000
1!
b110 #
b110 %
#15880000000
0!
#15900000000
1!
b101 #
b101 %
#15920000000
0!
#15940000000
1!
b100 #
b100 %
#15960000000
0!
#15980000000
1!
b11 #
b11 %
#16000000000
0!
#16020000000
1!
b10 #
b10 %
#16040000000
0!
#16060000000
1!
b1 #
b1 %
#16080000000
0!
#16100000000
1!
b0 #
b0 %
#16120000000
0!
#16140000000
1!
0$
b11110 #
b1110 %
#16160000000
0!
#16180000000
1!
0'
b11101 #
b1101 %
#16200000000
0!
#16220000000
1!
b11100 #
b1100 %
#16240000000
0!
#16260000000
1!
b11011 #
b1011 %
#16280000000
0!
#16300000000
1!
b11010 #
b1010 %
#16320000000
0!
#16340000000
1!
b11001 #
b1001 %
#16360000000
0!
#16380000000
1!
b11000 #
b1000 %
#16400000000
0!
#16420000000
1!
b10111 #
b111 %
#16440000000
0!
#16460000000
1!
b10110 #
b110 %
#16480000000
0!
#16500000000
1!
b10101 #
b101 %
#16520000000
0!
#16540000000
1!
b10100 #
b100 %
#16560000000
0!
#16580000000
1!
b10011 #
b11 %
#16600000000
0!
#16620000000
1!
b10010 #
b10 %
#16640000000
0!
#16660000000
1!
b10001 #
b1 %
#16680000000
0!
#16700000000
1!
b10000 #
b0 %
#16720000000
0!
#16740000000
1!
b1111 #
1(
b1111 %
#16760000000
0!
#16780000000
1!
0(
b1 2
b1110 #
1,
b1110 %
0<
#16800000000
0!
#16820000000
1!
b1101 #
b1101 %
#16840000000
0!
#16860000000
1!
b1100 #
b1100 %
#16880000000
0!
#16900000000
1!
b1011 #
b1011 %
#16920000000
0!
#16940000000
1!
b1010 #
b1010 %
#16960000000
0!
#16980000000
1!
b1001 #
b1001 %
#17000000000
0!
#17020000000
1!
b1000 #
b1000 %
#17040000000
0!
#17060000000
1!
b111 #
b111 %
#17080000000
0!
#17100000000
1!
b110 #
b110 %
#17120000000
0!
#17140000000
1!
b101 #
b101 %
#17160000000
0!
#17180000000
1!
b100 #
b100 %
#17200000000
0!
#17220000000
1!
b11 #
b11 %
#17240000000
0!
#17260000000
1!
b10 #
b10 %
#17280000000
0!
#17300000000
1!
b1 #
b1 %
#17320000000
0!
#17340000000
1!
b0 #
b0 %
#17360000000
0!
#17380000000
1!
1$
b11110 #
b1110 %
#17400000000
0!
#17420000000
1!
1'
b11101 #
b1101 %
#17440000000
0!
#17460000000
1!
b11100 #
b1100 %
#17480000000
0!
#17500000000
1!
b11011 #
b1011 %
#17520000000
0!
#17540000000
1!
b11010 #
b1010 %
#17560000000
0!
#17580000000
1!
b11001 #
b1001 %
#17600000000
0!
#17620000000
1!
b11000 #
b1000 %
#17640000000
0!
#17660000000
1!
b10111 #
b111 %
#17680000000
0!
#17700000000
1!
b10110 #
b110 %
#17720000000
0!
#17740000000
1!
b10101 #
b101 %
#17760000000
0!
#17780000000
1!
b10100 #
b100 %
#17800000000
0!
#17820000000
1!
b10011 #
b11 %
#17840000000
0!
#17860000000
1!
b10010 #
b10 %
#17880000000
0!
#17900000000
1!
b10001 #
b1 %
#17920000000
0!
#17940000000
1!
b10000 #
b0 %
#17960000000
0!
#17980000000
1!
1&
b1111 #
b1111 %
#18000000000
0!
#18020000000
1!
0&
b1110 #
b1110 %
#18040000000
0!
#18060000000
1!
b1101 #
b1101 %
#18080000000
0!
#18100000000
1!
b1100 #
b1100 %
#18120000000
0!
#18140000000
1!
b1011 #
b1011 %
#18160000000
0!
#18180000000
1!
b1010 #
b1010 %
#18200000000
0!
#18220000000
1!
b1001 #
b1001 %
#18240000000
0!
#18260000000
1!
b1000 #
b1000 %
#18280000000
0!
#18300000000
1!
b111 #
b111 %
#18320000000
0!
#18340000000
1!
b110 #
b110 %
#18360000000
0!
#18380000000
1!
b101 #
b101 %
#18400000000
0!
#18420000000
1!
b100 #
b100 %
#18440000000
0!
#18460000000
1!
b11 #
b11 %
#18480000000
0!
#18500000000
1!
b10 #
b10 %
#18520000000
0!
#18540000000
1!
b1 #
b1 %
#18560000000
0!
#18580000000
1!
b0 #
b0 %
#18600000000
0!
#18620000000
1!
0$
b11110 #
b1110 %
#18640000000
0!
#18660000000
1!
0'
b11101 #
b1101 %
#18680000000
0!
#18700000000
1!
b11100 #
b1100 %
#18720000000
0!
#18740000000
1!
b11011 #
b1011 %
#18760000000
0!
#18780000000
1!
b11010 #
b1010 %
#18800000000
0!
#18820000000
1!
b11001 #
b1001 %
#18840000000
0!
#18860000000
1!
b11000 #
b1000 %
#18880000000
0!
#18900000000
1!
b10111 #
b111 %
#18920000000
0!
#18940000000
1!
b10110 #
b110 %
#18960000000
0!
#18980000000
1!
b10101 #
b101 %
#19000000000
0!
#19020000000
1!
b10100 #
b100 %
#19040000000
0!
#19060000000
1!
b10011 #
b11 %
#19080000000
0!
#19100000000
1!
b10010 #
b10 %
#19120000000
0!
#19140000000
1!
b10001 #
b1 %
#19160000000
0!
#19180000000
1!
b10000 #
b0 %
#19200000000
0!
#19220000000
1!
b1111 #
1(
b1111 %
#19240000000
0!
#19260000000
1!
0(
b0 2
b1110 #
0,
b1110 %
1<
